<?xml version="1.0" encoding="UTF-8" standalone="no"?>
<svg
   xmlns:dc="http://purl.org/dc/elements/1.1/"
   xmlns:cc="http://creativecommons.org/ns#"
   xmlns:rdf="http://www.w3.org/1999/02/22-rdf-syntax-ns#"
   xmlns:svg="http://www.w3.org/2000/svg"
   xmlns="http://www.w3.org/2000/svg"
   id="svg8"
   version="1.1"
   viewBox="0 0 120.83866 116.31824"
   height="116.31825mm"
   width="120.83865mm">
  <defs
     id="defs2" />
  <metadata
     id="metadata5">
    <rdf:RDF>
      <cc:Work
         rdf:about="">
        <dc:format>image/svg+xml</dc:format>
        <dc:type
           rdf:resource="http://purl.org/dc/dcmitype/StillImage" />
        <dc:title></dc:title>
      </cc:Work>
    </rdf:RDF>
  </metadata>
  <g
     transform="translate(-11.432092,19.766548)"
     id="layer1">
    <path
       id="path6015"
       d="m 83.94053,96.366627 c -0.66697,-0.10816 -1.41242,-0.32012 -1.65657,-0.47101 -0.37508,-0.23181 -46.084003,-0.30415 -64.090464,-0.10143 -4.810341,0.0542 -5.644444,-0.0146 -5.644444,-0.46562 0,-0.4678 4.08086,-0.5124 35.189581,-0.38454 l 35.189577,0.14462 v -0.89149 c 0,-0.65426 -0.38859,-1.14866 -1.46029,-1.85788 l -1.46029,-0.96637 -24.38068,0.0357 c -28.606582,0.0419 -41.429741,0.21307 -42.281174,0.56456 -0.773465,0.3193 -1.308016,-0.80567 -0.592851,-1.24767 0.26569,-0.164203 14.634127,-0.267246 31.92986,-0.228977 17.295735,0.03827 32.262105,0.01457 33.258605,-0.05267 1.63062,-0.110017 1.81182,-0.204964 1.81182,-0.949322 0,-0.454889 0.17041,-0.932395 0.37869,-1.061116 0.23946,-0.147998 0.12817,-0.409512 -0.30271,-0.711313 -0.37477,-0.262499 -0.87276,-1.238113 -1.10665,-2.168028 -0.23389,-0.929919 -0.90582,-3.198883 -1.49318,-5.042147 -1.05309,-3.304815 -1.06442,-3.421676 -0.81535,-8.409302 l 0.25259,-5.057916 1.36691,-1.39453 c 1.33016,-1.357031 1.74537,-1.994334 0.99863,-1.53283 -0.4446,0.274778 -1.4383,-0.367172 -3.37449,-2.180005 -0.79735,-0.746548 -2.31962,-1.912987 -3.38281,-2.592084 -1.06319,-0.679097 -2.31581,-1.736104 -2.7836,-2.348907 -0.46779,-0.612804 -1.51621,-1.565304 -2.32982,-2.116667 -0.81361,-0.551364 -1.90139,-1.666409 -2.41729,-2.477876 -0.5159,-0.811463 -1.16997,-1.564407 -1.45348,-1.6732 -0.28352,-0.108797 -0.41058,-0.367549 -0.28237,-0.575007 0.29075,-0.470443 -2.1048,-2.751183 -3.83721,-3.653303 -0.71202,-0.37077 -1.9323,-1.280771 -2.71173,-2.022225 -1.46136,-1.390159 -1.47972,-1.480195 -0.80532,-3.948246 0.0978,-0.358084 -0.12917,-0.988664 -0.50803,-1.411112 -1.334658,-1.488251 -5.076829,-7.024527 -5.724956,-8.469695 -0.800089,-1.784004 -1.665298,-4.707918 -2.496502,-8.436758 -0.34278,-1.53773 -0.928988,-3.138445 -1.302682,-3.557146 C 44.701396,17.623811 44.217623,16.240202 43.752159,13.30773 43.536576,11.949536 42.510787,8.1395355 41.472628,4.8410635 40.43447,1.5425905 39.323226,-2.2674093 39.003197,-3.6256037 38.218645,-6.955227 36.65192,-9.6386212 35.007865,-10.468569 c -2.181478,-1.101249 -5.061528,-1.777507 -6.649663,-1.561392 -0.812329,0.110542 -2.042641,0.09486 -2.734028,-0.03484 -1.077547,-0.20215 -1.257067,-0.373822 -1.257067,-1.202115 0,-0.711592 0.295546,-1.140869 1.121274,-1.628639 1.081074,-0.638606 1.093721,-0.672545 0.352778,-0.946638 -1.144164,-0.423253 -1.026016,-1.919737 0.201642,-2.554037 2.520222,-1.302134 7.645013,-1.829481 8.762905,-0.901713 0.42464,0.35242 1.581572,0.453598 4.385085,0.383492 2.81266,-0.07033 3.881766,0.0237 4.089428,0.359708 0.154642,0.250216 0.293802,1.886009 0.309244,3.635095 0.02695,3.052465 0.08071,3.260924 1.338971,5.1916818 0.720993,1.10634 1.310894,2.14227 1.310894,2.302067 0,0.159797 0.872155,1.5564858 1.938125,3.1037519 5.224117,7.5828638 4.758105,6.5808508 4.820225,10.3644328 0.03059,1.861689 0.03411,3.623015 0.0079,3.914056 -0.449312,4.9830255 0.233027,6.6370105 4.249652,10.3011115 1.87379,1.709332 3.84018,3.910539 4.72438,5.288527 1.70329,2.654533 2.3253,3.107585 4.2665,3.107585 0.82938,0 1.58705,0.23973 1.95116,0.617361 1.68752,1.750155 4.79985,4.145079 5.79876,4.462124 0.70482,0.2237 2.22945,3.223126 2.22945,4.386037 0,0.351641 0.25304,1.381999 0.56233,2.28969 0.58518,1.717431 1.55334,2.250528 1.55565,0.856594 7.1e-4,-0.436563 0.35584,-1.349376 0.78915,-2.028473 0.43331,-0.679097 1.1074,-1.869722 1.49799,-2.645833 0.54606,-1.085039 0.94606,-1.438039 1.73108,-1.527637 0.8497,-0.09699 1.4118,0.262618 3.35139,2.144056 1.28176,1.24332 2.85754,2.683948 3.50175,3.201395 0.64422,0.517447 1.87146,1.800338 2.72722,2.850868 1.30399,1.600789 1.79978,1.951161 3.06203,2.163942 1.05911,0.178534 1.84642,0.614356 2.65265,1.468392 1.19249,1.263188 1.59786,2.328771 0.55999,1.472039 -0.72409,-0.597715 -0.55931,-0.168998 0.58654,1.526025 0.75385,1.115148 1.99841,1.929822 2.37415,1.554085 0.25598,-0.255986 -0.36791,-1.27122 -0.7812,-1.27122 -0.51436,0 -1.42976,-0.986346 -1.16299,-1.253117 0.42683,-0.426825 1.96737,0.580119 2.36826,1.547968 l 0.43897,1.059759 1.80416,-0.535774 c 0.99228,-0.294679 2.50038,-1.106283 3.35132,-1.80357 1.28591,-1.053701 1.88772,-1.292422 3.56382,-1.413661 2.17705,-0.157473 5.00286,0.589241 6.16908,1.630168 0.36469,0.325512 0.95786,1.274692 1.31816,2.109294 0.57775,1.338319 0.61472,1.900523 0.31317,4.7625 -0.18805,1.784773 -0.34466,3.337302 -0.34802,3.450061 -0.006,0.197312 6.76832,0.104051 11.74229,-0.161657 2.25996,-0.120728 2.39357,-0.08565 2.29305,0.602043 -0.10104,0.691321 -0.30416,0.725964 -3.8109,0.649969 -2.03729,-0.04415 -5.22899,-0.170875 -7.09266,-0.281612 -2.93595,-0.174445 -3.41822,-0.123892 -3.61101,0.37852 -0.12239,0.318921 -0.79431,0.818765 -1.49316,1.110763 -0.85539,0.357406 -1.2065,0.69807 -1.07437,1.042405 0.10796,0.281323 0.0822,0.523293 -0.0572,0.537711 -1.12717,0.116558 -2.12006,0.428258 -2.81535,0.883832 -0.46184,0.302606 -1.12901,0.440866 -1.52339,0.315697 -0.42356,-0.134433 -1.19422,0.06791 -1.94436,0.510498 -1.55646,0.918341 -2.15224,0.925096 -2.43708,0.02766 -0.12316,-0.388056 -0.41167,-0.716492 -0.64113,-0.729862 -0.22946,-0.01337 -0.85376,-0.08192 -1.38734,-0.152322 -0.53357,-0.07041 -0.97014,0.0199 -0.97014,0.200695 0,0.566021 -1.03387,0.358362 -1.4371,-0.28865 -0.34221,-0.549109 -0.93151,-0.605508 -5.33039,-0.510145 -3.9447,0.08552 -4.91449,0.01411 -4.79172,-0.352778 0.11736,-0.350742 1.25698,-0.447393 4.79823,-0.406943 4.29496,0.04906 4.64432,0.0042 4.64432,-0.596544 0,-0.7969 -0.45491,-1.104928 -2.36256,-1.599734 -1.1236,-0.29144 -1.73529,-0.276959 -2.53681,0.06005 -0.58091,0.244253 -1.60628,0.497692 -2.27859,0.563192 -1.24052,0.120862 -3.65447,2.098439 -5.41183,4.433521 -0.42445,0.563989 -1.5357,1.417461 -2.46944,1.8966 l -1.69771,0.871168 -0.26805,2.980182 c -0.14742,1.639097 -0.42331,3.853529 -0.61307,4.92096 -0.25476,1.43298 -0.20975,2.817534 0.17204,5.291667 0.83693,5.423733 0.80409,5.360049 3.20163,6.207944 1.33348,0.471593 2.21999,1.015922 2.4418,1.499305 0.34118,0.743547 0.50728,0.758914 8.20208,0.758914 5.00071,0 7.85384,0.128157 7.85384,0.35278 0,0.22472 -2.87775,0.35278 -7.92768,0.35278 H 89.6507 l 0.0784,1.93729 0.0784,1.93729 10.58333,0.038 c 5.82084,0.0209 12.32959,0.0726 14.46389,0.11492 2.13431,0.0423 6.53962,0.10589 9.78958,0.14134 3.72476,0.0406 5.90903,0.19698 5.90903,0.42296 0,0.42428 -40.86939,0.36517 -41.13184,-0.0595 -0.20286,-0.32823 -1.28529,0.0396 -1.62688,0.55281 -0.27338,0.41075 -1.9654,0.49252 -3.85396,0.18624 z m 0.60078,-2.28516 c 0.32638,-1.73975 0.97534,-1.55959 0.67996,0.18877 -0.15673,0.92766 -0.10692,1.41111 0.14538,1.41111 0.21387,0 0.38379,-0.63777 0.38379,-1.44051 0,-0.98205 0.1379,-1.39454 0.43332,-1.29607 0.23832,0.0794 0.44929,0.44986 0.46882,0.82314 0.0856,1.63627 0.17802,1.94159 0.52314,1.72829 0.23314,-0.14409 0.27894,-1.00472 0.12558,-2.36021 -0.19696,-1.74086 -0.15088,-2.10363 0.25041,-1.9715 0.30791,0.10138 0.55773,0.87714 0.66817,2.0748 0.12408,1.34558 0.27303,1.7627 0.50224,1.40647 0.40916,-0.63589 0.26077,-4.29095 -0.19657,-4.842017 -0.18734,-0.225725 -1.12699,-0.599055 -2.08812,-0.829627 -0.96113,-0.230572 -1.86479,-0.601705 -2.00814,-0.824745 -0.66779,-1.039005 -1.1919,-3.096479 -1.38991,-5.45633 -0.2295,-2.735202 -0.80163,-2.842859 -0.81132,-0.152668 -0.003,0.824618 -0.16415,1.499306 -0.35818,1.499306 -0.52679,0 -0.42584,-2.912417 0.12873,-3.713865 0.44621,-0.644846 0.90347,-3.211752 1.098,-6.163913 0.0447,-0.679097 0.20713,-2.309008 0.36084,-3.622026 0.27862,-2.379955 0.28448,-2.390066 1.90359,-3.284023 2.07461,-1.145444 3.44473,-2.949021 4.11998,-5.423411 0.78953,-2.893145 1.24276,-3.541872 3.85885,-5.523364 1.3081,-0.990787 2.633,-2.2211 2.94423,-2.734028 0.31123,-0.512925 0.68785,-0.932593 0.83693,-0.932593 0.84848,0 -0.0186,-2.536761 -1.23033,-3.599434 -0.3768,-0.330454 -0.6275,-0.773578 -0.55712,-0.984719 0.0704,-0.211141 0.66326,0.168388 1.31751,0.843403 1.22469,1.263559 1.48695,2.430837 1.51419,6.739361 0.007,1.138919 0.0657,1.262624 0.3032,0.641311 0.16185,-0.423393 0.39693,-1.693393 0.5224,-2.822222 0.21748,-1.956721 0.16562,-2.14691 -1.11215,-4.078799 -1.11309,-1.682912 -1.55194,-2.061242 -2.58914,-2.232081 -0.68688,-0.11314 -2.01427,-0.520245 -2.94976,-0.904685 -0.93548,-0.384436 -3.50008,-0.90824 -5.69911,-1.164008 -2.34117,-0.272302 -4.32132,-0.691339 -4.77781,-1.011079 -0.42877,-0.300323 -0.97023,-0.472884 -1.20325,-0.383469 -0.23302,0.08942 -0.87975,-0.07404 -1.43719,-0.363245 -0.98088,-0.508885 -1.0341,-0.491977 -1.6525,0.524895 -0.98528,1.620163 -0.79982,2.337276 0.27433,1.060728 0.50232,-0.59697 1.07438,-1.085402 1.27127,-1.085402 0.19687,0 -0.13474,0.56115 -0.73692,1.246999 -0.60218,0.685846 -1.09731,1.439909 -1.10028,1.675695 -0.004,0.270418 -0.13347,0.233324 -0.35229,-0.100471 -0.24628,-0.375702 -0.28725,-0.171083 -0.14128,0.705555 0.13834,0.830831 0.0957,1.079511 -0.13023,0.760229 -0.25823,-0.36486 -0.38629,-0.273381 -0.55428,0.39594 -0.12016,0.478741 -0.94596,1.85866 -1.83511,3.066486 -0.88915,1.20783 -1.53213,2.416299 -1.42883,2.685486 0.1033,0.269187 -0.12014,0.65424 -0.49652,0.855673 -0.37638,0.201436 -0.85435,0.683934 -1.06216,1.072219 -0.31778,0.593774 -0.20493,0.851453 0.71005,1.621359 1.79584,1.511096 3.60886,2.649541 3.45018,2.166458 -0.0818,-0.24916 -0.69219,-0.819743 -1.35632,-1.267961 -1.59974,-1.079645 -1.63644,-1.329411 -0.29705,-2.022034 1.38457,-0.715987 4.2416,-0.875969 4.4615,-0.249827 0.11257,0.320541 -0.41517,0.440972 -1.9324,0.440972 -1.148,0 -2.17193,0.08467 -2.27541,0.188147 -0.10349,0.103484 0.3443,0.720606 0.99508,1.371382 l 1.18323,1.183234 1.49558,-0.515267 c 0.82257,-0.283397 1.86045,-0.445516 2.3064,-0.360267 0.5048,0.0965 0.93233,-0.06019 1.13274,-0.415142 0.24297,-0.430319 0.42247,-0.470648 0.73194,-0.164448 0.31105,0.307764 0.25188,0.563838 -0.24511,1.060831 -0.50431,0.50431 -1.06104,0.627765 -2.41822,0.536233 -1.3582,-0.0916 -1.9448,0.03871 -2.55445,0.567447 l -0.79137,0.686354 0.89442,0.894422 c 1.22723,1.227229 2.42356,1.469901 3.56365,0.722884 0.51071,-0.334631 0.74955,-0.668087 0.53076,-0.741017 -0.21879,-0.07293 -0.63963,0.109227 -0.93519,0.404795 -0.65692,0.656915 -2.46575,0.158595 -2.99172,-0.824198 -0.48047,-0.897767 -0.0556,-1.1182 0.69967,-0.362973 0.52665,0.526651 0.89199,0.590327 1.9796,0.345034 0.73357,-0.165449 1.4219,-0.249051 1.52962,-0.185783 0.10773,0.06327 0.71321,-0.576672 1.34552,-1.422086 l 1.14966,-1.537113 -1.14966,-0.60403 c -0.63231,-0.332218 -1.66559,-0.562984 -2.29618,-0.512815 -0.67401,0.05362 -1.14653,-0.0739 -1.14653,-0.309415 0,-0.220345 0.15547,-0.304542 0.34549,-0.187102 0.19002,0.117436 0.66638,0.04178 1.05858,-0.168117 0.57641,-0.308483 0.96308,-0.211772 2.0172,0.504518 1.23901,0.841933 1.3375,0.855924 1.97346,0.280392 0.6493,-0.587615 0.63611,-0.612564 -0.44031,-0.832715 -1.77772,-0.363583 -1.7297,-0.709714 0.0854,-0.615759 2.64762,0.137054 4.67052,-1.89859 3.40364,-3.425091 -0.56728,-0.683525 -0.144,-1.079144 0.54383,-0.5083 0.55545,0.460982 0.7246,2.370839 0.26771,3.022684 -0.14255,0.203377 -0.77881,0.732748 -1.41391,1.176384 -1.14853,0.802284 -4.36576,4.927974 -5.37308,6.890276 -0.29026,0.565457 -1.377,1.912912 -2.41497,2.994346 l -1.88721,1.966245 0.13358,5.472321 c 0.0803,3.28785 0.29917,5.768033 0.54837,6.213116 0.22814,0.407437 0.74314,1.994937 1.14447,3.527777 0.97515,3.724501 1.29196,4.285174 2.42499,4.291532 0.51377,0.0028 1.1364,-0.158645 1.38363,-0.358952 0.64974,-0.52644 0.97078,-0.03037 0.41428,0.640179 -0.31892,0.384274 -0.79179,0.504038 -1.46138,0.37012 -0.95053,-0.190105 -0.9899,-0.142765 -0.9899,1.190403 0,1.398875 0.0875,1.533835 1.85208,2.856755 0.77446,0.58062 0.97014,1.01098 0.97014,2.13365 0,1.67321 0.57761,1.52352 0.90754,-0.23519 z m -2.50955,-3.00971 c -0.38429,-0.621795 0.0208,-0.708973 0.74582,-0.16049 0.59685,0.45155 0.60701,0.51567 0.0833,0.52552 -0.3281,0.006 -0.70118,-0.15809 -0.82908,-0.36503 z m -1.65019,-9.735371 c -0.33176,-0.624717 -0.27966,-2.941155 0.0661,-2.941155 0.20011,0 0.36383,-0.326869 0.36383,-0.726376 0,-0.399507 0.13591,-0.64238 0.30201,-0.539726 0.1661,0.102659 0.22686,1.024841 0.13501,2.049294 -0.16191,1.805957 -0.5461,2.762211 -0.86699,2.157963 z M 79.74636,77.77787 c -0.0426,-1.64338 -1.10289,-7.204558 -1.52534,-8.0004 -0.5514,-1.038761 -0.47025,-1.801869 0.15081,-1.418036 0.45614,0.281915 1.34424,2.46852 1.31466,3.23687 -0.0132,0.343923 0.15391,1.657191 0.37144,2.918372 0.48932,2.836954 0.49874,3.527778 0.0481,3.527778 -0.19403,0 -0.35587,-0.119063 -0.35964,-0.264584 z m 1.28567,-2.248958 c -0.36125,-1.806261 -0.26302,-4.61499 0.15651,-4.475145 0.21635,0.07211 0.40426,1.287367 0.44097,2.851926 0.066,2.810411 -0.21006,3.560293 -0.59748,1.623219 z M 79.6205,69.678255 c -0.42223,-0.422226 -0.21336,-0.998855 0.73053,-2.016796 0.52283,-0.563841 1.00637,-0.857835 1.07455,-0.653312 0.16036,0.481083 -1.51536,2.95983 -1.80508,2.670108 z m 1.8966,-3.941897 c 0,-0.359915 1.40885,-0.68864 2.04399,-0.476927 0.23642,0.07881 0.34012,0.288477 0.23045,0.465931 -0.25586,0.413992 -2.27444,0.423749 -2.27444,0.01101 z m 3.4191,-1.325732 c -0.12445,-0.124449 0.40472,-0.979918 1.17593,-1.901042 0.8662,-1.034577 1.4022,-2.034857 1.4022,-2.616771 0,-0.538166 0.15123,-0.84853 0.35277,-0.723971 0.72969,0.450974 0.32344,2.038791 -0.88194,3.447002 -0.6791,0.793373 -1.23472,1.572673 -1.23472,1.731776 0,0.344163 -0.49479,0.38245 -0.81424,0.06301 z M 71.77797,56.670544 c 0.11778,-0.30691 0.21413,-0.686576 0.21413,-0.8437 0,-0.157124 0.38213,-0.381589 0.84918,-0.49881 0.46704,-0.117221 1.10204,-0.310162 1.41111,-0.428763 1.10939,-0.425714 0.53552,0.447323 -0.67279,1.023525 -0.67909,0.32384 -1.23472,0.750115 -1.23472,0.947283 0,0.197167 -0.17573,0.358485 -0.39052,0.358485 -0.21478,0 -0.29416,-0.251107 -0.17639,-0.55802 z m 7.09485,-0.855599 c 0.3348,-0.541712 2.29151,-1.473077 2.29151,-1.090722 0,0.184799 -0.50065,0.585752 -1.11254,0.891004 -1.30293,0.649986 -1.4753,0.679185 -1.17897,0.199718 z M 75.1671,54.826208 c 0,-0.170784 0.33419,-0.612931 0.74263,-0.98255 0.40845,-0.369623 1.27378,-1.791325 1.92297,-3.159337 1.17776,-2.481855 2.41496,-4.015013 2.87153,-3.558441 0.13263,0.132623 -0.10913,0.48647 -0.53723,0.786324 -0.4281,0.299854 -0.69809,0.675093 -0.59996,0.833861 0.0981,0.158764 -0.0599,0.486445 -0.35117,0.728179 -0.29127,0.24173 -1.01121,1.448671 -1.59986,2.682088 -0.92514,1.938447 -2.44891,3.59971 -2.44891,2.669876 z m -1.16522,-1.566394 c 0.59941,-0.63059 1.4983,-1.940278 1.99752,-2.910417 0.87939,-1.708908 0.90228,-1.725404 0.73457,-0.529166 -0.18649,1.330194 0.0476,0.986 0.93206,-1.370267 0.57495,-1.531786 3.47712,-3.518768 3.93761,-2.695906 0.231,0.412778 0.73506,0.478578 2.36282,0.30844 1.9368,-0.202434 4.19407,0.05412 3.81463,0.433568 -0.0931,0.0931 -1.62493,0.212816 -3.40407,0.26604 -2.54201,0.07605 -3.19702,-0.0018 -3.05842,-0.362832 0.29798,-0.776545 -0.65115,-0.510917 -1.82426,0.51054 -0.61279,0.533576 -1.51309,1.922639 -2.00066,3.086806 -0.48757,1.164166 -0.89936,1.878541 -0.9151,1.5875 -0.0157,-0.291042 -0.28215,-0.06074 -0.59203,0.511785 -0.66193,1.222975 -1.84347,2.282116 -2.56434,2.2987 -0.32069,0.0074 -0.10539,-0.414105 0.57967,-1.134791 z M 94.50347,50.46773 c -0.34299,-0.523459 -1.3375,-1.123058 -2.54158,-1.53234 -1.08797,-0.36981 -1.97812,-0.815467 -1.97812,-0.990346 0,-0.711359 4.83448,1.192611 5.15605,2.030614 0.38461,1.002294 -0.0711,1.354712 -0.63635,0.492072 z m 14.0219,14.003997 c 0.37663,-0.284868 1.00229,-0.535943 1.39034,-0.557943 0.52808,-0.02995 0.4123,-0.168102 -0.46027,-0.549275 -1.32343,-0.578118 -1.90467,-0.398018 -1.58117,0.489938 0.20301,0.557241 0.1629,0.555318 -0.49806,-0.02388 -0.70189,-0.615071 -0.71482,-0.608827 -0.54786,0.264583 0.1941,1.01533 0.70316,1.128293 1.69702,0.376577 z m -4.21521,-1.457953 c 0.52895,-0.666535 0.72715,-0.622081 0.94527,0.212013 0.23434,0.896097 0.8199,0.911761 1.05098,0.02812 0.20031,-0.765979 -1.06449,-1.27411 -2.24153,-0.900532 -0.37754,0.119824 -0.67556,0.0483 -0.67556,-0.162137 0,-0.659402 3.00105,-0.607314 3.81255,0.06617 0.36067,0.299335 0.66203,0.150061 1.29985,-0.643883 l 0.83031,-1.033562 0.73282,0.779001 c 0.40304,0.428448 0.73281,1.093766 0.73281,1.478484 0,0.806228 0.55176,1.27538 0.87838,0.74688 0.12188,-0.197192 0.60092,-0.358531 1.06454,-0.358531 1.08691,0 2.91248,-1.635704 2.39884,-2.149345 -0.20192,-0.201926 -0.30716,-1.18999 -0.23385,-2.195703 0.14506,-1.990115 0.0292,-2.211846 -2.11921,-4.057562 l -1.36268,-1.170665 -0.78016,0.732921 c -0.42908,0.403105 -0.88744,0.625634 -1.01856,0.494506 -0.13113,-0.131134 -0.23841,0.202502 -0.23841,0.741405 v 0.979823 l 0.67518,-0.832835 c 0.37136,-0.458057 0.79372,-0.714742 0.93858,-0.57041 0.14486,0.144332 -2.2e-4,0.553706 -0.32241,0.909723 -0.32219,0.356016 -0.5858,0.940286 -0.5858,1.298377 0,0.588998 0.0825,0.573592 0.865,-0.161547 0.554,-0.520453 1.12477,-0.744693 1.5875,-0.623687 1.01178,0.264587 0.89937,-0.2546 -0.24764,-1.14379 l -0.97014,-0.752073 1.14142,0.552676 c 0.66751,0.323208 1.2324,0.91518 1.36055,1.425769 0.12052,0.480197 0.36094,0.785442 0.53427,0.678317 0.40305,-0.249092 0.39659,-0.06048 -0.037,1.079853 -0.39042,1.026891 -1.20991,0.856608 -0.88,-0.182851 0.13808,-0.435032 -0.0259,-0.779414 -0.48925,-1.027378 -0.56129,-0.300393 -0.89875,-0.203189 -1.73369,0.499364 -1.02642,0.863675 -1.04298,0.865477 -1.66258,0.180827 -0.43004,-0.475191 -0.88625,-0.626173 -1.45826,-0.482607 -0.99439,0.24958 -1.14053,-0.427782 -0.15947,-0.739161 0.72915,-0.231422 1.21368,-1.113822 0.89486,-1.629678 -0.26367,-0.426632 -1.11866,-0.409522 -1.38893,0.0278 -0.1236,0.199975 0.018,0.259115 0.33195,0.138645 0.30112,-0.115552 0.54749,-0.03436 0.54749,0.180428 0,0.214789 -0.19844,0.407395 -0.44097,0.428022 -0.24253,0.02064 -0.75847,0.06031 -1.14653,0.08819 -0.44873,0.03224 -0.74756,0.347024 -0.82095,0.864775 -0.0635,0.447746 -0.29167,0.755322 -0.50711,0.683507 -0.60302,-0.201002 -0.70105,-0.863237 -0.19012,-1.284333 2.57177,-2.119634 2.84096,-2.270771 3.40765,-1.913266 0.42129,0.265776 0.79716,0.223598 1.37373,-0.15415 0.73152,-0.479273 1.19079,-1.43148 0.47793,-0.990907 -0.17369,0.107351 -0.41362,-0.05971 -0.53316,-0.371235 -0.1538,-0.400791 -0.0648,-0.507862 0.30451,-0.366158 0.28703,0.11014 0.60542,0.06508 0.70753,-0.100147 0.35511,-0.574569 -0.92462,-0.721508 -1.47659,-0.169541 -0.30872,0.308719 -0.86823,0.473777 -1.25933,0.371503 -0.52826,-0.138144 -0.60312,-0.08339 -0.30018,0.219551 0.69451,0.694517 0.44027,1.033738 -0.35651,0.475654 -0.50216,-0.35173 -0.95753,-0.426727 -1.34192,-0.221008 -0.34413,0.184174 -0.79024,0.174685 -1.09199,-0.02321 -0.43374,-0.284494 -0.41768,-0.389121 0.10721,-0.698472 1.13125,-0.666725 0.63613,-1.009675 -0.75108,-0.520238 -1.58809,0.56031 -3.59754,0.787146 -4.11886,0.464958 -0.21997,-0.135947 -0.61104,0.907831 -0.99732,2.661839 -0.61912,2.811251 -0.68228,2.920425 -2.45529,4.243772 -1.22571,0.914858 -1.53189,1.273633 -0.93787,1.09898 0.48507,-0.142621 0.98082,-0.413053 1.10167,-0.600964 0.13908,-0.216267 0.4866,-0.198818 0.94694,0.04755 0.39998,0.214062 1.12896,0.389202 1.61995,0.389202 0.56442,0 1.04876,0.291556 1.31703,0.792811 0.28088,0.524831 0.47639,0.636517 0.57843,0.330419 0.0848,-0.254314 -0.14002,-0.677474 -0.49953,-0.940354 -0.35951,-0.262883 -0.53582,-0.595806 -0.39179,-0.739831 0.14402,-0.144029 0.59497,0.03959 1.00209,0.40803 0.56823,0.51424 0.69608,0.941987 0.55021,1.840865 -0.26456,1.630277 0.0396,2.259622 0.96053,1.987119 0.41358,-0.122389 0.92822,-0.44462 1.14364,-0.716072 z m 0.69008,-1.888081 c -0.50389,-0.182929 -0.565,-0.32004 -0.23384,-0.524704 0.24656,-0.152382 0.62231,-0.103035 0.83501,0.109658 0.52049,0.520492 0.23404,0.718255 -0.60117,0.415046 z m 1.36369,-1.163101 c 0.0814,-0.436562 0.15976,-0.922182 0.17418,-1.079154 0.0144,-0.156972 0.16367,-0.200449 0.33168,-0.09661 0.38102,0.235479 0.0778,1.969516 -0.34438,1.969516 -0.17019,0 -0.24285,-0.357187 -0.16148,-0.79375 z m -4.03294,-0.562359 c 0,-0.667964 1.49856,-2.171669 2.16424,-2.171669 0.59372,0 0.2945,0.542946 -0.48855,0.886485 -0.43656,0.19153 -0.79375,0.652071 -0.79375,1.023422 0,0.371352 -0.19843,0.741769 -0.44097,0.823151 -0.25563,0.08577 -0.44097,-0.150181 -0.44097,-0.561389 z m -3.88055,-0.760558 c 0,-0.194027 0.4454,-0.352777 0.98979,-0.352777 0.54439,0 1.52773,-0.396875 2.1852,-0.881945 1.27282,-0.939056 1.76389,-1.090517 1.76389,-0.544036 0,0.185847 -0.68863,0.741472 -1.5303,1.234722 -1.53905,0.901944 -3.40858,1.200337 -3.40858,0.544036 z m 13.58194,-0.705555 c -0.11992,-0.194028 0.0201,-0.352778 0.31114,-0.352778 0.29104,0 0.62728,0.15875 0.74719,0.352778 0.11992,0.194028 -0.0201,0.352778 -0.31114,0.352778 -0.29104,0 -0.62728,-0.15875 -0.74719,-0.352778 z M 100.5732,55.376481 c 0.007,-0.484907 2.14578,-2.110857 2.41838,-1.838258 0.20734,0.207345 -1.73589,2.27923 -2.1377,2.27923 -0.15773,0 -0.28403,-0.198437 -0.28068,-0.440972 z m 8.46057,-2.007651 c 0,-0.591408 0.62566,-0.737849 0.8339,-0.195185 0.12288,0.320202 -0.001,0.527141 -0.31581,0.527141 -0.28495,0 -0.51809,-0.14938 -0.51809,-0.331956 z m -18.34985,8.710429 c 0.003,-0.145521 -0.15334,-0.264584 -0.34737,-0.264584 -0.19403,0 -0.35035,0.357188 -0.34738,0.79375 0.004,0.641858 0.0708,0.692489 0.34738,0.264584 0.18808,-0.291042 0.3444,-0.648229 0.34737,-0.79375 z m 1.27441,-1.632321 c 0.36692,-0.762864 4.72822,-5.557802 4.72822,-5.198343 0,0.510787 -1.07727,2.784179 -1.2415,2.619958 -0.24388,-0.243879 -2.99184,2.420175 -2.99184,2.900489 0,0.402019 1.0998,-0.350132 3.50261,-2.395428 1.39302,-1.18575 1.95497,-2.654244 1.58293,-4.136549 -0.19003,-0.757139 -0.32521,-0.685659 -2.23351,1.180987 -1.11718,1.092796 -2.49373,2.324661 -3.05899,2.737475 -0.56527,0.412817 -1.21241,1.246254 -1.43809,1.852083 -0.36198,0.97173 -0.33716,1.10151 0.21068,1.10151 0.34155,0 0.76432,-0.297981 0.93949,-0.662182 z m 25.70177,-3.671944 c -0.009,-1.787828 -0.21208,-3.709176 -0.45084,-4.269662 -0.62742,-1.472819 -0.86065,-0.927569 -0.29919,0.699452 0.57215,1.658 0.53845,6.333473 -0.0499,6.921811 -0.22994,0.229944 -0.41808,0.579099 -0.41808,0.775899 0,0.196797 0.27781,0.08 0.61736,-0.259545 0.5015,-0.501495 0.61422,-1.227438 0.60064,-3.867955 z m -1.13164,2.040971 c 0.0905,-0.473272 0.0287,-0.776555 -0.13732,-0.67396 -0.166,0.102591 -0.30182,0.01842 -0.30182,-0.187064 0,-0.205479 0.14402,-0.373599 0.32004,-0.373599 0.17601,0 0.28515,-0.878642 0.24252,-1.952537 -0.0578,-1.454965 -0.26988,-2.14491 -0.8324,-2.707425 -0.70182,-0.701823 -0.71267,-0.786084 -0.15433,-1.198714 0.48112,-0.355558 0.51286,-0.53274 0.15959,-0.890908 -0.62408,-0.632729 -0.54972,-1.18817 0.0882,-0.658749 0.62727,0.520587 0.71786,-0.02297 0.10584,-0.635 -0.71413,-0.714132 -0.94138,-0.478173 -0.78143,0.811388 0.19366,1.561398 -0.16633,1.560065 -1.17973,-0.0044 -0.55882,-0.862658 -1.05959,-1.230348 -1.6757,-1.230348 -0.48328,0 -0.8787,0.15875 -0.8787,0.352778 0,0.194028 0.21757,0.352778 0.48349,0.352778 0.85678,0 3.16852,2.733565 3.63735,4.301049 0.57451,1.920826 0.57973,3.41049 0.007,1.960756 -0.21086,-0.533576 -0.51147,-0.970138 -0.66804,-0.970138 -0.15657,0 -0.28468,-0.28575 -0.28468,-0.635 0,-0.34925 -0.19844,-0.845344 -0.44097,-1.102431 -0.3531,-0.374283 -0.35016,-0.500631 0.0147,-0.63403 0.35,-0.127956 0.36044,-0.281372 0.045,-0.661458 -0.46612,-0.56164 -1.18694,-0.681638 -0.85347,-0.142082 0.11991,0.194028 -0.0295,0.352778 -0.33196,0.352778 -0.30248,0 -0.54997,-0.148054 -0.54997,-0.329004 0,-0.180954 -0.33848,-0.436432 -0.75217,-0.567736 -0.58486,-0.185628 -0.64437,-0.30535 -0.26754,-0.538247 0.27589,-0.170511 0.63026,-0.153899 0.82273,0.03857 0.18595,0.185949 0.49684,0.338088 0.69086,0.338088 0.71375,0 -0.41916,-0.759481 -1.27267,-0.853172 -1.37143,-0.150548 -1.05569,0.817961 0.66119,2.02813 0.84079,0.592639 1.52871,1.353129 1.52871,1.689975 0,0.336846 0.20676,0.822226 0.45946,1.078618 0.95518,0.969123 1.66627,3.39501 1.28732,4.39172 -0.30317,0.797398 -0.28119,0.878128 0.14319,0.525921 0.27574,-0.22884 0.57536,-0.803296 0.66583,-1.276569 z m -3.19668,-4.838837 c -0.25314,-0.253139 -0.41746,-0.273967 -0.41746,-0.05292 0,0.470881 0.4172,0.888079 0.65264,0.652639 0.10025,-0.100245 -0.006,-0.37012 -0.23518,-0.599722 z m -1.12301,-0.805508 c -0.24155,-0.291042 -0.59792,-0.529167 -0.79195,-0.529167 -0.19679,0 -0.15859,0.233983 0.0864,0.529167 0.24155,0.291041 0.59792,0.529166 0.79195,0.529166 0.19679,0 0.15859,-0.233983 -0.0864,-0.529166 z M 71.46294,52.995231 c 0.11991,-0.194028 -0.0295,-0.352778 -0.33196,-0.352778 -0.30249,0 -0.54999,0.15875 -0.54999,0.352778 0,0.194028 0.14938,0.352778 0.33196,0.352778 0.18258,0 0.43007,-0.15875 0.54999,-0.352778 z m -1.49931,-0.586416 c -0.24253,-0.09786 -0.63941,-0.09786 -0.88194,0 -0.24254,0.09786 -0.0441,0.177938 0.44097,0.177938 0.48507,0 0.68351,-0.08007 0.44097,-0.177938 z m 2.38125,-1.133376 c 0,-0.40604 -1.83638,-0.760557 -3.66007,-0.706582 -1.33081,0.03938 -1.25919,0.08094 0.83785,0.486096 1.26118,0.243667 2.41212,0.462411 2.55764,0.486096 0.14552,0.02367 0.26458,-0.09584 0.26458,-0.26561 z m 1.05834,0.153113 c 0,-0.08556 -0.15875,-0.253683 -0.35278,-0.373599 -0.19403,-0.119916 -0.35278,-0.04991 -0.35278,0.155568 0,0.205479 0.15875,0.373599 0.35278,0.373599 0.19403,0 0.35278,-0.07001 0.35278,-0.155568 z m 44.09721,-0.19721 c 0,-0.194028 -0.16812,-0.352778 -0.37359,-0.352778 -0.20548,0 -0.27549,0.15875 -0.15557,0.352778 0.11991,0.194028 0.28803,0.352778 0.3736,0.352778 0.0856,0 0.15556,-0.15875 0.15556,-0.352778 z m -9.525,-0.747194 c 0,-0.194028 -0.15875,-0.254667 -0.35277,-0.134751 -0.19403,0.119917 -0.35278,0.376778 -0.35278,0.570805 0,0.194028 0.15875,0.254667 0.35278,0.134751 0.19402,-0.119916 0.35277,-0.376777 0.35277,-0.570805 z M 64.79544,49.608564 c -0.12555,-0.32718 -0.30765,-0.5155 -0.40467,-0.418486 -0.097,0.09701 -0.0737,0.444084 0.0519,0.771264 0.12555,0.32718 0.30765,0.5155 0.40467,0.418486 0.097,-0.09701 0.0737,-0.444084 -0.0519,-0.771264 z m 7.54944,0.564445 c 0,-0.194028 -0.35719,-0.350348 -0.79375,-0.347377 -0.64186,0.0044 -0.69249,0.07084 -0.26458,0.347377 0.68395,0.442002 1.05833,0.442002 1.05833,0 z m 2.92892,-1.852084 c 0.16872,-0.46513 0.0382,-0.617361 -0.52934,-0.617361 -0.41431,0 -0.65304,0.100249 -0.53051,0.222772 0.12253,0.122527 0.0623,0.522683 -0.13391,0.889237 -0.49132,0.918054 -0.0202,1.591137 0.53611,0.765982 0.23854,-0.353797 0.53449,-0.921081 0.65765,-1.26063 z m -5.04558,0.904515 c 0,-0.09065 -0.54711,-0.117686 -1.2158,-0.06007 -0.66869,0.05761 -1.31289,0.0077 -1.43154,-0.110991 -0.11866,-0.118657 -0.56374,-0.120036 -0.98906,-0.0032 -0.69598,0.191403 -0.66747,0.232202 0.28501,0.407878 1.11088,0.204897 3.35139,0.04863 3.35139,-0.233751 z m 40.92221,0.242013 c 0,-0.194028 -0.15875,-0.352778 -0.35277,-0.352778 -0.19403,0 -0.35278,0.15875 -0.35278,0.352778 0,0.194028 0.15875,0.352778 0.35278,0.352778 0.19402,0 0.35277,-0.15875 0.35277,-0.352778 z M 71.28655,48.779674 c 0,-0.398868 -2.26023,-0.636249 -3.05956,-0.321331 -0.40801,0.16075 -0.0219,0.263066 1.05191,0.278758 1.18792,0.01736 1.62105,0.146893 1.4448,0.432082 -0.15596,0.252342 -0.0968,0.311524 0.15556,0.155568 0.22401,-0.138444 0.40729,-0.383727 0.40729,-0.545077 z m 1.41111,-0.01778 c 0,-0.194027 -0.27781,-0.350347 -0.61736,-0.347376 -0.5276,0.0046 -0.54042,0.05512 -0.0882,0.347376 0.66576,0.430252 0.70555,0.430252 0.70555,0 z m 0.88623,-1.348027 c -0.28032,-0.280321 -0.88687,0.356045 -0.6715,0.704511 0.14649,0.237021 0.32829,0.200939 0.51574,-0.102355 0.15922,-0.25763 0.22932,-0.528598 0.15576,-0.602156 z m -10.76401,0.289694 c 0,-0.194028 -0.15875,-0.352778 -0.35278,-0.352778 -0.19402,0 -0.35277,0.15875 -0.35277,0.352778 0,0.194028 0.15875,0.352778 0.35277,0.352778 0.19403,0 0.35278,-0.15875 0.35278,-0.352778 z m 9.525,-0.176389 c 0,-0.372667 -0.33908,-0.513535 -1.14653,-0.47631 l -1.14652,0.05286 1.05833,0.165273 c 0.93395,0.145849 0.97541,0.198914 0.35278,0.451513 -0.67002,0.271822 -0.66557,0.287493 0.0882,0.311037 0.48139,0.01503 0.79375,-0.183444 0.79375,-0.50437 z m -4.84398,-0.05501 c -0.23884,-0.09663 -0.71509,-0.102514 -1.05833,-0.01309 -0.34324,0.08944 -0.14783,0.168508 0.43426,0.175697 0.58208,0.0072 0.86291,-0.06599 0.62407,-0.162627 z m 8.53015,-2.064625 c 0.1319,-0.879528 0.43055,-1.777323 0.66368,-1.995096 0.65439,-0.611297 -1.12905,-4.191123 -1.9686,-3.95146 -0.40033,0.114286 -0.61736,-0.01813 -0.61736,-0.3767 0,-0.304119 -0.15875,-0.55294 -0.35278,-0.55294 -0.44689,0 -0.44427,0.228208 0.0124,1.081525 0.20086,0.375299 0.66724,0.682364 1.03641,0.682364 0.47552,0 0.65684,0.231429 0.62188,0.79375 -0.0271,0.436562 -0.15158,0.873125 -0.27654,0.970139 -0.12495,0.09701 -0.33403,0.612951 -0.46462,1.146527 -0.1998,0.816402 -0.12455,0.970139 0.47485,0.970139 0.78385,0 0.80899,0.04305 0.49815,0.853091 -0.11778,0.306913 -0.4303,0.55802 -0.69449,0.55802 -0.28205,0 -0.39652,-0.218461 -0.2773,-0.529166 0.11169,-0.291042 0.0458,-0.529167 -0.14631,-0.529167 -0.19216,0 -0.4324,0.3175 -0.53388,0.705556 -0.13686,0.523342 -0.0108,0.705555 0.48802,0.705555 0.36989,0 0.67253,0.136737 0.67253,0.303858 0,0.167122 -0.39688,0.22799 -0.88195,0.135262 -0.48789,-0.09326 -0.88194,-0.0032 -0.88194,0.201877 0,0.342632 1.65447,0.742051 2.16415,0.522464 0.12314,-0.05305 0.33179,-0.816066 0.46369,-1.695598 z M 75.07891,43.58937 c 0.24253,-0.09786 0.44097,-0.402834 0.44097,-0.677704 0,-0.274874 0.17573,-0.49977 0.39052,-0.49977 0.21479,0 0.29416,0.251108 0.17639,0.558021 -0.11777,0.306909 -0.21413,0.624409 -0.21413,0.705555 0,0.08114 -0.27781,0.135001 -0.61736,0.119684 -0.36881,-0.01665 -0.43982,-0.09949 -0.17639,-0.205786 z m -8.82679,3.1955 c -0.11723,-0.117225 -0.4215,-0.129755 -0.67616,-0.02783 -0.28142,0.112613 -0.19783,0.196208 0.21314,0.213134 0.37188,0.01531 0.58024,-0.06806 0.46302,-0.185286 z m 3.27054,-0.780973 c 2.9057,0.0693 3.52778,-0.06231 3.52778,-0.746347 0,-0.473322 -0.29697,-0.72711 -0.97014,-0.829088 -0.90296,-0.136786 -0.89074,-0.150622 0.17639,-0.19982 0.63059,-0.02907 1.14653,-0.11925 1.14653,-0.200392 0,-0.08115 0.10618,-0.424243 0.23595,-0.762437 0.21683,-0.56503 -0.003,-0.596474 -2.71031,-0.3877 -1.62046,0.124958 -3.1157,0.409357 -3.32277,0.631991 -0.28103,0.302161 -0.0187,0.345962 1.03463,0.172755 2.69449,-0.443074 5.01363,-0.581854 4.05694,-0.242771 -0.48507,0.171923 -1.39788,0.328415 -2.02847,0.347755 -0.63059,0.01933 -1.14653,0.179052 -1.14653,0.354915 0,0.175863 0.34232,0.23023 0.76072,0.12082 0.52121,-0.136303 0.68126,-0.07037 0.50835,0.209415 -0.13881,0.224589 -0.9177,0.410778 -1.73086,0.413749 -0.81317,0.0028 -1.71661,0.157667 -2.00765,0.343771 -0.36,0.230198 0.0911,0.288336 1.41111,0.181868 1.80111,-0.145274 1.83907,-0.133435 0.52916,0.165068 -1.47338,0.335756 -4.20619,0.437921 -3.43958,0.128587 0.93062,-0.375514 0.37719,-0.690555 -1.05833,-0.602456 -0.82462,0.05061 -1.96233,0.100687 -2.52824,0.111277 -0.56592,0.01058 -0.91878,0.12942 -0.78415,0.264054 0.13464,0.134638 0.89011,0.206717 1.67882,0.160179 0.78871,-0.04653 1.61782,0.06622 1.84247,0.250571 0.5882,0.482685 2.03174,0.648208 3.05429,0.350216 0.48507,-0.141358 1.27882,-0.247547 1.76389,-0.23598 z m 1.05833,-0.763058 c 0,-0.197725 0.50271,-0.359498 1.11713,-0.359498 1.28456,0 1.23801,0.153998 -0.14699,0.486262 -0.57592,0.138162 -0.97014,0.08665 -0.97014,-0.126764 z m 1.66835,1.191253 c -0.11723,-0.117225 -0.4215,-0.129755 -0.67616,-0.02783 -0.28142,0.112614 -0.19783,0.196208 0.21314,0.213134 0.37188,0.01531 0.58024,-0.06806 0.46302,-0.185286 z M 91.08981,43.512129 C 87.14455,39.420598 83.351,36.061896 82.675,36.061896 c -0.41485,0 -1.15816,0.844409 -2.09612,2.38125 -2.16332,3.544563 -2.18483,3.766937 -0.41572,4.296975 0.81363,0.243769 1.85294,0.688022 2.30959,0.987227 1.08691,0.712174 1.29866,0.440355 0.64034,-0.821993 -0.59935,-1.149258 -0.7263,-3.668459 -0.18488,-3.668459 0.19403,0 0.35278,0.573698 0.35278,1.274886 0,0.701185 0.34673,1.89181 0.77052,2.645834 l 0.77051,1.370947 2.31629,0.01545 c 1.32279,0.0088 3.07286,0.291218 4.08018,0.658396 0.97014,0.353628 1.86473,0.664178 1.98798,0.690114 0.12326,0.02593 -0.82924,-1.045238 -2.11666,-2.380385 z m -31.09215,1.72199 c 0,-0.194028 -0.43656,-0.34162 -0.97014,-0.327981 -0.85966,0.02198 -0.88979,0.05932 -0.26458,0.327981 0.96357,0.414058 1.23472,0.414058 1.23472,0 z m 4.56014,-1.218668 c 0.20831,-0.128746 0.37875,-0.06597 0.37875,0.139513 0,0.205479 0.23812,0.373599 0.52917,0.373599 0.29104,0 0.52916,-0.15875 0.52916,-0.352778 0,-0.194028 0.23813,-0.352778 0.52917,-0.352778 0.29104,0 0.52934,-0.119062 0.52955,-0.264583 3.6e-4,-0.318061 -3.01279,-0.25745 -4.60687,0.09267 -0.96916,0.212859 -1.06976,0.176178 -0.6752,-0.246203 0.255,-0.272983 0.79364,-0.530239 1.19697,-0.571677 1.52476,-0.156661 2.14161,-0.319599 2.05624,-0.543143 -0.0485,-0.127025 -0.0883,-0.429391 -0.0885,-0.671926 -3.5e-4,-0.750725 -1.82378,-0.639977 -2.02327,0.122894 -0.0965,0.36897 -0.27598,0.675905 -0.39887,0.682075 -0.57761,0.029 -1.45034,1.009844 -1.28419,1.443263 0.19171,0.500084 2.58632,0.607349 3.32783,0.149073 z m -1.20875,-1.956332 c -0.11992,-0.194028 -0.0499,-0.352778 0.15557,-0.352778 0.20548,0 0.3736,0.15875 0.3736,0.352778 0,0.194027 -0.07,0.352777 -0.15557,0.352777 -0.0856,0 -0.25368,-0.15875 -0.3736,-0.352777 z m 4.49792,2.235806 c -0.24254,-0.09786 -0.63941,-0.09786 -0.88195,0 -0.24253,0.09786 -0.0441,0.177938 0.44097,0.177938 0.48507,0 0.68351,-0.08007 0.44098,-0.177938 z m -7.00336,-1.741642 c 1.40183,-0.537934 3.03461,-5.527954 3.03461,-9.274236 0,-0.968893 0.15875,-1.859735 0.35277,-1.979651 0.60039,-0.371062 0.40104,-0.832252 -0.97014,-2.244298 -0.7276,-0.749297 -1.84787,-2.217734 -2.48949,-3.263195 -1.40037,-2.28178 -2.53849,-3.562561 -4.78786,-5.388003 -0.92882,-0.753773 -1.860852,-1.748183 -2.071182,-2.209803 -0.327113,-0.717935 -0.552446,-0.807407 -1.558258,-0.618713 -0.759545,0.142491 -1.175844,0.08179 -1.175844,-0.17145 0,-0.215621 0.413858,-0.392038 0.919688,-0.392038 0.738819,0 0.86904,-0.121412 0.662147,-0.617361 -0.548859,-1.315699 -0.790392,-3.613588 -0.836549,-7.9587335 -0.05614,-5.285253 -0.220201,-5.794747 -3.176782,-9.8657184 -1.158882,-1.5956837 -2.674757,-4.0124934 -3.368612,-5.3706879 -0.693856,-1.3581944 -1.577681,-3.0225924 -1.964057,-3.6986622 -0.399576,-0.699169 -0.702501,-1.878106 -0.702501,-2.734028 0,-0.827645 -0.139249,-1.50481 -0.309443,-1.50481 -0.170194,0 -0.228923,0.714375 -0.130509,1.5875 0.118407,1.050508 0.04408,1.5875 -0.219724,1.5875 -0.229915,0 -0.398657,-0.59729 -0.398657,-1.411111 0,-0.946054 -0.156195,-1.411111 -0.473939,-1.411111 -0.600154,0 -4.136107,1.210296 -5.201019,1.78022 -0.803385,0.429958 -0.802561,0.432106 0.406499,1.059935 1.905471,0.989455 3.650917,3.1234608 4.313492,5.2737339 0.916574,2.9745849 2.393487,8.1866646 2.599073,9.1722226 0.199992,0.958741 1.099877,3.466247 2.525688,7.03776 0.841555,2.1080135 1.610988,3.1038185 3.414928,4.4196125 0.684872,0.499547 0.678303,0.514964 -0.224011,0.525854 -0.610221,0.0074 -1.128088,-0.291769 -1.507437,-0.870726 -0.317831,-0.48507 -0.821707,-0.881945 -1.119727,-0.881945 -0.298019,0 -0.450522,-0.147782 -0.338892,-0.3284 0.111633,-0.180622 0.05372,-0.420638 -0.128679,-0.533371 -0.201934,-0.124801 -0.259955,0.866008 -0.148343,2.533264 0.194415,2.904211 0.786073,4.220616 2.181944,4.854702 0.812204,0.368953 0.935979,0.706833 2.174229,5.935194 0.815319,3.442592 1.244618,4.591184 2.183673,5.842437 0.347275,0.462728 0.631409,1.242533 0.631409,1.732894 0,1.203554 1.505726,3.717304 3.626225,6.053836 0.961,1.058905 1.91309,2.289218 2.11576,2.734028 0.36533,0.801818 1.09833,1.004577 2.15952,0.597359 z m -4.05159,-4.304344 c -2.151682,-2.236534 -3.327338,-3.885544 -3.002081,-4.210805 0.276412,-0.276412 2.299021,1.886175 3.960901,4.235012 1.35296,1.912236 0.89298,1.900622 -0.95882,-0.0242 z M 49.767105,21.274084 c 0,-1.139984 -0.410315,-1.832081 -1.282834,-2.163812 -0.900581,-0.342399 -1.137214,-1.040042 -0.35277,-1.040042 0.868602,0 2.34116,1.805397 2.34116,2.870327 0,0.555625 -0.15875,1.010229 -0.352778,1.010229 -0.194028,0 -0.352778,-0.304518 -0.352778,-0.676702 z m -1.940277,-4.262187 c 0.119916,-0.194028 0.684911,-0.352778 1.255543,-0.352778 0.570632,0 1.037512,0.15875 1.037512,0.352778 0,0.194028 -0.564995,0.352778 -1.255543,0.352778 -0.747194,0 -1.167264,-0.142833 -1.037512,-0.352778 z m 1.72001,-5.016185 C 49.134645,11.806647 48.42819,10.86368 47.976935,9.9002265 c -0.45126,-0.963453 -1.002006,-1.860904 -1.223882,-1.994336 -0.510483,-0.306995 -2.630392,-3.246156 -2.630392,-3.646924 0,-0.681786 0.588367,-0.180662 1.526949,1.300533 0.548781,0.866041 1.194255,1.574619 1.434391,1.574619 0.240132,0 0.792995,0.859854 1.228584,1.910787 0.749275,1.8077685 1.502876,2.5523305 2.167534,2.1415485 0.492731,-0.304525 0.723423,0.427362 0.253241,0.803421 -0.285461,0.228315 -0.697071,0.230339 -1.186522,0.0058 z m 0.321575,-2.8331215 c -1.055949,-1.15252 -2.217974,-3.616721 -2.217974,-4.703447 0,-0.794841 0.08133,-0.871694 0.529166,-0.500025 0.291042,0.241543 0.52976,0.776919 0.530486,1.189724 0.0018,0.90895 1.257456,3.045688 2.163477,3.680975 0.361583,0.253536 0.657426,0.610724 0.657426,0.79375 0,0.6027985 -0.922221,0.347099 -1.662581,-0.460977 z M 40.947661,-6.9645806 c 0,-0.3143436 1.105067,-1.0707456 1.564308,-1.0707456 0.455265,0 0.155933,0.999596 -0.358438,1.1969791 -0.800336,0.3071177 -1.20587,0.2646655 -1.20587,-0.1262335 z M 73.74264,42.170312 c 0.0897,-0.0788 -0.0268,-0.447284 -0.25886,-0.818847 -0.23205,-0.37156 -0.32812,-0.919963 -0.21349,-1.218678 0.13435,-0.350111 0.007,-0.543112 -0.3585,-0.543112 -0.3118,0 -0.56691,-0.216112 -0.56691,-0.480247 0,-0.326577 -0.29258,-0.424314 -0.91438,-0.305449 -0.66768,0.127635 -0.78666,0.25575 -0.44097,0.474842 0.35237,0.223337 0.29302,0.302811 -0.23215,0.310854 -0.38805,0.0059 -0.9406,0.159431 -1.22788,0.341087 -0.34563,0.218546 0.19143,0.280571 1.5875,0.183335 l 2.10983,-0.146953 -1.71018,0.31612 c -2.33537,0.431684 -2.39396,0.640162 -0.2595,0.923308 2.04977,0.271914 2.11093,0.469819 0.21775,0.704631 -0.82591,0.10244 -1.21572,0.03045 -1.07427,-0.19843 0.1221,-0.197566 0.0539,-0.359209 -0.15159,-0.359209 -0.20548,0 -0.3736,0.15875 -0.3736,0.352778 0,0.194028 -0.38751,0.352778 -0.86113,0.352778 -0.47361,0 -0.95648,0.15429 -1.07303,0.342868 -0.20173,0.326407 5.42187,0.101829 5.80136,-0.231676 z m -2.36118,-1.413997 c 0.34324,-0.08944 0.81949,-0.08356 1.05833,0.01309 0.23884,0.09664 -0.042,0.169816 -0.62407,0.162627 -0.58209,-0.0072 -0.77751,-0.08625 -0.43426,-0.175698 z m -3.62269,0.265292 c 0,-0.182577 -0.18328,-0.44523 -0.40728,-0.583674 -0.24215,-0.149656 -0.31192,-0.0974 -0.17208,0.128869 0.12938,0.209321 -0.0445,0.45356 -0.38646,0.542753 -0.47309,0.123405 -0.43197,0.171944 0.17207,0.203087 0.43656,0.02251 0.79375,-0.108458 0.79375,-0.291035 z m -2.67421,-2.260625 c -0.12292,-0.320329 -0.38225,-0.582418 -0.57628,-0.582418 -0.19402,0 -0.2614,0.238125 -0.14971,0.529167 0.11168,0.291041 0.0493,0.529166 -0.13865,0.529166 -0.18794,0 -0.3417,0.323684 -0.3417,0.7193 0,0.70636 0.0129,0.707316 0.71491,0.05325 0.43567,-0.405888 0.62762,-0.89354 0.49143,-1.248463 z m 2.49782,0.475915 c 0.11992,-0.194028 -0.0295,-0.352778 -0.33195,-0.352778 -0.3025,0 -0.54999,0.15875 -0.54999,0.352778 0,0.194028 0.14938,0.352778 0.33195,0.352778 0.18258,0 0.43008,-0.15875 0.54999,-0.352778 z m -1.5904,-2.017388 c -0.38212,-0.595658 -0.39256,-0.59473 -0.20012,0.01778 0.11166,0.355417 0.22144,0.911042 0.24394,1.234723 0.0369,0.530182 0.0567,0.528418 0.20012,-0.01778 0.0876,-0.333453 -0.0222,-0.889078 -0.24394,-1.234723 z m 5.26517,1.186117 c -0.0809,-0.06914 -0.70262,-0.227672 -1.38171,-0.352284 -0.86869,-0.159403 -1.07785,-0.123737 -0.70556,0.120311 0.47824,0.3135 2.43714,0.531206 2.08727,0.231973 z m 3.90995,-0.336025 c 0,-0.253957 -0.23307,-0.769895 -0.51794,-1.146527 -0.4987,-0.659335 -0.51837,-0.650914 -0.52917,0.226554 -0.006,0.50124 0.0946,1.017178 0.22397,1.146527 0.38692,0.38692 0.82314,0.266859 0.82314,-0.226554 z m -7.05555,-0.457947 c 0,-0.07625 -0.23813,-0.138646 -0.52917,-0.138646 -0.29104,0 -0.52916,0.153769 -0.52916,0.341708 0,0.187935 0.23812,0.250328 0.52916,0.138645 0.29104,-0.111686 0.52917,-0.265451 0.52917,-0.341707 z m -2.96835,-1.02059 c -0.088,-0.48507 -0.0395,-0.881945 0.10776,-0.881945 0.14723,0 0.2775,-0.515937 0.28948,-1.146527 0.012,-0.630591 0.13764,-1.583091 0.27924,-2.116667 0.15829,-0.596456 0.11767,-0.970139 -0.10544,-0.970139 -0.19959,0 -0.45197,0.595313 -0.56085,1.322917 -0.6035,4.0331 -0.63779,4.674305 -0.25,4.674305 0.23385,0 0.33337,-0.366007 0.23981,-0.881944 z m 6.00395,0.268376 c -0.52388,-0.128073 -0.56448,-0.227771 -0.18759,-0.4607 0.29191,-0.180414 -0.24154,-0.270372 -1.35715,-0.228854 -1.80017,0.06699 -2.45086,0.422928 -1.22628,0.670789 0.93353,0.188945 3.53934,0.206591 2.77102,0.01877 z m 2.23915,-2.052652 c -0.62645,-0.754814 -0.82395,-0.36244 -0.30534,0.606594 0.27871,0.520767 0.49579,0.657067 0.59111,0.37113 0.0828,-0.248539 -0.0457,-0.688517 -0.28577,-0.977724 z m -1.3942,-0.144932 c 0,-0.187935 -0.23812,-0.250327 -0.52916,-0.138645 -0.29104,0.111686 -0.52917,0.265451 -0.52917,0.341708 0,0.07625 0.23813,0.138645 0.52917,0.138645 0.29104,0 0.52916,-0.153769 0.52916,-0.341708 z M 67.309,33.94523 c -0.0585,-0.776703 -0.60856,-0.989277 -0.60856,-0.235186 0,0.420878 0.3128,0.940742 0.56604,0.940742 0.0526,0 0.0718,-0.3175 0.0425,-0.705556 z m 1.86088,-0.861123 c 0,-0.08556 -0.15875,-0.253683 -0.35278,-0.373599 -0.19402,-0.119916 -0.35277,-0.04991 -0.35277,0.155568 0,0.205479 0.15875,0.373599 0.35277,0.373599 0.19403,0 0.35278,-0.07001 0.35278,-0.155568 z m -2.11666,-2.390821 c 0,-0.151708 -0.39688,-0.275833 -0.88195,-0.275833 -0.48507,0 -0.88194,0.156972 -0.88194,0.348826 0,0.191855 0.39687,0.31598 0.88194,0.275834 0.48507,-0.04015 0.88195,-0.197118 0.88195,-0.348827 z M 49.571384,26.713272 c -0.46338,-1.940271 -0.847033,-3.854609 -0.852561,-4.254088 -0.0055,-0.399478 -0.247978,-1.034478 -0.53878,-1.411111 -0.486848,-0.630548 -0.512632,-0.559043 -0.325519,0.902713 0.212115,1.657092 2.23157,8.618047 2.43979,8.409827 0.06577,-0.06577 -0.259549,-1.70707 -0.72293,-3.647341 z M 43.811822,7.2070285 c -1.479735,-4.353763 -1.68506,-5.037052 -3.05254,-10.1583307 -1.065243,-3.9893925 -1.495356,-5.007337 -2.736536,-6.476536 -1.142318,-1.3521768 -1.669806,-1.2787358 -0.598416,0.08332 1.011218,1.285557 1.59098,2.793697 2.83439,7.3731333 0.595886,2.19462673 1.701398,5.8952304 2.456694,8.2235644 0.755295,2.328333 1.481121,5.2652085 1.612946,6.5263895 0.326698,3.125561 0.654706,3.452223 0.78167,0.778467 0.08717,-1.835798 -0.13757,-2.935102 -1.298208,-6.3500025 z m -8.88916,-19.9698555 c 0.654959,-0.581135 6.564548,-2.709298 7.185983,-2.587819 0.258061,0.05045 0.46976,-0.439119 0.536006,-1.239541 0.103693,-1.252867 0.05471,-1.322917 -0.925108,-1.322917 -0.56903,0 -2.279956,0.406526 -3.80206,0.903391 -1.522103,0.496864 -3.328304,0.874093 -4.01378,0.838286 -1.651239,-0.08626 -4.24493,0.385965 -4.24493,0.772856 0,0.169229 -0.181049,0.307689 -0.402332,0.307689 -0.621953,0 -3.478223,1.499833 -3.478223,1.826421 0,0.360872 0.777201,0.347894 2.822222,-0.04713 1.07024,-0.206729 1.741132,-0.179392 2.059003,0.0839 0.259327,0.214798 1.132452,0.498581 1.940278,0.630629 0.807826,0.132049 1.535649,0.259958 1.617385,0.284244 0.08174,0.02428 0.399236,-0.17822 0.705556,-0.450012 z m -6.322222,-2.688931 c 0,-0.327075 -1.347903,-0.0268 -1.582322,0.352498 -0.08812,0.142579 0.231856,0.184285 0.711054,0.09268 0.479197,-0.0916 0.871268,-0.291935 0.871268,-0.445178 z m 0.186088,-1.15714 c 1.092026,-0.721394 4.323853,-1.400231 5.381286,-1.130325 1.636725,0.417768 2.98338,0.521688 3.390735,0.261659 0.406106,-0.259231 -1.519459,-0.694851 -4.539194,-1.026901 -3.182123,-0.349906 -8.647824,1.490942 -6.270998,2.112071 1.074736,0.280858 1.325619,0.254208 2.038171,-0.216504 z M 11.490719,93.211897 c 0.119916,-0.19403 0.288035,-0.35278 0.373598,-0.35278 0.08556,0 0.155569,0.15875 0.155569,0.35278 0,0.19403 -0.168119,0.35278 -0.373598,0.35278 -0.205479,0 -0.275485,-0.15875 -0.155569,-0.35278 z m 102.922911,-2.03474 c -5.30071,-0.0585 -8.55486,-0.22627 -8.55486,-0.44098 0,-0.211461 2.09664,-0.348367 5.37986,-0.351295 2.95892,-0.0025 8.41023,-0.104363 12.11403,-0.226064 6.04424,-0.1986 6.75692,-0.161967 6.95628,0.357572 0.12914,0.336527 0.0422,0.591867 -0.20777,0.609947 -1.51682,0.10975 -8.34677,0.13188 -15.68754,0.0508 z M 12.891607,63.561719 c -0.06579,-0.106278 0.0021,-0.39013 0.150812,-0.630784 0.209257,-0.338586 3.974201,-0.432432 16.645471,-0.414909 31.48466,0.04354 47.34221,0.375468 46.73935,0.978327 -0.26151,0.261514 -63.374034,0.328432 -63.535633,0.06737 z m 102.844943,0.01684 c 0,-0.198211 1.04331,-0.362228 2.38124,-0.374346 1.99291,-0.01806 5.21295,-0.133114 12.9549,-0.462926 0.73903,-0.03147 1.08518,0.137605 1.17239,0.572689 0.11506,0.574005 -0.46029,0.617361 -8.19239,0.617361 -5.30891,0 -8.31614,-0.127568 -8.31614,-0.352778 z m -74.347916,-3.43955 c -16.594435,-0.05417 -28.310415,-0.224578 -28.310415,-0.411766 0,-0.175637 0.992187,-0.383688 2.204861,-0.462325 3.454362,-0.224014 55.9687,0.01718 56.35973,0.258857 0.73047,0.451454 0.30368,0.876364 -0.79723,0.793722 -0.63059,-0.04734 -13.88622,-0.127653 -29.456946,-0.178488 z"
       style="fill:#000000;stroke-width:0.35277778" />
  </g>
</svg>
