<?xml version="1.0" encoding="UTF-8" standalone="no"?>
<svg
   xmlns:dc="http://purl.org/dc/elements/1.1/"
   xmlns:cc="http://creativecommons.org/ns#"
   xmlns:rdf="http://www.w3.org/1999/02/22-rdf-syntax-ns#"
   xmlns:svg="http://www.w3.org/2000/svg"
   xmlns="http://www.w3.org/2000/svg"
   id="svg8"
   version="1.1"
   viewBox="0 0 117.41267 103.46425"
   height="103.46426mm"
   width="117.41267mm">
  <defs
     id="defs2" />
  <metadata
     id="metadata5">
    <rdf:RDF>
      <cc:Work
         rdf:about="">
        <dc:format>image/svg+xml</dc:format>
        <dc:type
           rdf:resource="http://purl.org/dc/dcmitype/StillImage" />
        <dc:title></dc:title>
      </cc:Work>
    </rdf:RDF>
  </metadata>
  <g
     transform="translate(-12.748086,5.514957)"
     id="layer1">
    <path
       id="path4891"
       d="m 70.70335,97.739102 c -0.12512,-0.20244 -0.138106,-0.64447 -0.02886,-0.98228 0.23302,-0.72056 2.298594,-2.20171 3.070443,-2.20171 0.293719,0 0.918894,-0.41198 1.389281,-0.91551 0.470384,-0.50354 1.496385,-1.29271 2.280003,-1.75373 2.039849,-1.20007 2.432346,-2.49868 1.95121,-6.455776 -0.208276,-1.712958 -0.61837,-3.892772 -0.911317,-4.84403 -0.29295,-0.951262 -0.616147,-3.158314 -0.718216,-4.904564 -0.373807,-6.395233 -0.435384,-6.943947 -0.822717,-7.331279 -0.561428,-0.561428 -0.488022,-1.7269 0.167739,-2.663127 0.326439,-0.466058 0.623916,-1.793737 0.70921,-3.165302 0.08081,-1.299383 0.322887,-2.918139 0.537962,-3.597236 0.81003,-2.557681 3.155628,-6.948452 4.711442,-8.819444 0.887384,-1.067153 1.702957,-2.337153 1.812381,-2.822223 0.421252,-1.867355 0.563545,-2.13234 1.741826,-3.243724 0.667576,-0.629673 1.213776,-1.328667 1.213776,-1.553319 0,-0.515666 0.85897,-2.419234 1.80956,-4.010184 0.8714,-1.458419 0.9108,-2.627697 0.19103,-5.669845 -0.29668,-1.253931 -0.64082,-3.699474 -0.76475,-5.434545 -0.12393,-1.735071 -0.35063,-3.401946 -0.50378,-3.704167 -0.15315,-0.302221 -0.13671,-1.96873 0.0365,-3.703354 0.25853,-2.588563 0.20622,-3.568655 -0.29185,-5.468055 -0.68268,-2.60344 -0.79616,-8.8071653 -0.18752,-10.2516953 0.34735,-0.824378 0.37319,-0.789839 0.39593,0.529167 0.0373,2.1648 0.65113,3.93148 1.80477,5.194552 0.57668,0.6313873 0.96136,1.3750923 0.85485,1.6526753 -0.10653,0.277583 7e-4,0.624775 0.23808,0.771536 0.26869,0.166062 0.46659,1.337315 0.52399,3.101287 0.0625,1.920831 0.28153,3.123355 0.67953,3.730768 0.32495,0.495938 0.51309,1.284493 0.42117,1.765305 -0.0914,0.477941 -0.0532,0.91421 0.0848,0.969486 0.13801,0.05528 0.36026,0.695814 0.49388,1.423418 0.28259,1.538819 -0.36857,1.877634 -0.67801,0.352778 -0.10827,-0.533576 -0.44148,-1.843264 -0.74047,-2.910417 -0.29898,-1.067152 -0.6698,-2.575277 -0.82403,-3.351388 -0.15971,-0.80366 -0.29944,-1.065661 -0.32458,-0.60863 -0.0279,0.507843 -0.36797,0.925595 -0.9261,1.137796 -0.91568,0.348142 -1.09816,1.256599 -0.92119,4.586111 0.0361,0.679097 0.0586,1.765247 0.0501,2.413666 -0.0117,0.891059 0.15733,1.224147 0.69236,1.364061 0.82399,0.215478 0.95507,0.808384 0.17873,0.808384 -0.67131,0 -0.66892,0.470344 0.009,1.781408 0.30852,0.5966 0.3838,1.040815 0.17639,1.040815 -0.72307,0 -0.35107,1.721149 0.52011,2.406417 1.05676,0.831246 1.16363,1.296941 0.17639,0.768582 -0.7979,-0.427023 -0.87074,-0.262265 -0.33041,0.747353 0.20633,0.385533 0.38385,1.332057 0.3945,2.103392 0.0138,0.997063 0.21062,1.504784 0.68106,1.756558 0.84654,0.453055 7.72873,0.188574 8.706247,-0.334582 0.40301,-0.215691 1.3782,-0.392165 2.16707,-0.392165 1.00299,0 1.4343,-0.150453 1.4343,-0.500313 0,-0.275174 0.0855,-0.723149 0.19002,-0.995496 0.20247,-0.527636 -1.41957,-1.480267 -1.95597,-1.148751 -0.16608,0.102644 -0.41397,0.0054 -0.55088,-0.216126 -0.2355,-0.381056 1.2019,-0.342921 2.64609,0.07021 0.3372,0.09646 0.94856,-0.736808 1.83511,-2.501188 1.556,-3.096669 1.54427,-3.045412 0.7444,-3.254583 -0.34045,-0.08903 -1.06454,-0.804783 -1.60909,-1.590562 -1.22009,-1.760596 -1.32584,-3.736735 -0.30481,-5.695642 0.71203,-1.366043 0.71331,-1.413749 0.0717,-2.672246 -0.35931,-0.704754 -0.75564,-1.115756 -0.88074,-0.913336 -0.50062,0.810019 -4.06638,-0.171339 -4.06638,-1.119137 0,-0.152193 -0.247487,-0.276716 -0.549977,-0.276716 -0.3025,0 -0.45188,0.15875 -0.33196,0.352778 0.11991,0.194028 -0.11097,0.352778 -0.51308,0.352778 -0.70521,0 -0.71193,-0.04591 -0.18967,-1.29586 0.2978,-0.712723 0.72804,-1.520684 0.95609,-1.79547 0.22805,-0.274786 0.44514,-1.715712 0.482417,-3.202057 0.0852,-3.3973493 0.0221,-3.1446733 0.85174,-3.4080023 0.42801,-0.135843 0.70555,-0.533764 0.70555,-1.01155 0,-0.433189 0.19844,-0.998612 0.44098,-1.256496 0.36309,-0.386073 0.25406,-0.427457 -0.61737,-0.234328 -0.58208,0.129004 -1.852077,0.538742 -2.822217,0.910531 -0.97014,0.371788 -2.43857,0.848479 -3.26319,1.059314 -0.82462,0.210834 -1.49931,0.437205 -1.49931,0.503044 0,0.06584 0.23813,0.689622 0.52917,1.386183 0.29104,0.696561 0.52917,2.0595893 0.52917,3.0289513 0,1.589097 0.13635,1.89387 1.38606,3.098136 0.90936,0.876289 1.45504,1.760315 1.5866,2.570382 0.14429,0.888403 0.11247,1.036826 -0.11347,0.529166 -0.3433,-0.771355 -0.53965,-0.49668 -0.88264,1.234723 -0.0961,0.485069 -0.11804,-0.0047 -0.0488,-1.088454 0.13947,-2.182356 0.0638,-2.375265 -1.26167,-3.217418 -0.8975,-0.570227 -0.94095,-0.558952 -1.67569,0.434836 -0.41487,0.561134 -0.7543,1.423547 -0.7543,1.916473 0,0.492926 -0.15875,0.896229 -0.35278,0.896229 -0.59205,0 -0.40064,-0.913001 0.67751,-3.23167 0.7487,-1.610159 0.99749,-2.618114 0.9103,-3.688028 -0.13854,-1.7001663 -1.10455,-3.7859143 -1.60904,-3.4741233 -0.19886,0.122903 -0.0437,0.594297 0.3678,1.117443 0.39147,0.497674 0.69335,1.240641 0.67084,1.6510373 -0.039,0.711861 -0.0488,0.713729 -0.21281,0.04062 -0.225,-0.9236023 -1.16875,-1.9748863 -1.5573,-1.7347503 -0.1681,0.10389 -0.30563,-0.04708 -0.30563,-0.335492 0,-0.764659 1.64068,-1.931618 3.1009,-2.205557 0.69599,-0.130568 2.19514,-0.615167 3.33143,-1.076887 1.31232,-0.533242 2.893677,-0.864018 4.334837,-0.906726 1.46821,-0.04351 2.33014,-0.226968 2.44254,-0.519885 0.0955,-0.248956 0.36918,-0.452647 0.6081,-0.452647 0.33787,0 0.34033,0.09407 0.0111,0.423333 -0.91067,0.910672 -0.46003,1.716957 1.42875,2.556328 1.01865,0.452684 1.90323,0.776198 1.96575,0.71892 0.21401,-0.1961 -1.70949,-2.993026 -2.05837,-2.993026 -0.1916,0 -0.34836,-0.143887 -0.34836,-0.31975 0,-0.175863 0.3175,-0.236723 0.70556,-0.135244 0.50402,0.131805 0.70555,0.01082 0.70555,-0.423548 0,-0.418845 -0.18018,-0.53891 -0.57906,-0.385847 -0.45764,0.175615 -0.49528,0.121244 -0.17945,-0.259299 0.81796,-0.985576 -0.59177,-1.308965 -1.54607,-0.354665 -0.50668,0.506683 -0.69872,0.523876 -1.34479,0.120397 -0.43349,-0.270719 -2.4787,-0.579256 -4.813967,-0.726226 -3.93937,-0.247925 -5.91467,0.0056 -9.96929,1.279436 -0.33955,0.106678 -0.61737,0.03997 -0.61737,-0.148231 0,-0.188204 1.09621,-0.675152 2.43602,-1.082106 2.80085,-0.85073297 9.711407,-1.03948897 12.079657,-0.329945 1.0483,0.314081 1.55296,0.311621 2.15759,-0.01052 0.56187,-0.29935397 2.74228,-0.37781797 7.56874,-0.27236797 6.3441,0.138606 6.79274,0.106455 6.98541,-0.500605 0.11324,-0.356798 0.50717,-0.744346 0.8754,-0.861218 0.37575,-0.119256 0.58921,-0.421749 0.48651,-0.68939803 -0.10066,-0.262298 0.15492,-1.1393046 0.56795,-1.9489037 1.41856,-2.7806217 4.73591,-3.16719 6.97119,-0.8123507 2.70751,2.8523084 0.37313,7.1500504 -3.63045,6.6839024 -0.57742,-0.06723 -1.38916,-0.33414 -1.80388,-0.593132 -0.64787,-0.404605 -0.83895,-0.38597 -1.35729,0.132371 -0.49872,0.498723 -0.69843,0.524739 -1.15243,0.150119 -0.4502,-0.371491 -0.5789,-0.364683 -0.71423,0.03778 -0.0908,0.27001 -0.66474,1.06376 -1.27546,1.763888 -0.61072,0.700129 -1.73609,2.056577 -2.50083,3.01433 -2.62447,3.2868713 -3.62978,4.1073573 -4.87117,3.9756233 -1.46505,-0.155468 -2.71439,-0.84406 -2.71439,-1.4960713 0,-0.284215 -0.15875,-0.516754 -0.35278,-0.516754 -0.19403,0 -0.36531,0.595312 -0.38063,1.3229173 l -0.0278,1.322916 -0.36584,-1.00465 c -0.25695,-0.705654 -0.25091,-1.2568563 0.0203,-1.8520833 0.43316,-0.950713 1.45956,-1.151299 1.45956,-0.28524 0,0.309206 0.3175,0.645222 0.70556,0.746701 0.38806,0.101478 0.70556,0.324741 0.70556,0.496139 0,0.8490513 1.09421,-0.0079 4.33275,-3.393387 1.94933,-2.037762 3.62043,-3.628832 3.71355,-3.535713 0.0931,0.09312 -1.37756,1.839753 -3.26817,3.881409 -1.89061,2.041656 -3.27815,3.7121023 -3.08341,3.7121023 0.39308,0 6.77194,-6.9740543 6.77194,-7.4038133 0,-0.717712 -1.2528,-0.983708 -5.55625,-1.179709 -2.57087,-0.11709 -4.6743,-0.127359 -4.6743,-0.02282 0,0.10454 0.21613,0.406203 0.48029,0.670364 0.62745,0.627448 1.093,3.472193 0.59539,3.638065 -0.48649,0.162162 -0.47977,1.122912 0.008,1.122912 0.55786,0 1.38591,0.926829 1.38591,1.55123 0,0.34474 -0.19895,0.466949 -0.54438,0.334395 -0.29941,-0.114895 -0.46772,-0.285561 -0.37402,-0.379259 0.0937,-0.0937 -0.12189,-0.484058 -0.4791,-0.867467 -0.82774,-0.888485 -2.1946,-0.717949 -2.6549,0.33124 -0.19153,0.436563 -0.46935,0.79375 -0.61736,0.79375 -0.4003,0 -0.33176,-0.28201 0.30455,-1.253142 0.53055,-0.809728 0.53022,-0.858864 -0.004,-0.653684 -0.38879,0.149192 -0.96041,-0.195472 -1.74525,-1.052326 -0.64191,-0.700799 -1.39396,-1.27175 -1.67122,-1.268779 -0.42849,0.0046 -0.43019,0.05222 -0.0113,0.317428 0.39791,0.251947 0.34696,0.403098 -0.26458,0.785013 -0.41655,0.260143 -0.75737,0.734714 -0.75737,1.054601 0,0.319888 -0.32956,0.956388 -0.73236,1.414446 l -0.73235,0.832832 0.17016,-0.79375 c 0.0936,-0.436562 0.0448,-0.79375 -0.10845,-0.79375 -0.15323,0 -0.37433,0.357188 -0.49132,0.79375 -0.35836,1.33721 -0.26596,1.6698923 0.39501,1.422183 0.51379,-0.192554 0.54507,-0.142273 0.18642,0.2997163 -0.23702,0.292096 -0.6097,1.364624 -0.82819,2.383394 -0.21849,1.018771 -0.619877,1.937741 -0.891977,2.042155 -0.27209,0.104414 -0.49472,0.326627 -0.49472,0.493806 0,0.16718 0.20729,0.224418 0.46065,0.127195 0.25336,-0.09722 0.889577,0.304635 1.413827,0.893016 1.02249,1.14757 1.9143,1.311034 3.71945,0.681755 0.7636,-0.266193 1.17811,-0.681572 1.32015,-1.322916 0.11388,-0.514189 0.27808,-1.1992 0.3649,-1.522248 0.2026,-0.753851 -0.20876,-2.411251 -0.59846,-2.411251 -0.1642,0 -0.41088,0.595313 -0.54817,1.322917 -0.13729,0.727604 -0.31601,1.125863 -0.39714,0.885019 -0.2202,-0.653682 0.62122,-2.951157 0.996,-2.719531 0.17839,0.110251 0.32434,0.04557 0.32434,-0.143742 0,-0.18931 -0.19843,-0.41696 -0.44097,-0.50589 -0.33051,-0.121186 -0.34048,-0.268806 -0.0398,-0.5893023 0.50851,-0.542044 0.77898,-0.120774 0.99233,1.5456053 0.0903,0.705289 0.25078,1.422469 0.35663,1.593733 0.28619,0.463077 -0.57462,3.876586 -0.95726,3.79591 -0.18113,-0.03819 -0.51301,0.217669 -0.73748,0.568582 -0.32847,0.513466 -0.28762,0.72767 0.20921,1.097225 0.74629,0.555101 0.77359,1.153178 0.12413,2.719586 -0.27156,0.654946 -0.44031,1.959306 -0.37549,2.902158 0.12363,1.798033 1.01822,4.108286 1.59083,4.108286 0.42774,0 0.42385,-0.235431 -0.0175,-1.060116 -0.23646,-0.441825 -0.23646,-0.733434 0,-0.879573 0.19455,-0.12024 0.35373,-0.02331 0.35373,0.215396 0,0.238708 0.25811,0.719219 0.57358,1.067802 0.68507,0.756998 1.89587,0.310195 1.89587,-0.699606 0,-0.344145 0.23308,-0.933872 0.51795,-1.310505 0.28487,-0.376633 0.52299,-1.147808 0.52916,-1.713722 0.0109,-1.002671 -0.29949,-1.097793 -0.48925,-0.149918 -0.29809,1.489 -0.67734,2.413575 -0.99003,2.413575 -0.21649,0 -0.24629,-0.310618 -0.0761,-0.79375 0.15374,-0.436562 0.25478,-1.74625 0.22454,-2.910417 -0.24506,-9.433239 -0.32052,-8.518309 0.79902,-9.686858 0.56145,-0.586027 1.10019,-0.986129 1.19721,-0.889115 0.097,0.09701 -0.27106,0.643416 -0.81793,1.214226 -0.97238,1.014943 -0.99037,1.106917 -0.81577,4.16921 0.12317,2.16021 0.37238,3.427208 0.80356,4.085257 0.34375,0.524637 0.6203,1.544024 0.61455,2.265305 -0.0143,1.794352 -1.2859,4.581812 -2.30117,5.044398 -0.49957,0.227623 -1.28114,1.309948 -1.97263,2.731727 -0.62988,1.295108 -1.46825,2.953819 -1.86304,3.686027 -0.91138,1.69031 -0.9308,6.680564 -0.0321,8.258715 0.24133,0.423806 0.43976,1.296931 0.44096,1.940278 0.001,0.643346 0.23932,1.624428 0.52917,2.180184 0.62316,1.194855 0.69678,3.79391 0.1237,4.36699 -0.30253,0.302528 -0.21737,0.915081 0.34084,2.451806 1.13174,3.115588 1.75541,5.972806 2.02574,9.280461 0.13479,1.649236 0.46257,3.427289 0.72839,3.951231 0.26583,0.523942 0.48332,1.393934 0.48332,1.933321 0,0.539387 0.54902,1.870191 1.22005,2.957343 1.34956,2.186453 1.79178,3.796612 2.1254,7.73866 0.12316,1.455209 0.36929,3.122084 0.54697,3.704167 0.17768,0.582083 0.56,2.071966 0.8496,3.310848 0.2896,1.238888 0.77798,2.530348 1.08529,2.869918 0.3073,0.33957 0.59443,0.99281 0.63805,1.45165 0.0436,0.45884 0.28244,1.19744 0.53069,1.64133 1.23618,2.21036 -2.03218,4.32597 -6.16117,3.98814 -0.63227,-0.0517 -0.77058,-1.63017 -0.2511,-2.86565 0.62909,-1.49617 0.59939,-2.95792 -0.0871,-4.28542 -0.30891,-0.59735 -0.48914,-1.46536 -0.40053,-1.92891 0.26226,-1.3719 -0.67715,-4.686445 -2.2003,-7.763394 -0.78301,-1.58176 -1.42366,-3.188991 -1.42366,-3.571618 0,-1.225825 -1.02543,-3.65229 -2.02686,-4.796144 -0.53446,-0.610471 -1.26597,-1.82288 -1.62558,-2.694238 -0.35961,-0.871361 -0.87958,-1.981165 -1.1555,-2.466234 -0.27592,-0.485069 -0.96472,-1.875868 -1.530657,-3.090665 -0.56594,-1.214797 -1.76317,-3.143225 -2.66051,-4.285393 -1.82315,-2.320586 -2.92207,-5.141192 -2.12256,-5.447993 0.50443,-0.193569 0.89112,0.0479 0.89112,0.556444 0,0.173143 -0.15875,0.21669 -0.35278,0.09677 -0.6044,-0.373542 -0.37663,0.647195 0.44678,2.002194 1.60109,2.634752 3.94454,5.935306 4.214147,5.935306 0.15288,0 0.27796,0.3175 0.27796,0.705555 0,0.388056 0.14805,0.705556 0.329,0.705556 0.18096,0 0.4405,0.357187 0.57677,0.79375 0.13627,0.436562 0.70259,1.315212 1.25849,1.952554 1.14795,1.316112 1.26055,1.658377 0.4423,1.344383 -0.41606,-0.159656 -0.51063,-0.06746 -0.35278,0.343888 0.11862,0.309111 0.21566,0.756137 0.21566,0.993394 0,0.237257 0.5746,1.057709 1.27687,1.82323 1.68384,1.835474 2.94267,3.688637 4.50004,6.624627 1.39262,2.625418 1.57316,2.685453 0.70752,0.235285 -0.30847,-0.873125 -0.63079,-2.301875 -0.71627,-3.175 -0.0855,-0.873125 -0.22267,-1.785938 -0.30488,-2.028472 -0.0822,-0.242535 -0.0137,-0.440973 0.15218,-0.440973 0.26732,0 0.74432,2.08147 0.9297,4.056945 0.0364,0.388055 0.40002,1.742673 0.80801,3.010256 0.40798,1.267587 0.80155,2.696337 0.8746,3.175 0.0875,0.57331 0.3616,0.870299 0.80322,0.870299 0.36872,0 0.62852,-0.205034 0.57732,-0.455633 -0.0512,-0.250603 -0.19363,-1.917478 -0.31653,-3.704167 -0.22102,-3.213333 -0.59949,-4.386453 -2.58448,-8.011033 -0.3719,-0.679097 -0.68381,-1.602345 -0.69313,-2.051664 -0.009,-0.449319 -0.19307,-1.146041 -0.40834,-1.548271 -0.21526,-0.40223 -0.60846,-2.495232 -0.87377,-4.651114 -0.60107,-4.884243 -1.05553,-6.918356 -2.09744,-9.38784 -0.45024,-1.067152 -0.89608,-2.195516 -0.99074,-2.507477 -0.2279,-0.750993 -1.76878,-1.027176 -4.32293,-0.774823 -2.513667,0.248355 -4.615157,1.234746 -5.155037,2.419663 -0.33457,0.734286 -0.56986,0.840211 -1.4852,0.66861 -1.05573,-0.197919 -1.12559,-0.127201 -2.38047,2.409521 -0.71105,1.437383 -2.34901,3.856235 -3.63991,5.375226 -3.867669,4.551045 -4.569164,6.706527 -3.3413,10.266775 0.981946,2.847192 1.259854,5.782874 0.649972,6.865987 -0.689769,1.224978 -0.760861,13.351478 -0.0859,14.652458 0.663498,1.27889 0.59786,2.13199 -0.227541,2.95739 -0.578048,0.57805 -1.175925,0.70556 -3.308308,0.70556 -1.431512,0 -3.138074,0.21773 -3.79236,0.48385 -1.590114,0.64674 -6.528597,1.06872 -6.828497,0.58347 z m 7.019205,-1.59597 c 1.258062,-0.4331 2.254292,-0.53152 3.634623,-0.35906 2.061467,0.25757 2.922559,-0.11527 2.922559,-1.2654 0,-0.57199 -0.198233,-0.62845 -1.554198,-0.44259 -1.38636,0.19002 -1.708301,0.0892 -2.981219,-0.93376 l -1.427021,-1.14678 -2.164905,1.80895 c -1.190699,0.99493 -2.436777,1.80896 -2.769062,1.80896 -0.655147,0 -1.450816,0.64598 -1.450816,1.17788 0,0.47714 3.736195,0.0589 5.790039,-0.6482 z m 37.160645,-0.61349 c 0.43657,-0.21351 0.79375,-0.52571 0.79375,-0.69377 0,-0.16807 -0.3175,-0.13566 -0.70555,0.072 -0.80816,0.43251 -0.95515,-0.0592 -0.20404,-0.68261 0.33191,-0.27546 0.48104,-1.03099 0.44097,-2.23407 -0.0591,-1.77572 -0.0892,-1.82399 -1.29526,-2.08284 -1.63817,-0.35157 -2.46945,0.57265 -2.46945,2.74554 0,1.48528 0.0432,1.54842 1.05833,1.54842 1.5238,0 1.3062,0.64241 -0.26164,0.77245 -0.94503,0.0784 -1.35466,0.29232 -1.44204,0.75311 -0.10908,0.57522 0.0593,0.61951 1.58457,0.41678 0.93863,-0.12475 2.0638,-0.40152 2.50036,-0.61503 z m -33.778463,-5.36343 c 0,-0.0856 -0.15875,-0.25368 -0.352777,-0.3736 -0.194028,-0.11991 -0.352778,-0.0499 -0.352778,0.15557 0,0.20548 0.15875,0.3736 0.352778,0.3736 0.194027,0 0.352777,-0.07 0.352777,-0.15557 z m 0.354083,-1.07776 c -0.454977,-0.48431 -0.905012,-0.80278 -1.000072,-0.70772 -0.234191,0.23419 1.017104,1.58827 1.467715,1.58827 0.197777,0 -0.01266,-0.39625 -0.467643,-0.88055 z m 30.36009,-1.751373 c 0.18797,0.116177 0.25157,0.357194 0.14131,0.535593 -0.11026,0.1784 0.0298,0.23598 0.31134,0.12796 0.28149,-0.10802 0.6166,-0.0268 0.7447,0.18043 0.12809,0.20726 0.40171,0.37683 0.60804,0.37683 0.58749,0 -0.37646,-0.99669 -2.13231,-2.204749 -1.16591,-0.80216 -1.51776,-0.925424 -1.34321,-0.470542 0.13008,0.33898 0.23894,0.801783 0.24191,1.028449 0.004,0.264432 0.11408,0.240595 0.30868,-0.06652 0.21293,-0.336045 0.37563,-0.36158 0.54612,-0.0857 0.13357,0.216112 -0.005,0.488171 -0.30868,0.604573 -0.30334,0.116403 -0.54517,0.551839 -0.5374,0.967649 0.0127,0.6786 0.0686,0.6556 0.54592,-0.2246 0.29249,-0.539334 0.68559,-0.885553 0.87358,-0.769373 z m 0.80598,-1.752328 c -0.89858,-1.081342 -2.25416,-1.686398 -2.23057,-0.99561 0.0107,0.312889 2.50231,2.172871 2.93613,2.191801 0.16463,0.0072 -0.15287,-0.531103 -0.70556,-1.196191 z m -29.185868,0.399347 c 0.03724,-0.03962 0.138888,-1.50079 0.225873,-3.24704 0.08699,-1.74625 0.364885,-3.897934 0.617555,-4.781518 0.416556,-1.456708 0.375003,-1.933724 -0.445604,-5.115278 -0.846318,-3.28125 -0.929922,-3.444367 -1.289389,-2.515655 -0.211412,0.546206 -0.384386,1.211527 -0.384386,1.478485 0,0.266961 -0.18353,0.598808 -0.407847,0.737443 -0.385731,0.238396 -0.365703,-0.147874 0.121215,-2.337848 0.07215,-0.324492 -0.316428,-0.570304 -1.124479,-0.711341 -0.972986,-0.169827 -1.102607,-0.274175 -0.611477,-0.492263 0.342783,-0.152213 1.023094,-0.200314 1.511797,-0.106891 0.960208,0.183554 1.569124,-0.519476 1.569124,-1.811652 0,-0.755399 2.227636,-4.789896 2.860787,-5.181205 0.742714,-0.459023 4.655102,-6.004634 5.311892,-7.529329 l 0.67025,-1.555944 -0.84338,-0.9135 c -0.46385,-0.502426 -1.21767,-1.596951 -1.67514,-2.432276 -0.91095,-1.663361 -2.876934,-2.898902 -3.713233,-2.333618 -0.643223,0.434781 -2.570085,4.336112 -2.202861,4.460152 0.159234,0.05379 -0.415589,1.455586 -1.27738,3.115109 -1.452361,2.796762 -1.563486,3.201123 -1.520267,5.53194 0.02889,1.557098 -0.121155,2.716795 -0.394,3.045552 -0.69143,0.833123 0.100595,1.987137 1.363814,1.987137 1.084788,0 1.776405,-0.572333 0.926924,-0.767052 -0.352514,-0.0808 -0.238559,-0.310924 0.384055,-0.775575 0.880921,-0.657422 0.883309,-0.656985 0.484501,0.08819 -0.304165,0.568335 -0.299565,0.748876 0.01909,0.748876 0.247576,0 0.14979,0.298433 -0.238297,0.727266 -0.37271,0.411836 -0.931941,0.655669 -1.2894,0.562194 -0.415667,-0.108702 -0.631232,0.03115 -0.631232,0.409564 0,0.413734 -0.167135,0.330401 -0.596914,-0.29761 -0.328302,-0.479736 -0.746104,-0.973925 -0.928451,-1.098198 -0.193065,-0.131579 -0.215671,-0.794639 -0.05413,-1.5875 0.152577,-0.748852 0.322108,-2.393424 0.376732,-3.654604 0.08041,-1.856546 0.365015,-2.813509 1.495082,-5.027084 1.65063,-3.233261 1.3399,-3.655547 -0.446736,-0.60712 -1.577788,2.692083 -2.667755,5.990491 -2.667984,8.073718 -9.9e-5,0.889586 -0.329526,2.483962 -0.732064,3.543057 -0.660121,1.73681 -0.677396,1.965473 -0.176212,2.331949 0.36945,0.270147 0.555674,0.962755 0.555674,2.066657 0,1.227504 0.229916,1.96178 0.881945,2.816631 1.115247,1.462165 1.140251,1.984512 0.04578,0.95631 l -0.836165,-0.785534 0.168529,2.576124 c 0.09269,1.416869 0.461462,3.492303 0.819492,4.612076 0.358031,1.119773 0.760236,3.001793 0.893795,4.182268 l 0.242827,2.146318 1.436292,-0.229672 c 0.789961,-0.126319 1.466766,-0.262093 1.504012,-0.301714 z m -1.333094,-4.569957 c -0.03143,-0.242535 -0.08657,-1.075972 -0.122538,-1.852083 -0.03597,-0.776111 -0.182654,-2.341728 -0.325966,-3.479148 -0.163068,-1.294235 -0.134268,-1.989977 0.07698,-1.859424 0.752803,0.465257 1.5303,7.631627 0.827973,7.631627 -0.219615,0 -0.425016,-0.198437 -0.456445,-0.440972 z M 79.517237,70.566225 c 0.119917,-0.194028 0.486474,-0.350348 0.814571,-0.347377 0.514093,0.0047 0.523406,0.05267 0.06737,0.347377 -0.69087,0.446475 -1.15788,0.446475 -0.881945,0 z m -0.473466,-1.058334 c 0,-0.485069 0.08007,-0.683507 0.177937,-0.440972 0.09786,0.242535 0.09786,0.63941 0,0.881944 -0.09786,0.242535 -0.177937,0.0441 -0.177937,-0.440972 z m -0.761256,-1.940278 c -0.476705,-0.574396 -0.36268,-0.646197 0.500313,-0.315034 0.306913,0.117772 0.558021,0.355897 0.558021,0.529167 0,0.487973 -0.571624,0.372318 -1.058334,-0.214133 z m 5.911225,-4.996871 c 0.243745,-0.09827 0.352686,-0.325078 0.242091,-0.504021 -0.110593,-0.178943 0.03705,-0.563477 0.328086,-0.854519 0.328338,-0.328337 0.61255,-0.394254 0.74887,-0.173683 0.120837,0.195516 0.05158,0.355483 -0.153896,0.355483 -0.205479,0 -0.373598,0.3175 -0.373598,0.705556 0,0.447382 -0.225902,0.695364 -0.617362,0.677704 -0.372445,-0.01679 -0.441547,-0.09873 -0.174191,-0.20652 z m 1.251134,-3.82167 c 0.183875,-1.792344 0.598752,-1.95593 0.598752,-0.236089 0,0.80845 -0.163199,1.469908 -0.362663,1.469908 -0.203362,0 -0.307065,-0.541955 -0.236089,-1.233819 z m 27.600756,25.951734 c -0.1279,-0.206936 -0.40136,-0.376248 -0.60769,-0.376248 -0.23393,0 -0.20716,0.202417 0.0711,0.537693 0.48385,0.583001 0.91628,0.452896 0.5366,-0.161445 z m -3.02099,-2.415452 c -0.38373,-0.715955 -0.69769,-1.506488 -0.69769,-1.756742 0,-0.497028 -2.38512,-5.376276 -2.62808,-5.376276 -0.49602,0 0.46923,3.008651 1.62295,5.058667 0.74685,1.327062 1.35791,2.610291 1.35791,2.851623 0,0.578693 0.3771,0.93576 0.7469,0.707217 0.16263,-0.100517 -0.0183,-0.768537 -0.40199,-1.484489 z M 92.040843,50.457891 c 0,-0.152509 -0.23812,-0.368666 -0.52916,-0.480352 -0.29104,-0.111683 -0.52917,-0.504134 -0.52917,-0.872113 0,-0.709888 -1.28363,-2.561473 -1.69598,-2.44638 -0.13436,0.0375 -0.60148,-0.129875 -1.03805,-0.371951 -1.25473,-0.695755 -0.92944,-0.09454 0.74751,1.38157 0.93355,0.821742 1.625,1.775378 1.75364,2.418588 0.15306,0.765287 0.36306,1.004093 0.7518,0.854921 0.29668,-0.113845 0.53941,-0.331773 0.53941,-0.484283 z m 4.93889,-0.176388 c 0.25314,-0.305009 0.28743,-0.529167 0.0809,-0.529167 -0.19703,0 -0.4496,0.238125 -0.56129,0.529167 -0.11168,0.291041 -0.1481,0.529166 -0.0809,0.529166 0.0672,0 0.31975,-0.238125 0.56129,-0.529166 z m 8.653457,-1.038793 c -0.15802,-1.700248 -1.91309,-4.132524 -2.83262,-3.925616 -0.94517,0.212675 -2.55397,-1.089403 -2.01365,-1.629728 0.28797,-0.287965 0.50546,-0.144155 0.8174,0.540491 0.34469,0.756504 0.52063,0.853521 0.93069,0.5132 0.43401,-0.3602 0.41662,-0.484762 -0.12279,-0.879189 -0.34565,-0.252741 -0.47905,-0.454484 -0.29644,-0.448314 0.52578,0.01778 1.5779,0.918351 1.34498,1.151269 -0.11592,0.11593 0.11305,0.186391 0.50883,0.156574 0.6719,-0.05061 0.68805,-0.129755 0.24351,-1.19368 -0.26186,-0.626714 -0.39025,-1.467775 -0.28532,-1.869031 0.10493,-0.401253 -0.004,-0.964812 -0.2431,-1.252347 -0.23864,-0.287539 -0.34618,-0.751336 -0.239,-1.030661 0.10719,-0.279326 0.006,-0.655296 -0.22511,-0.835484 -0.59362,-0.463049 -2.04882,-0.781787 -1.81078,-0.396625 0.20764,0.335972 -1.32215,0.503841 -3.316307,0.363912 -0.81668,-0.0573 -1.1019,0.0425 -0.92757,0.32458 0.18809,0.304341 0.0684,0.309238 -0.47319,0.01937 -1.59384,-0.852999 -1.9887,-0.248261 -0.53171,0.814345 0.88586,0.646073 0.94164,0.64764 1.38674,0.03892 0.44143,-0.603681 0.5087,-0.604788 1.3967,-0.02297 0.65965,0.43222 0.82293,0.721286 0.55739,0.986822 -0.26553,0.265532 -0.53742,0.241187 -0.92818,-0.08311 -0.30396,-0.252261 -0.59685,-0.396346 -0.65089,-0.320188 -0.98922,1.394167 -1.41378,2.465747 -1.35038,3.40832 0.0566,0.841573 -0.0924,1.20601 -0.5513,1.348666 -0.34587,0.107516 -0.90451,0.342646 -1.24143,0.52251 -0.9993,0.533481 -1.06932,0.381924 -0.28449,-0.615816 0.50262,-0.638987 0.61503,-1.021087 0.3488,-1.18563 -0.25954,-0.160408 -0.19566,-0.318449 0.18827,-0.465776 0.3196,-0.122647 0.48229,-0.382862 0.36153,-0.578263 -0.12076,-0.195386 -0.057,-0.355257 0.14162,-0.355257 0.19865,0 0.53694,-0.328401 0.75175,-0.729778 0.32849,-0.613794 0.24012,-0.869205 -0.55601,-1.60704 -0.52062,-0.482491 -1.04773,-0.776111 -1.17135,-0.652487 -0.12362,0.123624 0.0831,0.449915 0.45946,0.725092 0.37633,0.275177 0.55987,0.500324 0.40787,0.500324 -0.43548,0 -1.97137,-1.297302 -1.77197,-1.496706 0.0986,-0.09859 -0.22429,-0.256402 -0.71752,-0.350689 -1.08783,-0.207956 -1.10043,-0.07851 -0.1449,1.488955 0.79139,1.29819 1.22323,4.772371 0.63816,5.133964 -0.18244,0.112752 -0.3317,-0.289983 -0.3317,-0.894969 0,-0.643484 -0.1464,-1.009491 -0.35278,-0.881944 -0.47102,0.291105 -0.44991,1.702033 0.0327,2.184626 0.27876,0.278761 0.27876,0.584828 0,1.105697 -0.57574,1.075778 -0.46858,1.720927 0.32009,1.927172 0.54812,0.143337 0.70556,0.01083 0.70556,-0.593856 0,-0.428099 -0.1905,-0.968861 -0.42333,-1.201695 -0.29416,-0.294156 -0.30313,-0.423333 -0.0294,-0.423333 0.21666,0 0.47445,0.198437 0.57286,0.440972 0.13838,0.341027 0.25604,0.330782 0.51913,-0.0452 0.19975,-0.28546 0.52686,-0.370797 0.79236,-0.20671 0.32788,0.202639 0.38611,0.107301 0.21184,-0.346826 -0.20224,-0.527047 -0.0996,-0.590952 0.64805,-0.403313 0.48861,0.122632 0.85779,0.100605 0.8204,-0.04895 -0.2567,-1.026746 2.58411,-4.909435 3.278177,-4.480475 0.21536,0.133103 0.53257,0.02321 0.70491,-0.244161 0.26281,-0.407773 0.3684,-0.40084 0.6548,0.043 0.20062,0.310882 0.20879,0.57495 0.0198,0.640154 -0.17691,0.06104 -0.22364,0.366417 -0.10384,0.678607 0.16201,0.422194 0.0677,0.510018 -0.36806,0.342798 -0.66499,-0.255182 -3.064387,1.975905 -3.064387,2.849428 0,0.287211 -0.42973,0.891459 -0.95496,1.342775 -0.52523,0.451316 -0.86163,0.913909 -0.74756,1.027984 0.11408,0.114074 0.47306,-0.05824 0.79774,-0.382912 0.3876,-0.387604 1.12889,-0.579512 2.15866,-0.558843 0.862587,0.01732 1.568337,-0.04968 1.568337,-0.148879 0,-0.09919 -0.43082,-0.579628 -0.957377,-1.067629 l -0.95738,-0.887268 0.86919,0.144318 c 1.394467,0.231539 2.072127,0.630686 1.887517,1.111758 -0.0945,0.246285 0.22743,0.709394 0.71542,1.029137 1.05941,0.694154 1.402,0.740326 1.04157,0.140378 -0.1709,-0.284452 -0.0471,-0.264203 0.34865,0.05705 0.91651,0.743895 0.021,1.10841 -1.21196,0.493328 -0.73253,-0.365432 -1.18809,-0.404905 -1.63958,-0.142061 -0.34387,0.200184 -0.42678,0.368801 -0.18424,0.3747 0.24253,0.0059 0.75847,0.328228 1.14653,0.716283 0.38805,0.388056 1.06274,0.707987 1.4993,0.710957 0.43656,0.0028 1.03188,0.15929 1.32292,0.347377 0.86413,0.558443 1.01119,0.41632 0.89234,-0.862404 z m -2.65624,-3.018152 c -0.31795,-0.205479 -0.36146,-0.344131 -0.10901,-0.347377 0.23108,-0.0028 0.51827,0.153349 0.63818,0.347377 0.27069,0.437984 0.14856,0.437984 -0.52917,0 z m -0.19089,-3.19847 c -0.36197,-0.585685 -0.0371,-0.666902 0.46939,-0.117338 0.25018,0.271474 0.29924,0.493586 0.10901,0.493586 -0.19022,0 -0.4505,-0.169312 -0.5784,-0.376248 z m -7.746597,-1.387641 c -0.11992,-0.194028 -0.0593,-0.352778 0.13475,-0.352778 0.19402,0 0.45088,0.15875 0.5708,0.352778 0.11992,0.194028 0.0593,0.352778 -0.13475,0.352778 -0.19403,0 -0.45089,-0.15875 -0.5708,-0.352778 z m 6.879157,-1.223652 c 0,-0.315591 0.20683,-0.438725 0.52917,-0.315034 0.29104,0.111686 0.52916,0.344826 0.52916,0.518096 0,0.173267 -0.23812,0.315035 -0.52916,0.315035 -0.29104,0 -0.52917,-0.233144 -0.52917,-0.518097 z M 93.255353,40.07979 c -0.37632,-0.275177 -0.5909,-0.593651 -0.47683,-0.707718 0.11406,-0.114067 0.4956,0.111079 0.84787,0.500324 0.74945,0.828135 0.59553,0.91417 -0.37104,0.207394 z m 1.25494,9.672546 c 0,-0.194028 -0.15875,-0.352778 -0.35278,-0.352778 -0.19403,0 -0.35278,0.15875 -0.35278,0.352778 0,0.194028 0.15875,0.352778 0.35278,0.352778 0.19403,0 0.35278,-0.15875 0.35278,-0.352778 z m 6.339777,-0.338998 c 0.28542,-0.180506 0.42322,-0.423926 0.30621,-0.540932 -0.29924,-0.299247 -2.059877,0.184016 -2.059877,0.565397 0,0.410136 1.090517,0.39492 1.753667,-0.02445 z m -5.487277,-1.298995 c 0.12234,-0.318813 0.14989,-0.652209 0.0612,-0.740879 -0.28037,-0.280367 -0.91372,0.282613 -0.91372,0.812193 0,0.69198 0.57816,0.643618 0.8525,-0.07131 z m 4.61555,0.226882 c 0.119917,-0.194028 0.0499,-0.352778 -0.15556,-0.352778 -0.20548,0 -0.3736,0.15875 -0.3736,0.352778 0,0.194028 0.07,0.352778 0.15557,0.352778 0.0856,0 0.25368,-0.15875 0.37359,-0.352778 z m -8.39359,-2.371171 c -0.61359,-0.613594 -0.78114,-0.26942 -0.37901,0.778531 0.15913,0.414665 0.33208,0.472884 0.60225,0.20272 0.27016,-0.270161 0.20605,-0.551967 -0.22324,-0.981251 z m -1.81517,-1.206218 c -0.0774,-0.803399 -0.35207,-1.594718 -0.61041,-1.758488 -0.33624,-0.213155 -0.24417,-0.2993 0.32404,-0.303167 0.43656,-0.0028 0.79375,0.197401 0.79375,0.445269 0,0.74669 1.07919,2.047523 1.48869,1.79444 0.25563,-0.157995 0.20654,-0.364501 -0.14836,-0.624008 -0.29174,-0.213324 -0.77328,-1.216279 -1.07009,-2.22879 -0.47302,-1.61363 -0.47623,-1.918437 -0.026,-2.468703 0.48112,-0.58801 0.50313,-0.578319 0.3475,0.153003 -0.0915,0.430184 0.0589,0.967585 0.33512,1.196799 0.70238,0.582926 0.84749,0.300637 0.60705,-1.180991 -0.3257,-2.007027 -1.00959,-1.895136 -2.2464,0.367528 -1.07131,1.959909 -1.1275,2.426246 -0.58232,4.833108 0.10525,0.464679 0.59139,1.234722 0.77949,1.234722 0.0817,0 0.0853,-0.657327 0.008,-1.460722 z m 2.31023,-2.874758 c -0.20899,-0.208993 -0.50169,-0.24977 -0.65045,-0.09062 -0.14875,0.159149 -0.072,0.360232 0.17051,0.446854 0.24254,0.08662 0.45939,0.422073 0.4819,0.745451 0.0334,0.48043 0.0717,0.468203 0.20947,-0.06687 0.0927,-0.360158 -0.002,-0.825825 -0.21143,-1.034814 z m 8.074917,1.004912 c 0,-0.08556 -0.158747,-0.253682 -0.352767,-0.373598 -0.19403,-0.119917 -0.35278,-0.04991 -0.35278,0.155567 0,0.205479 0.15875,0.373599 0.35278,0.373599 0.19402,0 0.352767,-0.07 0.352767,-0.155568 z m 3.43224,-5.349236 c -0.11723,-0.117225 -0.4215,-0.129755 -0.67616,-0.02783 -0.28142,0.112613 -0.19783,0.196208 0.21314,0.213134 0.37188,0.01531 0.58024,-0.06806 0.46302,-0.185286 z M 90.847183,16.025374 c 0.49873,-1.051002 0.53217,-1.468145 0.19294,-2.406296 -0.22571,-0.62419 -0.41039,-1.480807 -0.41039,-1.903594 0,-0.466808 -0.21985,-0.768703 -0.55981,-0.768703 -0.30789,0 -0.73957,-0.47625 -0.95928,-1.0583333 -0.21972,-0.582084 -0.52343,-1.058334 -0.67492,-1.058334 -0.33866,0 -0.34512,-0.187397 0.0799,2.3164593 0.73529,4.332085 1.16105,6.150208 1.44025,6.150208 0.15841,0 0.55952,-0.572133 0.89135,-1.271407 z m -0.70887,-1.756057 c -0.28418,-0.740557 -0.27132,-0.853092 0.0975,-0.853092 0.1714,0 0.39466,0.3175 0.49614,0.705556 0.21786,0.833109 -0.28281,0.957541 -0.59364,0.147536 z M 109.67973,4.1108097 c 0,-0.07326 -0.27781,-0.351069 -0.61736,-0.617361 -0.55953,-0.43881 -0.572,-0.426332 -0.13319,0.133193 0.46085,0.587639 0.75055,0.774516 0.75055,0.484168 z m 18.78542,-3.32138197 c 1.48148,-1.390805 1.3584,-3.18699093 -0.31932,-4.66004513 -1.08014,-0.9483778 -1.48705,-1.1000891 -2.50675,-0.9346136 -1.8018,0.2923908 -2.8276,1.1190707 -3.28563,2.6478437 -0.35023,1.16894903 -0.31709,1.50168403 0.2332,2.34153403 1.34677,2.05543297 4.03857,2.33259497 5.8785,0.605281 z m -6.4382,0.07379 c 0,-0.501238 -0.17065,-0.854457 -0.37923,-0.78493 -0.20858,0.06953 -0.36733,0.241506 -0.35278,0.382176 0.0145,0.14067 0.0265,0.493889 0.0265,0.78492997 0,0.291042 0.15875,0.529167 0.35278,0.529167 0.19402,0 0.35277,-0.410104 0.35277,-0.91134297 z M 62.638582,96.732202 c -0.720707,-0.79638 -0.739775,-1.4833 -0.0659,-2.37425 0.284868,-0.37663 0.522993,-1.4472 0.529167,-2.37903 0.01327,-2.00357 -0.969959,-6.596031 -1.412184,-6.596031 -0.169682,0 -0.408813,-0.534628 -0.531396,-1.18806 -0.165163,-0.880396 -1.032076,-1.986464 -3.347656,-4.271172 -1.913587,-1.888074 -3.208884,-3.466067 -3.341772,-4.071109 -0.121761,-0.554358 -1.030372,-1.745015 -2.070181,-2.712787 -1.907166,-1.77504 -4.102259,-4.671353 -4.102259,-5.412729 0,-0.230456 -0.633416,-1.825738 -1.40759,-3.545075 -0.774175,-1.719336 -1.678186,-4.099341 -2.008914,-5.288901 -0.448481,-1.613101 -0.816648,-2.260949 -1.448481,-2.54883 -0.685297,-0.31224 -0.907965,-0.277336 -1.165406,0.182686 -0.821056,1.467143 -3.318048,4.284755 -4.656237,5.254107 -0.826449,0.598657 -1.928859,1.884599 -2.487555,2.901689 -0.551844,1.004612 -1.226531,2.077194 -1.499306,2.383515 -0.619627,0.695825 -0.619915,1.017837 -0.002,2.299271 0.271641,0.563386 0.602311,2.400423 0.734822,4.082302 0.205453,2.607705 0.139783,3.286619 -0.446005,4.61089 -0.941735,2.128947 -1.255706,5.631307 -0.802664,8.953751 0.558588,4.096493 0.620502,7.783943 0.138827,8.268243 -0.613358,0.61669 -3.490525,0.83581 -4.652859,0.35436 -0.851438,-0.35268 -1.381146,-0.30238 -3.23911,0.30755 -2.40013,0.78793 -4.699775,0.9322 -6.13866,0.38514 -1.819764,-0.69187 -0.70019,-2.55634 1.883638,-3.13689 0.754672,-0.16956 1.904415,-0.70729 2.554985,-1.19495 0.650571,-0.48767 1.535902,-0.99385 1.967403,-1.12485 0.431501,-0.131 1.106189,-0.64709 1.499306,-1.14686 0.612137,-0.7782 0.713754,-1.42099 0.707769,-4.477061 -0.0038,-1.962619 -0.188461,-4.679647 -0.410261,-6.037841 -0.221801,-1.358194 -0.423691,-3.739444 -0.448644,-5.291667 -0.02495,-1.552222 -0.340368,-4.135695 -0.700919,-5.741045 l -0.655548,-2.918827 1.2465,-1.843673 c 0.983538,-1.454736 1.284007,-2.294361 1.424292,-3.980021 0.205233,-2.466072 2.44711,-7.159558 5.049603,-10.571604 0.468566,-0.614341 0.85195,-1.508626 0.85195,-1.987303 0,-0.478677 0.333473,-1.228259 0.741051,-1.665742 0.699487,-0.750814 0.706345,-0.820805 0.122272,-1.247888 -0.340328,-0.248853 -0.872238,-0.980789 -1.182022,-1.626521 -0.468053,-0.975635 -2.716268,-2.745578 -3.034189,-2.388711 -2.032122,2.281047 -3.349889,4.079691 -3.349889,4.572317 0,1.192739 -2.170333,6.118017 -3.161244,7.174019 -0.546205,0.582083 -1.240812,1.55056 -1.543572,2.152166 -0.508981,1.011389 -0.500017,1.197519 0.118931,2.469445 0.92522,1.901313 1.058261,3.490891 0.292674,3.496899 -1.218801,0.0096 -2.056788,1.7107 -2.056788,4.17534 0,1.267633 0.15875,2.4029 0.352777,2.522816 0.601431,0.371704 0.388876,1.522208 -0.380829,2.06133 -0.761811,0.533594 -1.025216,0.544587 -2.353198,0.09821 -0.819878,-0.275586 -1.083964,-1.409368 -0.423373,-1.817634 0.41574,-0.256942 0.300821,-4.661221 -0.140166,-5.371885 -0.543211,-0.8754 -0.610421,-7.250779 -0.0883,-8.375572 0.270201,-0.582084 0.591991,-1.931459 0.71509,-2.998611 0.462214,-4.006995 1.02788,-6.5749 1.787351,-8.113889 0.430876,-0.873125 0.889094,-2.274253 1.018261,-3.113617 0.129168,-0.839364 0.717126,-2.481499 1.306572,-3.649186 1.050413,-2.080856 1.061095,-2.154259 0.53726,-3.691629 -0.293954,-0.862707 -0.475338,-1.760576 -0.403075,-1.995258 0.07226,-0.234685 0.229034,-1.260136 0.348379,-2.278782 l 0.216992,-1.852084 h -1.35726 c -1.04756,0 -1.588623,-0.24149 -2.371208,-1.058333 -0.557671,-0.582083 -1.226301,-1.058333 -1.485844,-1.058333 -0.259543,0 -0.617623,-0.383291 -0.795734,-0.851758 -0.178111,-0.468466 -0.690119,-0.962962 -1.137796,-1.09888 -1.426786,-0.43318 -3.624716,-2.982223 -3.403964,-3.947737 0.03461,-0.15138 -0.06126,-0.872838 -0.213054,-1.60324 -0.263821,-1.269488 -0.192878,-1.413507 1.610065,-3.268506 1.876974,-1.931168 4.610771,-3.3524013 6.4097,-3.3322443 0.429284,0.0048 1.514394,0.54733 2.411357,1.2055993 1.511778,1.109475 1.672285,1.380378 2.198529,3.710658 0.7109,3.14796 2.027321,5.055804 3.18486,4.615708 0.809612,-0.307813 3.236887,-0.0058 4.125455,0.513268 0.27609,0.161289 1.771981,1.194281 3.324203,2.29554 1.552222,1.101258 3.695347,2.464069 4.7625,3.028468 2.527419,1.336709 5.201518,4.03896 6.526593,6.595306 1.705574,3.2904 1.767152,3.378027 3.208199,4.565255 4.636417,3.819782 5.62556,5.917674 5.753375,12.202459 0.04466,2.195816 -0.06674,4.180191 -0.247558,4.409722 -0.180816,0.229528 -0.423573,3.512951 -0.539457,7.296493 l -0.210697,6.879166 2.979028,2.915751 c 3.394654,3.322553 3.744898,3.897475 5.18916,8.517893 0.577314,1.846915 1.252502,3.522405 1.500417,3.723305 0.247918,0.2009 0.543045,0.765366 0.655838,1.254368 0.112797,0.489003 0.710015,1.651406 1.327154,2.583117 1.030234,1.555369 1.075711,1.740383 0.555607,2.260484 -0.311556,0.31156 -1.246921,0.6583 -2.078591,0.77055 l -1.512126,0.20408 v 2.53753 c 0,1.55955 -0.169954,2.70756 -0.440972,2.9787 -0.705658,0.70597 -0.511478,1.69417 0.415932,2.11672 0.72723,0.33135 1.114277,0.2326 2.557639,-0.65256 1.985645,-1.21772 2.249043,-2.06298 1.197977,-3.8444 -0.893893,-1.51504 -0.895026,-1.4281 0.02177,-1.66786 0.629193,-0.16453 0.71809,-0.37535 0.537986,-1.27586 -0.126294,-0.63148 -0.06855,-1.07876 0.139277,-1.07876 0.621241,0 0.808986,1.10927 0.385812,2.27954 -0.33146,0.91663 -0.307115,1.33746 0.127808,2.20928 0.724891,1.45308 0.252578,2.6012 -1.631562,3.96606 -1.740648,1.26092 -3.746341,1.44352 -4.668104,0.42498 z m -38.154674,-2.00744 c 2.408373,-0.9921 2.406674,-0.99167 2.129582,-0.54332 -0.121049,0.19586 0.285792,0.25221 0.992664,0.1375 0.703576,-0.11417 1.297651,-0.0328 1.439835,0.19729 0.133132,0.21541 0.950994,0.39166 1.81747,0.39166 1.366499,0 1.621035,-0.12 1.919458,-0.90491 0.499584,-1.31401 0.437505,-1.72849 -0.181889,-1.21444 -0.650924,0.54022 -1.932269,0.32751 -4.277663,-0.71012 l -1.804988,-0.79854 -1.899179,1.2398 c -1.044548,0.6819 -2.374541,1.35221 -2.955538,1.48959 -0.580998,0.13738 -1.271076,0.42799 -1.533508,0.64578 -0.392259,0.32555 -0.36123,0.44162 0.174416,0.6524 1.11821,0.44004 1.992544,0.31814 4.17934,-0.58269 z m 7.204093,-3.25645 c -0.01664,-0.36881 -0.09949,-0.43983 -0.205787,-0.17639 -0.238632,0.59139 -0.659823,0.55545 -1.328663,-0.1134 -0.304901,-0.30489 -0.554365,-0.39216 -0.554365,-0.19391 0,0.41164 1.018488,1.07434 1.675694,1.09033 0.242535,0.006 0.428439,-0.26709 0.413121,-0.60663 z m 0.733407,-0.83785 c 0,-0.28366 -0.268798,-0.35239 -1.763889,-0.45107 -0.291042,-0.0192 -0.529167,-0.20481 -0.529167,-0.41244 0,-0.67942 -1.161801,-1.61245 -1.442423,-1.1584 -0.342378,0.55398 1.882546,2.33059 2.918699,2.33059 0.449229,0 0.81678,-0.13891 0.81678,-0.30868 z m -0.01122,-1.6316 c -0.01913,-0.45117 -0.929668,-1.499304 -1.302483,-1.499304 -0.194686,0 -0.774903,-0.420928 -1.289371,-0.935398 -0.514467,-0.514466 -1.03785,-0.83294 -1.163072,-0.707718 -0.307897,0.307898 0.933587,1.643116 1.527766,1.643116 0.260969,0 0.47449,0.15875 0.47449,0.352774 0,0.19403 0.238125,0.35278 0.529166,0.35278 0.291042,0 0.529167,0.23813 0.529167,0.52917 0,0.29104 0.15875,0.52917 0.352778,0.52917 0.194028,0 0.347729,-0.11907 0.341559,-0.26459 z m 32.214787,-1.364914 c 0.267676,-0.267673 -0.611774,-1.192724 -1.133927,-1.192724 -0.500959,0 -0.479711,0.462711 0.04536,0.987778 0.473072,0.47307 0.765408,0.52811 1.08857,0.204946 z m 2.368651,-0.507989 c 0,-0.205479 -0.165703,-0.271187 -0.368229,-0.146018 -0.20253,0.125169 -0.639092,0.01549 -0.970139,-0.243763 -0.542145,-0.424543 -0.553836,-0.410044 -0.117743,0.146019 0.53261,0.679129 1.456111,0.833735 1.456111,0.243762 z M 30.657519,85.55928 c -0.241543,-0.291042 -0.597919,-0.529167 -0.791947,-0.529167 -0.196789,0 -0.158589,0.233984 0.08639,0.529167 0.241543,0.291042 0.597919,0.529167 0.791947,0.529167 0.196789,0 0.158589,-0.233984 -0.08639,-0.529167 z m 1.185907,0 c -0.111683,-0.291042 -0.364264,-0.529167 -0.561291,-0.529167 -0.206482,0 -0.172196,0.224159 0.08094,0.529167 0.241543,0.291042 0.494124,0.529167 0.561291,0.529167 0.06717,0 0.03074,-0.238125 -0.08094,-0.529167 z m 34.444646,0.167658 c 0,-0.198829 -0.436563,-0.519607 -0.970139,-0.712837 -0.533576,-0.193227 -1.327086,-0.533496 -1.763356,-0.756151 -0.43627,-0.222652 -0.876572,-0.321476 -0.978443,-0.219601 -0.287828,0.287828 0.221424,1.363151 0.549529,1.160371 0.160288,-0.09906 0.386863,-0.02572 0.503498,0.163008 0.116632,0.188722 0.429045,0.259863 0.694246,0.158094 0.265204,-0.101766 0.586986,-0.01545 0.71508,0.191798 0.297254,0.480967 1.249585,0.49264 1.249585,0.01531 z M 31.223866,83.976595 c 0.6533,-0.0042 0.767553,-0.270563 0.948822,-2.211733 0.113347,-1.213806 0.513809,-2.894242 0.889916,-3.734301 0.743269,-1.660147 0.742105,-4.803743 -0.0029,-7.73944 -0.359128,-1.415206 -0.422275,-1.474406 -1.007666,-0.944633 -0.34349,0.310854 -0.817043,1.029963 -1.052339,1.598017 -0.400335,0.966477 -1.047778,1.414152 -1.047778,0.724485 0,-0.575423 1.851621,-3.624749 2.882929,-4.747725 1.170656,-1.27471 2.155306,-3.057818 1.688556,-3.057818 -0.17233,0 -0.481301,0.313863 -0.686603,0.69747 -0.387533,0.724115 -1.708068,1.596937 -1.989813,1.315191 -0.280044,-0.280043 3.446285,-3.775926 4.987726,-4.679273 1.269558,-0.744008 3.68373,-3.220226 4.539275,-4.655933 0.150055,-0.251813 -0.05027,-0.885035 -0.463651,-1.465569 -0.400325,-0.562208 -0.727864,-1.238536 -0.727864,-1.502961 0,-0.722245 -3.090573,-4.111035 -4.337172,-4.755677 -1.069116,-0.552863 -1.107607,-0.543747 -1.901578,0.450261 -0.445706,0.557999 -1.684271,2.602047 -2.752366,4.542324 -1.560749,2.835222 -1.95254,3.874054 -1.995725,5.291667 -0.08708,2.858555 -0.102203,2.941602 -0.655773,3.601448 -1.485013,1.770102 -2.115718,2.715013 -2.115718,3.169726 0,0.276324 0.149525,0.409998 0.332277,0.29705 0.182753,-0.112946 0.805522,0.257256 1.383933,0.822667 0.57841,0.565414 1.262323,1.102974 1.519806,1.194576 0.257482,0.0916 0.359514,0.28369 0.226737,0.426861 -0.132777,0.143171 -0.811785,-0.174731 -1.508907,-0.706452 -0.697122,-0.53172 -1.320019,-0.904942 -1.384215,-0.829377 -0.0642,0.07557 -0.04397,0.72014 0.04494,1.432391 0.156491,1.253603 0.200006,1.288782 1.361045,1.10037 0.771662,-0.125222 1.199385,-0.05237 1.199385,0.204305 0,0.219413 -0.396875,0.398935 -0.881945,0.398935 -1.010269,0 -1.044721,0.08666 -0.440972,1.109211 0.352778,0.597489 0.352778,0.778799 0,0.906557 -0.526732,0.190751 -0.603469,4.223202 -0.116047,6.098121 0.176545,0.679097 0.428005,2.32108 0.5588,3.648854 0.222025,2.253904 0.288392,2.400561 0.999958,2.209677 0.419183,-0.112448 1.096381,-0.206622 1.504886,-0.209272 z m -0.239701,-3.638426 c -0.184837,-1.746712 8.82e-4,-8.175833 0.238452,-8.254439 0.731028,-0.241882 0.944384,7.344678 0.226735,8.062327 -0.24148,0.24148 -0.450815,0.327931 -0.465187,0.192112 z m -2.443313,-3.069167 c 0,-0.194028 0.15875,-0.352778 0.352778,-0.352778 0.194028,0 0.352778,0.15875 0.352778,0.352778 0,0.194028 -0.15875,0.352778 -0.352778,0.352778 -0.194028,0 -0.352778,-0.15875 -0.352778,-0.352778 z m 0.812296,-9.965972 c -0.548957,-0.7282 -1.297869,-3.424382 -1.026547,-3.695703 0.314779,-0.314777 0.863431,0.501491 1.120623,1.667231 0.107019,0.485069 0.34374,1.157601 0.526048,1.494518 0.182308,0.336917 0.331469,0.694105 0.331469,0.79375 0,0.34755 -0.621693,0.177821 -0.951593,-0.259796 z m 3.850618,-5.115278 c 0.07458,-0.14552 0.492112,-1.018645 0.92785,-1.940277 0.715149,-1.512613 1.464791,-2.200808 1.464791,-1.344719 0,0.511849 -1.903134,3.52587 -2.234259,3.538428 -0.16169,0.0061 -0.232962,-0.107911 -0.158382,-0.253432 z M 65.486973,84.11142 c -0.117228,-0.117225 -0.421498,-0.129755 -0.676158,-0.02783 -0.281422,0.112614 -0.197831,0.196208 0.213138,0.213134 0.371884,0.01531 0.580245,-0.06806 0.46302,-0.185286 z m -0.610012,-0.845196 c 0,-0.194027 -0.357188,-0.350347 -0.79375,-0.347376 -0.641858,0.0044 -0.692489,0.07085 -0.264584,0.347376 0.683952,0.442003 1.058334,0.442003 1.058334,0 z M 63.06484,82.540546 64.046374,81.814868 62.763141,78.04263 c -1.646516,-4.840161 -1.628517,-4.810189 -4.616425,-7.686305 -1.391839,-1.339761 -2.737587,-2.919938 -2.99055,-3.5115 -0.349994,-0.818476 -0.412619,-2.717299 -0.262008,-7.943949 0.167245,-5.803879 0.116978,-6.935565 -0.324347,-7.30183 -0.402886,-0.334366 -1.199734,-0.346988 -3.48603,-0.05522 -4.262562,0.543969 -4.32297,0.562109 -5.60767,1.683777 -1.116609,0.974905 -1.152247,1.081923 -0.795474,2.388654 0.80861,2.961655 2.447804,7.070274 3.257506,8.164901 0.508134,0.686943 0.881465,1.716691 0.924264,2.54938 0.06958,1.353778 0.796441,2.815569 2.258366,4.541813 0.57808,0.682597 0.802944,0.755992 1.230076,0.401503 0.301001,-0.249805 0.786427,-0.321641 1.144538,-0.169372 0.538117,0.228812 0.503097,0.298715 -0.260092,0.51913 l -0.881944,0.254717 0.89275,0.364126 c 1.737381,0.708625 8.45586,9.010886 8.45586,10.449204 0,0.744502 0.178223,0.724739 1.362879,-0.151113 z M 55.024788,72.106149 c -1.081831,-1.375325 -0.948552,-2.338582 0.139848,-1.010758 0.772788,0.942778 1.1543,1.940278 0.742097,1.940278 -0.08293,0 -0.479806,-0.418285 -0.881945,-0.92952 z m 1.823145,-0.829582 c -0.645668,-1.033875 -0.532878,-1.258661 0.267917,-0.533954 0.716559,0.648477 0.924348,1.234723 0.437639,1.234723 -0.147356,0 -0.464856,-0.315345 -0.705556,-0.700769 z M 51.01416,69.97704 c -0.192694,-0.311785 0.896409,-1.527482 1.368422,-1.527482 0.383755,0 1.205343,1.014098 1.194272,1.474107 -0.0076,0.314603 -0.163593,0.265447 -0.479866,-0.15119 -0.583879,-0.769169 -0.902031,-0.776821 -1.444646,-0.03475 -0.242224,0.331258 -0.517549,0.434506 -0.638182,0.239317 z m 3.877779,-1.102533 c -0.680526,-0.710315 -0.993828,-1.47507 -1.120066,-2.734028 l -0.175263,-1.747865 0.499784,1.489918 c 0.274881,0.819453 0.9268,2.049765 1.448713,2.734027 1.130258,1.481843 0.687077,1.656864 -0.653168,0.257948 z m -4.831644,-0.366152 c -0.587763,-0.653069 -0.519049,-2.289683 0.08764,-2.087453 0.212308,0.07077 0.41771,0.437106 0.456448,0.814081 0.03873,0.376975 0.187272,0.963221 0.33008,1.302769 0.323773,0.769818 -0.169813,0.75322 -0.874169,-0.02939 z m -0.823489,-4.042381 c -0.643781,-1.356667 -1.332456,-4.208622 -1.077775,-4.463299 0.298097,-0.298097 0.757358,0.714551 0.993331,2.190253 0.123761,0.773952 0.45805,1.739882 0.742865,2.146515 0.589199,0.841195 0.660393,1.287893 0.205264,1.287893 -0.17192,0 -0.560578,-0.522612 -0.863685,-1.161362 z m 2.595672,-3.601138 c -0.240344,-0.582084 -0.565432,-1.312813 -0.722419,-1.623847 -0.499741,-0.990131 -0.808058,-3.844209 -0.415272,-3.844209 0.199002,0 0.474172,0.674688 0.61148,1.499306 0.137312,0.824618 0.483817,2.089153 0.770012,2.810079 0.286194,0.720926 0.44674,1.514676 0.356771,1.763889 -0.09312,0.257923 -0.351825,-0.0028 -0.600572,-0.605218 z m -3.888849,-2.998611 c 0,-0.582084 0.15875,-1.058334 0.352777,-1.058334 0.194028,0 0.352778,0.47625 0.352778,1.058334 0,0.582083 -0.15875,1.058333 -0.352778,1.058333 -0.194027,0 -0.352777,-0.47625 -0.352777,-1.058333 z m 0,-2.822223 c 0,-0.582083 0.15875,-1.058333 0.352777,-1.058333 0.194028,0 0.352778,0.47625 0.352778,1.058333 0,0.582084 -0.15875,1.058334 -0.352778,1.058334 -0.194027,0 -0.352777,-0.47625 -0.352777,-1.058334 z m 12.699999,26.492087 c 0,-0.290741 -4.526213,-5.936985 -6.107218,-7.618476 -0.403758,-0.429422 -0.222077,0.122848 0.464213,1.411112 0.620183,1.164166 2.103882,3.099759 3.29711,4.30132 2.370113,2.386662 2.345895,2.366984 2.345895,1.906044 z M 20.779742,67.391225 c 0,-0.442003 -0.374382,-0.442003 -1.058333,0 -0.427905,0.276531 -0.377274,0.343005 0.264583,0.347376 0.436562,0.003 0.79375,-0.153349 0.79375,-0.347376 z m -0.882627,-3.890712 c 3.88e-4,-1.526223 -0.107604,-2.664238 -0.239954,-2.528923 -0.307349,0.31423 -0.412483,1.514616 -0.343396,3.920793 0.08432,2.936752 0.582577,1.747915 0.58335,-1.39187 z m 0.230804,-4.500171 c 0.101393,-1.141522 0.141883,-1.31143 0.417384,-1.751478 0.151843,-0.242535 0.584209,-0.440973 0.960814,-0.440973 0.376605,0 0.684736,-0.15875 0.684736,-0.352777 0,-0.194028 -0.15875,-0.352778 -0.352778,-0.352778 -0.816188,0 -0.246146,-1.875042 1.221976,-4.019455 1.888492,-2.758426 3.769396,-6.393801 3.465378,-6.697821 -0.12036,-0.120357 -0.509877,-0.218835 -0.865595,-0.218835 -0.456879,0 -0.646759,-0.262255 -0.646759,-0.893276 0,-1.151847 0.912683,-3.340057 1.39311,-3.340057 0.450021,0 0.464677,0.215085 0.06769,0.99333 -0.166699,0.326792 -0.40163,1.113984 -0.52207,1.749312 -0.202407,1.06771 -0.166117,1.12685 0.479477,0.781336 0.384153,-0.205592 0.698459,-0.597934 0.698459,-0.871876 0,-0.273939 0.803286,-1.559359 1.78508,-2.856488 1.319726,-1.7436 1.867186,-2.829069 2.10004,-4.163822 0.68333,-3.916944 1.014941,-5.389538 1.515961,-6.731945 0.571763,-1.531954 1.301697,-2.067565 1.301697,-0.95516 0,0.910325 2.791075,2.297963 4.752038,2.36257 0.781865,0.02575 1.977197,0.301308 2.656294,0.612331 1.214043,0.556027 1.181546,0.562162 -1.940277,0.366405 -1.897699,-0.118999 -3.397196,-0.391456 -3.727315,-0.677245 -0.303773,-0.262981 -1.041578,-0.575998 -1.639566,-0.695596 -1.218656,-0.243731 -1.262856,-0.146033 -1.709225,3.77807 -0.222186,1.953277 -0.211084,1.98538 0.779521,2.254112 0.552705,0.149941 1.600231,0.238312 2.327835,0.196388 0.727604,-0.04193 1.322917,0.0846 1.322917,0.281171 0,0.54815 -2.136138,0.64238 -3.615972,0.159515 -1.802999,-0.588317 -1.672662,0.01034 0.199574,0.916676 1.646535,0.797073 2.893473,0.944954 3.240009,0.384249 0.319384,-0.516774 1.207464,-0.430431 1.814285,0.176389 0.760421,0.760419 1.407313,0.654731 0.709835,-0.115972 -0.321114,-0.354828 -0.583843,-0.751703 -0.583843,-0.881945 0,-0.365188 1.226726,-0.280081 1.619139,0.112332 0.230333,0.230335 0.763067,-0.0897 1.565567,-0.940506 1.675076,-1.775904 3.707791,-3.197313 4.9683,-3.474166 0.581124,-0.127639 1.008491,-0.338268 0.949708,-0.468073 -1.897702,-4.190301 -3.515172,-5.915445 -8.059999,-8.596547 -1.834674,-1.082317 -3.732645,-2.316596 -4.217714,-2.742841 -1.447492,-1.271956 -3.633533,-2.41057 -4.7625,-2.480581 -2.403058,-0.14902 -2.998611,-0.01121 -2.998611,0.693868 0,0.376605 -0.15875,0.782848 -0.352778,0.902764 -0.199423,0.123251 -0.352777,-0.167192 -0.352777,-0.668136 0,-1.010218 -0.682207,-2.683253 -1.09414,-2.683253 -0.151432,0 -0.373444,0.15875 -0.49336,0.352778 -0.336852,0.545037 -1.234722,0.41677 -1.234722,-0.176389 0,-0.291041 0.1905,-0.529166 0.423333,-0.529166 0.329259,0 0.329259,-0.09408 0,-0.423334 -0.232833,-0.232833 -0.423333,-0.709083 -0.423333,-1.058333 0,-0.34925 -0.15875,-0.635 -0.352778,-0.635 -0.194028,0 -0.352778,0.15875 -0.352778,0.352778 0,0.194028 -0.238125,0.352778 -0.529167,0.352778 -0.291041,0 -0.529166,0.15875 -0.529166,0.352777 0,0.194028 -0.436563,0.347729 -0.970139,0.341559 -0.889643,-0.01029 -0.918076,-0.05072 -0.34268,-0.487247 0.568114,-0.431006 0.472169,-0.521698 -1.01446,-0.95892 -1.916876,-0.563757 -2.243709,-1.095351 -1.331478,-2.165646 0.650971,-0.763766 0.65034,-0.76734 -0.04541,-0.257139 -1.274918,0.934913 -4.399016,4.39921 -4.404425,4.884046 -0.0068,0.607612 1.348953,2.523903 1.785604,2.523903 0.18246,0 0.137971,-0.310281 -0.09886,-0.689512 -0.571605,-0.915284 -0.05907,-1.388278 0.570847,-0.52681 0.479876,0.656269 0.507376,0.653889 1.142883,-0.09891 0.358146,-0.424245 1.087738,-0.874708 1.621314,-1.00103 0.817461,-0.193529 0.970139,-0.115895 0.970139,0.493304 0,0.397639 -0.155499,0.819083 -0.345553,0.936543 -0.538877,0.333045 0.412764,1.591965 1.203394,1.591965 0.595694,0 0.617509,0.05923 0.162409,0.440973 -0.289142,0.242534 -0.756046,0.75227 -1.037565,1.132744 -0.442674,0.598279 -0.355205,0.581908 0.647198,-0.121132 0.637477,-0.447098 1.391539,-0.723691 1.675694,-0.61465 0.578199,0.221875 0.713633,1.278732 0.163868,1.278732 -0.194028,0 -0.352778,-0.155347 -0.352778,-0.345215 0,-0.21 -0.345441,-0.187821 -0.881945,0.05663 -0.485069,0.221012 -0.881944,0.540694 -0.881944,0.710404 0,0.16971 0.307063,0.144228 0.682364,-0.05663 0.853318,-0.456682 1.081525,-0.459301 1.081525,-0.01241 0,0.194028 -0.251354,0.352778 -0.558565,0.352778 -0.307211,0 -0.492419,0.198437 -0.411574,0.440972 0.302755,0.908264 1.490541,0.405703 2.527194,-1.069275 0.79925,-1.137194 1.047429,-1.861653 1.004712,-2.932857 -0.04645,-1.164866 0.0519,-1.402033 0.542835,-1.309041 0.411571,0.07796 0.633895,0.527449 0.709054,1.433551 0.06022,0.725991 -0.02461,1.319983 -0.188522,1.319983 -0.163906,0 -0.576819,0.471984 -0.917584,1.048853 -0.581985,0.985221 -0.583616,1.103729 -0.02689,1.953397 0.566877,0.865163 0.558391,0.941043 -0.194915,1.742901 -0.683828,0.727902 -0.763895,1.109623 -0.607708,2.897296 0.09894,1.132417 0.287193,2.552361 0.418344,3.155435 0.169266,0.778327 0.02851,1.508012 -0.485074,2.514731 -0.397942,0.78003 -0.988304,2.50911 -1.311915,3.842395 -0.32361,1.333288 -0.965234,3.118841 -1.425831,3.967896 -0.460596,0.849059 -0.831234,1.801559 -0.82364,2.116667 0.0076,0.315112 0.230043,0.07605 0.49433,-0.531248 0.264287,-0.6073 0.657216,-1.213383 0.873177,-1.346853 0.687809,-0.42509 1.78258,-2.92536 2.347522,-5.36134 0.300944,-1.297647 0.787191,-2.823506 1.080547,-3.390794 0.477889,-0.924137 0.475669,-1.17566 -0.02134,-2.417805 -0.846362,-2.115266 -0.724266,-4.291451 0.309718,-5.520271 0.794751,-0.944508 0.818633,-1.073117 0.29627,-1.595479 -0.444695,-0.444695 -0.497238,-0.815453 -0.241793,-1.706137 0.479761,-1.67283 1.312763,-1.812254 1.004318,-0.168098 -0.135787,0.723802 -0.08396,1.464721 0.119801,1.712738 0.326927,0.397929 0.557644,1.887672 0.463798,2.994744 -0.02056,0.242534 -0.199156,0.440972 -0.39688,0.440972 -0.207308,0 -0.265791,-0.373364 -0.138145,-0.881945 0.372853,-1.485564 -0.496741,-1.000855 -0.956308,0.533043 -0.378004,1.261666 -0.3222,1.715447 0.515006,4.1879 1.04765,3.093942 1.193129,4.110129 0.447863,3.128363 -0.257754,-0.339549 -0.542251,-0.617361 -0.632216,-0.617361 -0.08996,0 -0.544832,1.53984 -1.010817,3.421863 -0.648769,2.620253 -1.159175,3.837002 -2.178787,5.193979 -0.732349,0.974661 -1.331543,1.886081 -1.331543,2.025371 0,0.469914 0.839075,0.776284 0.978717,0.357357 0.167957,-0.503872 1.490728,-0.559294 1.490728,-0.06246 0,0.194028 -0.3175,0.352778 -0.705556,0.352778 -0.394786,0 -0.705555,0.235186 -0.705555,0.533953 0,0.293674 -0.142426,0.809611 -0.316501,1.146528 -0.174075,0.336917 -0.492675,1.009449 -0.707998,1.494519 -0.369182,0.831673 -0.384369,0.811565 -0.266424,-0.352778 0.06879,-0.679097 0.245625,-1.512535 0.392964,-1.852084 0.160513,-0.369905 0.116809,-0.617361 -0.109034,-0.617361 -0.510036,0 -1.122401,2.403549 -1.483004,5.820834 -0.424418,4.022033 -0.925761,7.301932 -1.233025,8.066733 -0.234279,0.583138 -0.177748,0.611963 0.49453,0.252172 0.417476,-0.223425 0.783227,-0.678455 0.81278,-1.011177 z m -0.03299,-3.648675 c -0.04045,-0.431895 1.128431,-2.967761 1.810474,-3.927785 1.194281,-1.681032 1.347175,-0.69141 0.170508,1.10363 -0.615881,0.939542 -1.308885,2.009175 -1.54001,2.376956 -0.231124,0.367785 -0.429562,0.569027 -0.440972,0.447199 z M 23.249186,48.8472 c 0,-0.826728 1.836066,-2.946788 2.570051,-2.967574 0.387269,-0.01097 -0.306802,1.208751 -1.293942,2.273889 -0.793731,0.856449 -1.276109,1.118669 -1.276109,0.693685 z m 4.586111,-9.647058 c 0,-0.237045 0.383506,-0.936339 0.852235,-1.553982 0.468729,-0.617644 0.962647,-1.718303 1.097594,-2.445907 0.134948,-0.727604 0.393635,-1.322917 0.574861,-1.322917 0.407308,0 0.0162,2.317701 -0.595444,3.52861 -0.562866,1.114341 -1.929246,2.385071 -1.929246,1.794196 z m 10.029639,-2.474983 c 1.074194,-1.121219 4.230581,-2.643251 4.90088,-2.363244 0.228422,0.09542 0.05813,0.282067 -0.378437,0.414768 -0.436562,0.132701 -0.79375,0.381512 -0.79375,0.552909 0,0.171397 -0.277812,0.31605 -0.617361,0.321447 -0.339549,0.0054 -1.240953,0.481648 -2.003121,1.058334 -1.774315,1.342513 -2.387668,1.351251 -1.108211,0.01577 z m -2.974084,-2.271352 c 0,-0.33418 2.163327,-1.35296 2.390515,-1.125771 0.114554,0.114554 0.06011,0.353152 -0.120978,0.530215 -0.401138,0.392215 -2.269537,0.882505 -2.269537,0.595556 z M 27.3401,33.932299 c -0.259169,-0.419344 0.691562,-2.524407 1.140123,-2.524407 0.150715,0 0.559681,-0.794375 0.908812,-1.765272 0.67757,-1.884261 1.504179,-2.839772 1.18861,-1.373965 -0.100195,0.465399 -0.311685,1.163681 -0.469978,1.551737 -0.253004,0.620239 -0.218013,0.648821 0.289367,0.236364 0.317444,-0.258057 0.756353,-1.012119 0.975354,-1.675695 0.219,-0.663576 0.54462,-1.206503 0.7236,-1.206503 1.079025,0 -1.21518,3.857608 -2.69527,4.531981 -0.491771,0.224067 -1.102772,0.903605 -1.357778,1.510087 -0.26919,0.640217 -0.563967,0.940375 -0.70284,0.715673 z m 2.966393,-1.691577 c -0.0023,-0.516533 1.29277,-2.123807 1.523759,-1.891164 0.09632,0.09701 -0.206722,0.652639 -0.673436,1.234723 -0.466714,0.582083 -0.849359,0.877481 -0.850323,0.656441 z m 11.987833,-2.255671 c -0.243778,-0.588532 -0.932884,-1.453271 -1.531346,-1.921637 -0.598462,-0.468367 -0.958282,-0.979026 -0.799602,-1.134799 0.345476,-0.339145 3.39414,2.922687 3.39414,3.631463 0,0.86196 -0.603079,0.535785 -1.063192,-0.575027 z M 27.627618,27.703725 c 0.15246,-0.388056 0.361835,-1.300868 0.465278,-2.028472 0.208223,-1.46461 0.614023,-1.722222 0.912852,-0.5795 0.242543,0.927487 -0.19505,2.12429 -1.023362,2.798859 -0.575163,0.468406 -0.607052,0.451248 -0.354768,-0.190887 z m 10.823116,-2.077984 c -0.259201,-0.312317 -0.689961,-0.567849 -0.957245,-0.567849 -0.267284,0 -0.485971,-0.125586 -0.485971,-0.27908 0,-0.153493 -0.869747,-0.719473 -1.932772,-1.257731 -2.005271,-1.015362 -3.742126,-2.745167 -3.00355,-2.991359 0.223284,-0.07443 0.621973,0.173062 0.885976,0.549979 0.264003,0.376917 1.481769,1.275399 2.706148,1.996627 2.987731,1.759943 3.559447,2.214983 3.396627,2.703445 -0.09334,0.280012 -0.290324,0.230206 -0.609213,-0.154032 z m -10.066867,-2.77271 c 0.350112,-1.14204 0.856626,-1.675695 1.590472,-1.675695 0.961696,0 1.167103,0.637981 0.24744,0.768529 -0.43944,0.06238 -0.955689,0.470603 -1.147219,0.907166 -0.191531,0.436562 -0.480041,0.79375 -0.641134,0.79375 -0.161094,0 -0.183395,-0.357188 -0.04956,-0.79375 z m -6.270129,-2.22318 c -0.264868,-0.264867 0.456229,-1.569181 0.86753,-1.569181 0.400271,0 0.324279,0.493625 -0.182737,1.18701 -0.247861,0.33897 -0.556017,0.510947 -0.684793,0.382171 z m 5.897948,-0.510848 c 0.119916,-0.194028 0.596166,-0.352778 1.058333,-0.352778 0.462167,0 0.938417,0.15875 1.058333,0.352778 0.130007,0.210356 -0.297258,0.352778 -1.058333,0.352778 -0.761075,0 -1.18834,-0.142422 -1.058333,-0.352778 z m -7.584722,-0.512568 c 0,-0.450084 0.858517,-1.956877 1.114959,-1.956877 0.40192,0 0.372602,0.609092 -0.06904,1.434303 -0.320291,0.598471 -1.045921,0.961018 -1.045921,0.522574 z m 2.822222,-2.662432 c 0,-0.194028 0.15875,-0.352778 0.352778,-0.352778 0.194028,0 0.352778,0.15875 0.352778,0.352778 0,0.194028 -0.15875,0.352778 -0.352778,0.352778 -0.194028,0 -0.352778,-0.15875 -0.352778,-0.352778 z m -1.90353,41.72332 c -0.358604,-0.358602 -0.65449,0.181289 -0.360263,0.657359 0.222263,0.359629 0.305357,0.359907 0.424851,0.0014 0.0817,-0.245106 0.05264,-0.54156 -0.06459,-0.658784 z m 1.728313,-0.09365 c -0.11927,-0.192983 -0.565202,-0.53105 -0.990958,-0.751254 l -0.774103,-0.400371 0.705556,0.730285 c 0.730269,0.755865 1.440915,1.038472 1.059505,0.42134 z m -4.063518,-3.81508 c 0.003,-0.253986 -0.153348,-0.363678 -0.347376,-0.243762 -0.194027,0.119916 -0.350346,0.565848 -0.347375,0.99096 0.0044,0.628378 0.06936,0.673967 0.347375,0.243762 0.188086,-0.291042 0.344405,-0.736974 0.347376,-0.99096 z m 22.647854,-0.496587 c -0.25314,-0.25314 -0.417454,-0.273968 -0.417454,-0.05292 0,0.470881 0.417199,0.888079 0.652639,0.652639 0.100248,-0.100246 -0.0056,-0.370121 -0.235185,-0.599722 z m 1.346435,-1.687453 c 0,-0.194028 0.238125,-0.352778 0.529167,-0.352778 0.291041,0 0.529166,-0.155712 0.529166,-0.346029 0,-0.207158 -0.637103,-0.258702 -1.587499,-0.128439 -1.298974,0.178047 -1.5875,0.117069 -1.5875,-0.335502 0,-0.304204 -0.47625,-0.892218 -1.058334,-1.306696 -1.500424,-1.068398 -1.310929,-0.42938 0.393377,1.326543 1.342608,1.383273 2.781623,1.974529 2.781623,1.142901 z m 3.265262,-1.71359 c -0.129042,-0.585332 1.650008,-0.924574 2.140429,-0.408153 0.32626,0.34356 0.245198,0.385812 -0.378608,0.197344 -0.457225,-0.138141 -0.79375,-0.08887 -0.79375,0.116212 0,0.441 4.730499,0.103819 5.997222,-0.427472 L 54.117239,49.968989 53.1471,49.837227 c -0.533576,-0.07247 -0.970138,-0.265106 -0.970138,-0.428078 0,-0.162977 0.357187,-0.226029 0.79375,-0.140117 0.436562,0.08591 -0.07937,-0.25407 -1.146528,-0.755516 -1.067153,-0.501445 -1.993522,-1.063836 -2.058603,-1.249761 -0.06508,-0.185924 -0.263518,-0.248309 -0.440972,-0.138634 -0.177454,0.109671 -0.322647,-0.06132 -0.322647,-0.379981 0,-0.31866 -0.198438,-0.513239 -0.440972,-0.432392 -0.682407,0.227467 -0.521487,1.474138 0.208424,1.614706 0.35717,0.06878 0.941106,0.388458 1.297633,0.710385 0.356528,0.321931 0.908181,0.799779 1.225892,1.061886 1.263047,1.041992 0.100175,0.763573 -1.815464,-0.434668 -1.400331,-0.875912 -2.146357,-1.157993 -2.397743,-0.906608 -0.251385,0.251386 -0.214139,0.458121 0.119707,0.66445 0.3771,0.233059 0.318436,0.35227 -0.264375,0.537246 -0.411956,0.13075 -0.926188,0.128227 -1.142739,-0.0056 -0.266568,-0.164747 -0.316878,-0.0011 -0.155773,0.506395 0.182776,0.575878 0.08928,0.750987 -0.403178,0.755135 -0.542934,0.0046 -0.560084,0.05773 -0.111967,0.347045 0.633679,0.409117 1.268579,0.242101 1.148595,-0.302147 z m 9.434737,-0.0503 c 0,-0.194028 -0.15875,-0.352778 -0.352778,-0.352778 -0.194027,0 -0.352777,0.15875 -0.352777,0.352778 0,0.194028 0.15875,0.352778 0.352777,0.352778 0.194028,0 0.352778,-0.15875 0.352778,-0.352778 z M 43.609379,49.62067 c -0.0719,-0.218627 -0.477844,-0.448543 -0.902087,-0.510921 -0.424242,-0.06238 -0.680251,-0.260819 -0.568908,-0.440973 0.358212,-0.579599 -0.01646,-0.349415 -0.665952,0.409138 -0.61219,0.714985 -0.609251,0.729862 0.09972,0.504843 0.487103,-0.154602 0.798423,-0.05485 0.93435,0.299363 0.231696,0.60379 1.303848,0.349624 1.102872,-0.26145 z m 12.00362,-0.504081 c -0.02727,-0.361901 -0.348865,-0.658414 -0.746626,-0.688379 -1.026286,-0.07731 -2.414449,-1.590385 -2.1327,-2.324615 0.153381,-0.399704 0.458093,-0.533992 0.896176,-0.394949 0.457133,0.145087 0.663779,0.03853 0.663779,-0.342265 0,-0.304119 -0.28575,-0.55294 -0.635,-0.55294 -0.34925,0 -0.834905,-0.198437 -1.079235,-0.440972 -0.356186,-0.353572 -0.397648,-0.318611 -0.209201,0.176389 0.133625,0.350992 0.07132,0.617361 -0.144416,0.617361 -0.208697,0 -0.290079,0.277812 -0.180852,0.617361 0.153744,0.477936 0.120315,0.507566 -0.148018,0.131191 -0.190642,-0.267392 -0.53007,-0.372787 -0.754289,-0.234213 -0.224222,0.138578 -0.631225,0.06643 -0.904458,-0.160337 -0.27323,-0.226762 -0.803102,-0.315073 -1.177491,-0.196247 -0.427352,0.135636 -0.753876,0.02537 -0.877292,-0.296249 -0.117415,-0.305971 -0.474913,-0.439511 -0.887659,-0.331576 -0.940164,0.245858 -2.448247,-0.553709 -1.800007,-0.954345 0.258293,-0.159635 0.745554,-0.142571 1.082802,0.03792 1.255272,0.671801 1.115727,0.287655 -0.390752,-1.075694 -1.475221,-1.335056 -2.508304,-1.751587 -1.267941,-0.511224 0.32338,0.32338 0.492397,0.683528 0.375594,0.800332 -0.116803,0.116802 -0.331869,0.01902 -0.477923,-0.217307 -0.208255,-0.336963 -0.469943,-0.334758 -1.212789,0.01023 -1.120835,0.520499 -1.235249,0.969046 -0.247183,0.969046 0.388055,0 0.705555,-0.16812 0.705555,-0.373599 0,-0.205479 0.151817,-0.27977 0.337371,-0.165089 0.185554,0.114677 0.247944,0.441547 0.138645,0.726376 -0.123911,0.322908 0.0147,0.517867 0.368185,0.517867 0.642288,0 0.758067,0.545776 0.190227,0.896719 -0.207176,0.128041 -0.942359,0.248839 -1.633739,0.268436 -0.868629,0.02462 -1.052005,0.107318 -0.593455,0.267631 2.219855,0.776076 2.941174,0.944234 2.75447,0.64214 -0.118554,-0.191823 0.173195,-0.266121 0.682408,-0.173785 0.496648,0.09006 1.062566,-0.04723 1.281355,-0.310857 0.592593,-0.71403 2.093835,-0.140741 5.0081,1.912468 1.39652,0.983904 2.657284,1.788915 2.801691,1.788915 0.144406,0 0.24101,-0.286085 0.214668,-0.63574 z m -9.609648,-3.597592 c -0.275936,-0.446476 0.191074,-0.446476 0.881944,0 0.456033,0.29471 0.446719,0.34272 -0.06737,0.347376 -0.328098,0.003 -0.694654,-0.153349 -0.81457,-0.347376 z m -0.881944,3.011021 c 0,-0.09019 -0.3175,-0.333897 -0.705556,-0.541577 -0.563139,-0.301382 -0.705555,-0.268284 -0.705555,0.163978 0,0.306391 0.306393,0.541578 0.705555,0.541578 0.388056,0 0.705556,-0.07379 0.705556,-0.163979 z m -6.35,-0.894355 c 0,-0.194028 -0.149381,-0.352778 -0.331958,-0.352778 -0.182577,0 -0.43007,0.15875 -0.549986,0.352778 -0.119916,0.194028 0.02946,0.352778 0.331958,0.352778 0.302492,0 0.549986,-0.15875 0.549986,-0.352778 z m 6.419408,-0.202759 c -0.436227,-0.305544 -0.987487,-0.482402 -1.225024,-0.393019 -0.24669,0.09283 -0.0537,0.321458 0.45006,0.533174 1.314631,0.552507 1.671682,0.487931 0.774964,-0.140155 z m 10.513924,0.125963 c 0,-0.171591 -0.550527,-0.542008 -1.223391,-0.82315 -1.578906,-0.659709 -2.053907,-0.634104 -0.805081,0.04339 0.533576,0.289472 0.970139,0.653532 0.970139,0.809025 0,0.155494 0.238125,0.282717 0.529167,0.282717 0.291041,0 0.529166,-0.140395 0.529166,-0.311982 z M 35.899435,46.722035 c 0.317785,-0.697463 0.318288,-0.880971 0.0021,-0.775582 -0.485825,0.161942 -1.121598,1.689216 -0.703181,1.689216 0.156632,0 0.47211,-0.411134 0.701064,-0.913634 z m 5.165027,-0.144699 c 0.465223,-0.199912 0.525306,-0.309792 0.176389,-0.32258 -0.291041,-0.01065 -0.767291,0.134493 -1.058333,0.32258 -0.644866,0.416743 -0.08787,0.416743 0.881944,0 z m 14.640277,-0.29398 c 0,-0.459345 -0.419371,-0.764837 -0.760515,-0.553999 -0.364849,0.225492 -0.05025,0.847979 0.428558,0.847979 0.182577,0 0.331957,-0.132292 0.331957,-0.29398 z m -14.11111,-1.469909 c 0,-0.194028 -0.168119,-0.352778 -0.373598,-0.352778 -0.205478,0 -0.275484,0.15875 -0.155569,0.352778 0.119916,0.194028 0.288035,0.352778 0.373598,0.352778 0.08556,0 0.155569,-0.15875 0.155569,-0.352778 z m 10.230555,0.0785 c 0,-0.748567 -1.191659,-1.88981 -1.80564,-1.72925 -0.36563,0.09561 -0.588927,0.05111 -0.496221,-0.09889 0.09271,-0.150001 -0.14895,-0.56007 -0.537016,-0.911264 -0.540903,-0.489514 -0.802424,-0.541683 -1.12057,-0.223538 -0.315024,0.315024 -0.315683,0.414998 -0.0028,0.414998 0.226741,0 0.339037,0.198437 0.249544,0.440972 -0.09256,0.250839 0.55867,0.85006 1.510376,1.389754 1.791874,1.016137 2.202261,1.149791 2.202261,0.717215 z m 3.175,-0.607664 c -0.249326,-0.300418 -0.526087,-0.473449 -0.615026,-0.38451 -0.194359,0.19436 0.731386,1.252644 0.92988,1.063011 0.07616,-0.07276 -0.06553,-0.378082 -0.314854,-0.678501 z m -14.30197,-0.905358 c -0.254174,-0.411265 -1.925807,-0.43754 -1.925807,-0.03027 0,0.164501 0.479107,0.312713 1.064682,0.329364 0.585576,0.01665 0.973082,-0.117944 0.861125,-0.299092 z M 55.226016,43.22595 c -0.068,-0.194028 -0.402703,-0.302062 -0.743775,-0.240076 -0.341073,0.06198 -0.959605,-0.194148 -1.374514,-0.569182 -0.414905,-0.375038 -1.071876,-0.857486 -1.459932,-1.072113 -0.667307,-0.369076 -0.669459,-0.390811 -0.03969,-0.400957 0.509947,-0.0082 0.354026,-0.25855 -0.665868,-1.069061 -0.732459,-0.582083 -1.614428,-1.058333 -1.959935,-1.058333 -0.345507,0 -0.887366,-0.09946 -1.204133,-0.221008 -0.473297,-0.181621 -0.534493,-0.05588 -0.343386,0.705555 0.185624,0.739585 0.106186,0.926564 -0.393654,0.926564 -0.811061,0 -0.358478,0.454854 0.597792,0.600791 0.404495,0.06173 1.154469,0.404904 1.666603,0.76261 0.512138,0.357706 1.363236,0.7548 1.89133,0.882428 0.528094,0.127632 1.15371,0.43924 1.390262,0.692468 0.498168,0.53329 2.823287,0.586433 2.638897,0.06031 z m -4.812943,-1.608324 c 0,-0.205479 0.15875,-0.275484 0.352778,-0.155568 0.194027,0.119916 0.352777,0.288036 0.352777,0.373599 0,0.08556 -0.15875,0.155568 -0.352777,0.155568 -0.194028,0 -0.352778,-0.16812 -0.352778,-0.373599 z m -0.881944,-1.316715 c -0.883134,-0.475516 -0.94923,-0.592786 -0.399274,-0.708388 0.362482,-0.0762 0.908656,0.111061 1.213721,0.416126 0.806076,0.806076 0.406262,0.949544 -0.814447,0.292262 z m -7.408333,1.811394 c 0.688224,-0.548227 0.683891,-0.556736 -0.176389,-0.346375 -0.48507,0.118615 -1.010376,0.21783 -1.167348,0.220479 -0.156971,0.0026 -0.18729,0.163566 -0.06737,0.357594 0.295098,0.477477 0.579453,0.430791 1.411111,-0.231698 z m 1.411111,0.231698 c 0.119916,-0.194028 0.04991,-0.352778 -0.155569,-0.352778 -0.205479,0 -0.373598,0.15875 -0.373598,0.352778 0,0.194027 0.07001,0.352777 0.155569,0.352777 0.08556,0 0.253682,-0.15875 0.373598,-0.352777 z m -8.033044,-0.213138 c -0.117225,-0.117225 -0.421496,-0.129755 -0.676157,-0.02783 -0.281422,0.112613 -0.197829,0.196208 0.213137,0.213134 0.371886,0.01531 0.580245,-0.06806 0.46302,-0.185286 z m 18.989209,-0.757001 c -0.128054,-0.533577 -0.740575,-1.42614 -1.361161,-1.983472 -0.620585,-0.557333 -1.092023,-1.142527 -1.04764,-1.300427 0.04438,-0.157904 -0.193742,-0.283528 -0.529167,-0.279167 -0.335425,0.0044 -0.945159,-0.09792 -1.354963,-0.227299 -0.517482,-0.163371 -0.812613,-0.05929 -0.966099,0.340681 -0.12155,0.316753 -0.100934,0.501707 0.04581,0.411015 0.620459,-0.383466 4.663997,2.600829 4.663997,3.442218 0,0.311623 0.175959,0.56659 0.391023,0.56659 0.247826,0 0.305759,-0.355276 0.1582,-0.970139 z m -16.969986,-0.4976 c 0.981597,-0.447245 1.041033,-0.583223 0.575968,-1.317696 -0.440891,-0.696292 -1.490554,-0.222814 -1.197732,0.540269 0.186527,0.486085 0.09942,0.550767 -0.446919,0.331847 -0.373234,-0.149553 -1.42585,-0.498739 -2.339146,-0.775966 -0.913297,-0.277227 -1.756103,-0.658672 -1.872904,-0.847658 -0.273332,-0.442264 -1.229056,-0.448007 -1.229056,-0.0074 0,0.184926 0.515937,0.557621 1.146527,0.828212 0.630591,0.270592 1.702153,0.744139 2.38125,1.052322 1.521661,0.690556 1.849413,0.712103 2.982012,0.196057 z m 2.684619,-0.415075 c -0.271487,-0.271487 -0.539816,-0.220193 -0.93963,0.179624 -0.510983,0.510981 -0.477953,0.544011 0.380004,0.380001 0.671302,-0.128326 0.831113,-0.288138 0.559626,-0.559625 z m 3.659014,0.480434 c 0.4977,-0.189227 0.90491,-0.523709 0.90491,-0.743299 0,-0.219587 -0.238125,-0.307877 -0.529167,-0.196191 -0.291041,0.111683 -0.767291,0.111683 -1.058333,0 -0.573252,-0.219978 -0.737446,-1.185908 -0.201587,-1.185908 0.180168,0 0.557678,-0.230099 0.83891,-0.51133 0.446589,-0.446589 0.594946,-0.444278 1.171726,0.01827 0.633381,0.507933 0.629141,0.521045 -0.103666,0.32059 -0.937886,-0.256554 -1.409004,0.359918 -0.614743,0.804407 0.362497,0.202865 0.88776,0.178188 1.415778,-0.06651 1.000595,-0.463706 1.0571,-0.764428 0.230548,-1.22699 -0.337932,-0.189117 -0.494036,-0.464234 -0.346898,-0.611371 0.147139,-0.14714 0.455378,-0.07967 0.684978,0.149931 0.484492,0.484484 0.981898,0.547444 0.981898,0.12428 0,-0.161241 -0.396636,-0.505439 -0.881413,-0.764882 -0.484777,-0.259447 -0.817029,-0.536103 -0.738339,-0.614793 0.07869,-0.07869 0.651549,0.11987 1.273019,0.441244 0.621469,0.321373 1.023029,0.411325 0.892357,0.199894 -0.402019,-0.650483 -2.233729,-1.444678 -2.816333,-1.221112 -0.666679,0.255828 -0.69405,0.546975 -0.110541,1.175847 0.359148,0.387068 0.331378,0.436849 -0.149658,0.268274 -0.380009,-0.13317 -1.049428,0.225721 -1.877202,1.006411 -0.707614,0.667368 -1.513392,1.213393 -1.790619,1.213393 -0.277226,0 -0.504048,0.169447 -0.504048,0.376552 0,0.210735 0.298163,0.281915 0.677103,0.161646 0.484227,-0.153687 0.742226,-0.0097 0.905718,0.505393 0.258789,0.815375 0.470564,0.861021 1.745602,0.376252 z M 43.003108,36.89814 c -8.82e-4,-0.206234 -0.477148,0.132356 -1.058333,0.752426 -1.372607,1.464433 -1.371357,1.951898 0.0016,0.636492 0.582084,-0.557671 1.057599,-1.182684 1.056701,-1.388918 z m 7.081127,-0.702267 c -0.484795,-0.516037 -1.024351,-0.772136 -1.357461,-0.64431 -0.408026,0.156577 -0.493508,0.05748 -0.326295,-0.378259 0.137002,-0.357025 0.05662,-0.580612 -0.203337,-0.565616 -0.52572,0.0303 -1.946038,0.621327 -1.57643,0.655962 0.145521,0.01365 0.331169,-0.01489 0.412551,-0.0634 0.08138,-0.04851 0.529722,0.270446 0.996309,0.708783 0.466591,0.438337 0.943723,0.701598 1.060295,0.585022 0.116575,-0.116572 0.501675,-0.04348 0.855775,0.162437 0.98576,0.573228 1.015859,0.473188 0.138593,-0.460622 z M 24.435093,24.881503 c -0.214699,-0.559497 -0.833129,-0.734075 -0.833129,-0.235185 0,0.373067 0.385616,0.764351 0.75328,0.764351 0.1556,0 0.191532,-0.238125 0.07985,-0.529166 z m -5.04969,-3.195209 c 0.384014,-0.462709 0.307349,-0.697968 -0.485971,-1.491288 -0.854763,-0.854763 -0.941467,-0.877373 -0.937095,-0.244374 0.0071,1.029204 0.391099,2.285038 0.698688,2.285038 0.14764,0 0.47361,-0.247219 0.724378,-0.549376 z m -5.44808,-6.410636 c -0.358604,-0.358604 -0.65449,0.18129 -0.360262,0.65736 0.222262,0.359627 0.305356,0.359906 0.424851,0.0014 0.0817,-0.245105 0.05264,-0.541557 -0.06459,-0.658782 z m 1.637685,-1.333351 c 0.136937,-0.716342 0.07754,-0.808969 -0.311652,-0.485971 -0.537144,0.44579 -0.651317,1.371 -0.169184,1.371 0.171408,0 0.387785,-0.398263 0.480836,-0.885029 z m 6.263067,0.532251 c 0,-0.194027 -0.07001,-0.352777 -0.155569,-0.352777 -0.08556,0 -0.253682,0.15875 -0.373598,0.352777 -0.119915,0.194028 -0.04991,0.352778 0.155569,0.352778 0.205479,0 0.373598,-0.15875 0.373598,-0.352778 z m 1.763889,-0.419919 c 0,-0.463688 -0.801787,-0.173332 -0.977569,0.354014 -0.08593,0.257792 0.07535,0.336633 0.418924,0.204791 0.307255,-0.117905 0.558645,-0.369367 0.558645,-0.558805 z m -2.293056,-0.638414 c -0.119915,-0.194028 -0.367409,-0.352778 -0.549986,-0.352778 -0.182577,0 -0.331958,0.15875 -0.331958,0.352778 0,0.194028 0.247494,0.352778 0.549987,0.352778 0.302492,0 0.451873,-0.15875 0.331957,-0.352778 z m -1.330266,-0.213137 c -0.117225,-0.117224 -0.421496,-0.129758 -0.676157,-0.02785 -0.281423,0.112615 -0.197829,0.196209 0.213137,0.213136 0.371886,0.01532 0.580245,-0.06806 0.46302,-0.185286 z m 3.623322,-0.807453 c 0,-0.173269 -0.260579,-0.415028 -0.579065,-0.537242 -0.484178,-0.185797 -0.506003,-0.134174 -0.133193,0.315034 0.508044,0.612156 0.712258,0.675866 0.712258,0.222208 z m -6.86466,-0.413992 c 0.379684,-0.614342 -0.05275,-0.744446 -0.536598,-0.161443 -0.278253,0.335274 -0.305015,0.537692 -0.07109,0.537692 0.206335,0 0.479795,-0.169312 0.607688,-0.376249 z m 47.967773,81.169649 c -0.117436,-0.19002 -0.0488,-0.65327 0.152527,-1.02945 0.201327,-0.37618 0.268199,-1.17321 0.148604,-1.77118 -0.128485,-0.64243 -0.07114,-1.08721 0.140173,-1.08721 0.542219,0 0.851393,2.25917 0.452684,3.30785 -0.379984,0.99944 -0.561837,1.11742 -0.893988,0.57999 z M 17.218892,77.114249 c -1.791712,-1.192897 -2.355193,-2.691673 -1.704265,-4.533088 0.671622,-1.899959 1.969056,-2.799539 4.318708,-2.994389 1.732286,-0.143654 2.013586,-0.06103 3.101436,0.910961 1.056527,0.944008 1.196359,1.27417 1.196359,2.824737 0,1.886631 -0.622147,2.906085 -2.304412,3.776017 -1.774112,0.917427 -3.245976,0.922465 -4.607826,0.01577 z m 4.539782,-0.905062 c 1.494035,-0.910911 1.991317,-2.185229 1.469618,-3.765994 -0.551901,-1.672276 -1.548128,-2.219703 -3.603082,-1.979891 -2.035897,0.237588 -3.434719,1.62294 -3.426177,3.393186 0.0063,1.298088 0.204142,1.647183 1.39601,2.462822 1.160608,0.794251 2.749235,0.752235 4.163631,-0.110123 z m 85.711416,-2.175168 c -0.33184,-0.646108 -0.90983,-1.571614 -1.28444,-2.056683 -1.10035,-1.424813 -1.23558,-2.367795 -0.40343,-2.813149 0.48421,-0.25914 0.72251,-0.266227 0.72251,-0.02148 0,0.200854 -0.15875,0.365188 -0.35278,0.365188 -0.67184,0 -0.3489,1.291767 0.52917,2.116667 0.48507,0.455701 0.88195,1.086622 0.88195,1.402048 0,0.315429 0.17661,0.750115 0.39246,0.965973 0.21586,0.215854 0.33069,0.5778 0.25518,0.804322 -0.0755,0.226519 -0.40879,-0.116776 -0.74062,-0.762882 z m 0.25107,-3.085412 c 0.10985,-0.177747 0.0386,-0.747021 -0.15837,-1.265054 -0.27444,-0.721829 -0.25442,-0.907841 0.0857,-0.796187 0.56325,0.184919 0.81131,2.384414 0.26891,2.384414 -0.21777,0 -0.30607,-0.145429 -0.19621,-0.323173 z M 104.234,68.85502 c -0.15877,-0.489825 -0.11246,-0.985602 0.11314,-1.211207 0.57571,-0.575705 0.75672,-0.163822 0.4394,0.999868 -0.27935,1.024467 -0.28791,1.027744 -0.55254,0.211339 z m 1.96954,-2.726179 c -0.48286,-1.059755 -0.49606,-1.207061 -0.10821,-1.207061 0.42922,0 1.14163,1.705765 0.80046,1.916617 -0.15834,0.09786 -0.46985,-0.221442 -0.69225,-0.709556 z m -3.71276,-3.885995 c -0.94648,-1.063907 -1.63694,-2.018316 -1.53435,-2.120911 0.26316,-0.263154 3.43164,3.104318 3.43164,3.647154 0,0.616091 0.0303,0.640479 -1.89729,-1.526243 z m -3.041597,-1.703765 c 0,-0.276183 -0.55563,-1.230055 -1.23472,-2.119722 -0.6791,-0.889663 -1.23473,-1.722762 -1.23473,-1.851325 0,-0.128566 -0.22506,-0.484378 -0.50013,-0.790698 -0.70644,-0.786681 -0.0179,-4.543958 0.70097,-3.825096 0.11045,0.110459 0.005,0.514382 -0.23432,0.897612 -0.34618,0.554323 -0.34219,1.028781 0.0195,2.320706 0.25007,0.893159 0.68042,1.811281 0.95633,2.040269 1.28806,1.069008 2.660397,3.830398 1.9036,3.830398 -0.20711,0 -0.37655,-0.225965 -0.37655,-0.502144 z m 0.837587,-1.779274 c -0.10922,-0.284642 -0.13051,-0.721205 -0.0473,-0.970139 0.0832,-0.248934 0.23492,-0.01605 0.33713,0.517529 0.19958,1.04183 0.0349,1.298942 -0.28983,0.45261 z M 94.667693,36.434975 c 0.1318,-0.533576 0.37306,-1.899327 0.53612,-3.035004 0.16307,-1.135673 0.47061,-2.238985 0.68343,-2.451805 0.21281,-0.212817 0.38694,-0.901446 0.38694,-1.530287 0,-0.628842 0.15051,-1.236367 0.33446,-1.350058 0.19276,-0.119131 0.31046,0.395183 0.27782,1.2139 -0.0311,0.781339 -0.16315,1.420615 -0.29332,1.420615 -0.39882,0 -0.73256,1.509067 -0.67594,3.056414 0.0487,1.330572 -0.76469,3.646364 -1.28071,3.646364 -0.11465,0 -0.10061,-0.436563 0.0312,-0.970139 z m -2.97422,-0.352778 c 0.004,-0.755981 0.0809,-0.853323 0.34737,-0.440972 0.44606,0.69022 0.44606,1.411111 0,1.411111 -0.19402,0 -0.35034,-0.436562 -0.34737,-0.970139 z m 5.99182,0.842515 c 0,-0.09634 0.71437,-0.657292 1.5875,-1.246558 1.677177,-1.131916 2.130597,-1.009781 0.793747,0.213808 -0.759937,0.695561 -2.381247,1.398725 -2.381247,1.03275 z m -5.83534,-2.365291 c -0.38429,-0.621799 0.0208,-0.708977 0.74581,-0.160492 0.59686,0.451545 0.60702,0.515669 0.0833,0.525522 -0.3281,0.0062 -0.70118,-0.158094 -0.82908,-0.36503 z m 0.9243,-1.228891 c -0.029,-0.752305 0.57291,-1.569861 1.15572,-1.569861 0.18529,0 0.0949,0.277813 -0.20091,0.617362 -0.2958,0.339548 -0.62537,0.855486 -0.73239,1.146527 -0.13683,0.372149 -0.20283,0.314576 -0.22242,-0.194028 z m 5.77848,0.170558 c -0.1279,-0.206936 -0.14783,-0.460957 -0.0443,-0.564494 0.2527,-0.252698 0.94074,0.192557 0.94074,0.608785 0,0.45084 -0.60904,0.420748 -0.89645,-0.04429 z m 5.288527,-1.000622 c -0.18433,-0.175193 -0.65264,-0.394903 -1.04069,-0.488241 -0.66927,-0.16098 -0.66695,-0.171814 0.045,-0.210633 0.4128,-0.02251 0.94817,0.197202 1.18972,0.488244 0.47889,0.577032 0.34472,0.722686 -0.19403,0.21063 z m -5.803187,-0.739797 c 0,-0.388055 0.15875,-0.705555 0.35277,-0.705555 0.19403,0 0.35278,0.3175 0.35278,0.705555 0,0.388056 -0.15875,0.705556 -0.35278,0.705556 -0.19402,0 -0.35277,-0.3175 -0.35277,-0.705556 z m 2.219517,0.08819 c -0.12528,-0.339549 -0.393507,-0.727791 -0.596077,-0.862764 -0.20256,-0.134969 -0.24084,-0.372844 -0.0851,-0.528609 0.15577,-0.155769 0.502937,0.03404 0.771507,0.421788 0.26855,0.387752 0.65871,0.903439 0.867,1.145974 0.28029,0.326358 0.23469,0.440972 -0.17543,0.440972 -0.30478,0 -0.65664,-0.277813 -0.78192,-0.617361 z m -9.627857,-0.79375 c 0,-0.194028 0.16812,-0.352778 0.3736,-0.352778 0.20548,0 0.27549,0.15875 0.15557,0.352778 -0.11992,0.194028 -0.28804,0.352778 -0.3736,0.352778 -0.0856,0 -0.15557,-0.15875 -0.15557,-0.352778 z m 1.41111,-0.352778 c 0,-0.194028 0.14938,-0.352778 0.33196,-0.352778 0.18258,0 0.43007,0.15875 0.54999,0.352778 0.11992,0.194028 -0.0295,0.352778 -0.33196,0.352778 -0.30249,0 -0.54999,-0.15875 -0.54999,-0.352778 z m 1.75338,-1.038687 c 0.37894,-0.70806 1.06885,-1.288477 1.06885,-0.899219 0,0.48467 -0.75197,1.585128 -1.08316,1.585128 -0.23028,0 -0.22531,-0.238174 0.0143,-0.685909 z m 8.124397,0.333132 c 0,-0.194028 0.15875,-0.352778 0.35278,-0.352778 0.19403,0 0.35278,0.15875 0.35278,0.352778 0,0.194027 -0.15875,0.352777 -0.35278,0.352777 -0.19403,0 -0.35278,-0.15875 -0.35278,-0.352777 z m -4.233327,-0.529167 c 0,-0.291042 0.15875,-0.529167 0.35278,-0.529167 0.19402,0 0.35277,0.238125 0.35277,0.529167 0,0.291042 -0.15875,0.529167 -0.35277,0.529167 -0.19403,0 -0.35278,-0.238125 -0.35278,-0.529167 z m 4.763187,-1.208019 c -0.59981,-0.23292 -0.53267,-0.298987 0.45047,-0.443282 0.69699,-0.102298 1.10783,-0.02706 1.03559,0.189652 -0.16477,0.494303 -0.6521,0.577477 -1.48606,0.25363 z M 91.335293,27.880114 c 0,-0.194028 0.15875,-0.352778 0.35278,-0.352778 0.19402,0 0.35277,0.15875 0.35277,0.352778 0,0.194028 -0.15875,0.352778 -0.35277,0.352778 -0.19403,0 -0.35278,-0.15875 -0.35278,-0.352778 z m 7.23194,0 c -0.11991,-0.194028 0.0295,-0.352778 0.33196,-0.352778 0.30249,0 0.54999,0.15875 0.54999,0.352778 0,0.194028 -0.14938,0.352778 -0.33196,0.352778 -0.18258,0 -0.43007,-0.15875 -0.54999,-0.352778 z m -1.40109,-1.042125 c -0.2753,-0.445448 0.68389,-4.555389 1.17861,-5.050111 0.66985,-0.669856 0.83428,-0.0063 0.2278,0.919336 -0.31913,0.487047 -0.60963,1.690205 -0.64555,2.673685 -0.0625,1.709687 -0.31081,2.185292 -0.76086,1.45709 z m -5.803,-0.927551 c 0.0169,-0.410966 0.10052,-0.494559 0.21314,-0.213137 0.1019,0.254662 0.0894,0.558933 -0.0278,0.676158 -0.11723,0.117225 -0.2006,-0.09114 -0.18529,-0.463021 z m 2.44159,0.0294 c -0.24932,-0.300419 -0.37394,-0.625592 -0.27693,-0.722606 0.097,-0.09701 0.38039,0.06941 0.62971,0.369828 0.24933,0.30042 0.37395,0.625592 0.27693,0.722606 -0.097,0.09701 -0.38038,-0.06941 -0.62971,-0.369828 z m 8.113887,-0.176389 c 0,-0.194028 0.23813,-0.352778 0.52917,-0.352778 0.29104,0 0.52916,0.15875 0.52916,0.352778 0,0.194028 -0.23812,0.352778 -0.52916,0.352778 -0.29104,0 -0.52917,-0.15875 -0.52917,-0.352778 z m -2.116657,-5.428973 c 0,-0.948083 1.211737,-2.64664 1.607097,-2.252764 0.14121,0.140669 -0.12294,0.57195 -0.58699,0.958402 -0.46405,0.386452 -0.64529,0.707921 -0.40275,0.714377 0.63463,0.01689 0.54748,1.422847 -0.0882,1.422847 -0.32272,0 -0.529157,-0.328836 -0.529157,-0.842862 z m -1.6099,-0.370704 c -0.17904,-0.436165 -0.12996,-0.734724 0.13532,-0.823148 0.22893,-0.07631 0.41624,-0.44302 0.41624,-0.814906 0,-0.371887 0.15049,-0.676158 0.33443,-0.676158 0.20401,0 0.2148,0.378323 0.0277,0.970139 -0.16872,0.533577 -0.38011,1.208264 -0.46975,1.499306 -0.12904,0.41899 -0.22147,0.38667 -0.44391,-0.155233 z m 4.255727,-0.550323 c 0.11991,-0.194027 0.68491,-0.352777 1.25554,-0.352777 0.57063,0 1.03751,0.15875 1.03751,0.352777 0,0.194028 -0.56499,0.352778 -1.25554,0.352778 -0.74719,0 -1.16726,-0.142833 -1.03751,-0.352778 z m 3.73202,-1.616898 c 0.0169,-0.410966 0.10052,-0.494559 0.21313,-0.213136 0.10191,0.254661 0.0894,0.558932 -0.0278,0.676157 -0.11723,0.117225 -0.20061,-0.09113 -0.18529,-0.463021 z m 1.6996,0.293982 c -0.22575,-1.639527 -0.19725,-2.910417 0.0653,-2.910417 0.17818,0 0.32395,0.714375 0.32395,1.5875 0,0.873125 -0.0794,1.5875 -0.17639,1.5875 -0.097,0 -0.19278,-0.119063 -0.21282,-0.264583 z m -5.60801,-2.410639 c -0.54953,-0.304928 -0.67467,-0.491337 -0.33201,-0.494577 0.30246,-0.0029 0.85809,0.227875 1.23472,0.512746 0.85625,0.647637 0.27615,0.635962 -0.90271,-0.01817 z m 0.41854,-1.161795 -1.47485,-0.976394 0.88093,-0.765961 c 0.97737,-0.849813 1.19244,-0.641229 0.326,0.316172 -0.51034,0.563925 -0.48908,0.633746 0.26459,0.869047 1.16276,0.363025 2.16274,1.110451 1.79212,1.339509 -0.17266,0.106711 -0.97762,-0.245356 -1.78879,-0.782373 z m -2.15458,0.103452 c 0.0169,-0.410966 0.10052,-0.494559 0.21314,-0.213136 0.1019,0.254661 0.0894,0.558932 -0.0278,0.676157 -0.11723,0.117225 -0.2006,-0.09113 -0.18528,-0.463021 z m 2.79437,-1.205324 c 0,-0.194028 0.15875,-0.352778 0.35278,-0.352778 0.19403,0 0.35278,0.15875 0.35278,0.352778 0,0.194028 -0.15875,0.352778 -0.35278,0.352778 -0.19403,0 -0.35278,-0.15875 -0.35278,-0.352778 z m 5.47002,-1.766052 c 0.35226,-0.389245 0.71698,-0.631206 0.8105,-0.537691 0.23704,0.237043 -0.64284,1.24541 -1.08672,1.24541 -0.20034,0 -0.076,-0.318473 0.27622,-0.707719 z m -7.45888,-0.243233 c 0.37575,-0.37575 1.31349,-0.441624 1.08778,-0.07641 -0.10939,0.176995 -0.45411,0.321809 -0.76603,0.321809 -0.31193,0 -0.45672,-0.110428 -0.32175,-0.245396 z m 1.70621,-1.359975 c -0.25247,-0.2861103 -0.36217,-0.6769473 -0.24376,-0.8685253 0.31167,-0.504293 1.24799,-0.42845 1.14377,0.09265 -0.0485,0.242534 0.11025,0.401284 0.35278,0.352778 0.24254,-0.04851 0.44097,0.14993 0.44097,0.4409713 0,0.674801 -1.0927,0.663271 -1.69376,-0.01787 z M 90.549003,5.8228237 c -0.33544,-0.674324 -0.44952,-1.226043 -0.25351,-1.226043 0.19601,0 0.44776,0.238125 0.55945,0.529167 0.11168,0.291041 0.59618,0.529166 1.07666,0.529166 0.54593,0 0.81576,0.1654 0.71941,0.440973 -0.0848,0.242534 -0.43147,0.390667 -0.77036,0.329183 -0.3654,-0.06629 -0.5215,0.04139 -0.38356,0.264583 0.12794,0.207005 0.10419,0.372467 -0.0528,0.367693 -0.15697,-0.0048 -0.55985,-0.560399 -0.8953,-1.234722 z"
       style="fill:#000000;stroke-width:0.35277775" />
  </g>
</svg>
