<?xml version="1.0" encoding="UTF-8" standalone="no"?>
<svg
   xmlns:dc="http://purl.org/dc/elements/1.1/"
   xmlns:cc="http://creativecommons.org/ns#"
   xmlns:rdf="http://www.w3.org/1999/02/22-rdf-syntax-ns#"
   xmlns:svg="http://www.w3.org/2000/svg"
   xmlns="http://www.w3.org/2000/svg"
   id="svg8"
   version="1.1"
   viewBox="0 0 119.20876 134.65219"
   height="134.65221mm"
   width="119.20876mm">
  <defs
     id="defs2" />
  <metadata
     id="metadata5">
    <rdf:RDF>
      <cc:Work
         rdf:about="">
        <dc:format>image/svg+xml</dc:format>
        <dc:type
           rdf:resource="http://purl.org/dc/dcmitype/StillImage" />
        <dc:title></dc:title>
      </cc:Work>
    </rdf:RDF>
  </metadata>
  <g
     transform="translate(-19.514292,24.487598)"
     id="layer1">
    <path
       id="path6098"
       d="m 91.970847,109.61331 c -0.108116,-0.28175 -0.112773,-0.64787 -0.01034,-0.8136 0.102426,-0.16573 0.295417,-6.08677 0.428872,-13.157875 0.133453,-7.071095 0.386804,-13.13435 0.562998,-13.473899 0.176195,-0.339548 0.671957,-0.617897 1.101694,-0.618553 0.781085,-0.0011 0.781339,-0.0036 0.781339,-7.213784 v -7.212591 l -5.115278,0.133124 c -2.813403,0.07322 -7.114212,0.14442 -9.557353,0.158228 l -4.442087,0.0251 -0.422617,1.410564 c -0.481661,1.60764 -3.686126,7.868483 -4.67221,9.128503 -0.36056,0.460724 -1.410917,1.233007 -2.334126,1.716186 -0.923209,0.483179 -2.631063,1.470392 -3.795229,2.193805 l -2.116667,1.315293 -2.822222,-0.445861 c -1.552223,-0.245227 -3.163659,-0.552228 -3.58097,-0.682223 -0.457976,-0.142667 -1.381665,0.03919 -2.330171,0.458755 -1.478037,0.653807 -1.585845,0.797225 -1.814027,2.41324 -0.176127,1.247359 -0.579675,2.100076 -1.472798,3.112093 -1.098846,1.245129 -1.422523,1.402803 -3.031441,1.476714 -0.990683,0.04551 -1.970159,0.251664 -2.176612,0.458117 -0.677166,0.677164 -1.996971,0.394106 -3.154214,-0.676487 -0.625344,-0.57852 -1.558625,-1.372051 -2.073958,-1.763402 -1.220642,-0.926969 -1.685552,-3.683458 -0.890163,-5.277852 0.459619,-0.921328 0.464716,-1.273961 0.03887,-2.68895 -0.424158,-1.409372 -0.420228,-1.76373 0.0292,-2.632826 0.285628,-0.552344 0.66107,-1.091865 0.834315,-1.198936 0.382155,-0.236185 0.121862,-4.511647 -0.373203,-6.130079 -0.353628,-1.156056 -0.369837,-1.163408 -2.174999,-0.98649 -4.071174,0.399002 -17.139001,0.377606 -17.545333,-0.02872 -0.937306,-0.93731 0.07172,-1.2065 3.851742,-1.027582 2.068542,0.09791 10.031611,0.02984 17.695709,-0.15125 7.664097,-0.181098 18.062222,-0.425852 23.106945,-0.543902 5.044722,-0.118046 11.632847,-0.334331 14.640278,-0.480631 3.007431,-0.146297 9.516181,-0.296232 14.463889,-0.333181 4.947709,-0.03695 10.82146,-0.131135 13.05278,-0.209293 2.23132,-0.07816 10.06227,-0.172741 17.4021,-0.210185 13.25061,-0.0676 13.34716,-0.07339 13.62951,-0.817442 0.31293,-0.824661 -0.13819,-1.631316 -0.9123,-1.631316 -0.26729,0 -0.48597,-0.178188 -0.48597,-0.395971 0,-0.282293 -0.13,-0.288089 -0.45279,-0.02018 -0.54308,0.450712 -1.11854,0.461193 -24.41805,0.444729 -10.08945,-0.0071 -21.598822,0.05529 -25.576391,0.138712 -18.708953,0.392377 -25.373373,0.567948 -27.16389,0.71561 -1.067153,0.08801 -9.877778,0.260089 -19.579167,0.382401 -9.701389,0.122297 -18.035764,0.244831 -18.520834,0.272284 -0.663397,0.03755 -0.881944,-0.124922 -0.881944,-0.655641 0,-0.689667 0.193828,-0.702762 8.606371,-0.581484 8.258587,0.119056 8.596237,0.09767 8.355563,-0.529166 -0.137945,-0.359283 -0.498434,-1.605739 -0.801088,-2.769906 -0.302653,-1.164166 -0.907362,-2.91224 -1.343798,-3.884612 -1.393409,-3.104491 -1.673464,-7.779671 -0.676434,-11.292279 0.504957,-1.779002 0.607762,-7.184341 0.150706,-7.923873 -0.286783,-0.464026 -6.920328,-1.143441 -13.673959,-1.400506 -0.498137,-0.01898 -0.60161,-0.934198 -0.13801,-1.220721 0.16663,-0.102983 1.793817,0.03411 3.615973,0.304677 5.511024,0.818282 15.786794,1.573336 26.747027,1.965342 l 10.38124,0.371299 2.230564,-0.948002 c 1.226813,-0.521402 2.230568,-1.08294 2.230568,-1.24786 0,-0.4283 -0.494083,-0.370215 -0.979441,0.115143 -0.318146,0.318146 -0.562025,0.28194 -1.044985,-0.15513 -0.513595,-0.464799 -1.932703,-0.616899 -7.681253,-0.823274 -10.115049,-0.363135 -13.224877,-0.378464 -13.224877,-0.06519 0,0.151698 -0.396875,0.275815 -0.881944,0.275815 -0.48507,0 -0.883184,0.119063 -0.884697,0.264584 -0.0015,0.145521 -0.431405,0.463666 -0.955313,0.706988 -0.799474,0.371305 -1.000283,0.357134 -1.2495,-0.0882 -0.163316,-0.291828 -0.533603,-0.530599 -0.822861,-0.530599 -0.289257,0 -0.956056,-0.314607 -1.481776,-0.699124 -1.096357,-0.801892 -5.306321,-1.358389 -11.548655,-1.526565 -3.869167,-0.104242 -4.753032,-0.293416 -4.753032,-1.017295 0,-0.39098 3.543411,-0.261976 10.042407,0.365605 2.506259,0.24202 3.262502,0.206199 3.64117,-0.172469 0.557012,-0.557012 0.448384,-0.528521 2.72059,-0.713536 3.401219,-0.276951 4.208137,-0.183829 4.80611,0.554638 0.640362,0.790811 1.582325,0.935679 8.246668,1.268271 2.328333,0.116198 5.146146,0.290865 6.261806,0.388154 1.673352,0.145916 2.028472,0.08112 2.028472,-0.37012 0,-0.736438 1.356674,-0.705623 2.191381,0.04978 0.596177,0.539532 0.751131,0.545808 1.615278,0.06543 0.990374,-0.550556 1.538602,-0.576443 3.683992,-0.173966 1.19484,0.224152 1.281613,0.17689 1.499898,-0.816955 0.304327,-1.385602 2.640651,-5.877878 4.418482,-8.495849 0.777127,-1.144372 2.721451,-3.183869 4.320716,-4.53221 1.599265,-1.348342 3.304628,-3.114418 3.789698,-3.924611 1.414025,-2.361801 2.534807,-3.595821 3.712947,-4.088077 1.36857,-0.571828 3.132985,-2.3470983 3.864162,-3.8879413 0.304846,-0.642413 0.749773,-1.373866 0.988731,-1.625451 0.238954,-0.251586 0.892785,-1.012601 1.452957,-1.691145 0.560173,-0.678545 2.622917,-2.4790973 4.583875,-4.00122785 1.960961,-1.52213065 3.63044,-2.95133285 3.709952,-3.17600505 0.07951,-0.2246722 0.833572,-1.109338 1.675695,-1.965924 0.842119,-0.8565861 1.53113,-1.7052047 1.53113,-1.8858192 0,-0.1806148 0.33522,-0.7991747 0.74495,-1.3745778 0.63471,-0.8913787 0.76247,-1.6563658 0.86333,-5.1697358 0.11864,-4.132495 0.56093,-7.317005 1.17422,-8.454571 0.18024,-0.334327 0.72419,-0.978656 1.20876,-1.431842 0.70932,-0.663361 1.01699,-0.751228 1.57839,-0.450773 0.38354,0.205262 0.7987,0.637347 0.92259,0.96019 0.207,0.539449 0.28249,0.535184 0.93205,-0.05266 0.6836,-0.618653 0.73836,-0.616387 1.66834,0.06902 0.58539,0.43144 1.21721,1.456417 1.61509,2.620098 0.554,1.620238 0.59673,2.224928 0.28053,3.969285 -0.31815,1.75512 -0.27575,2.325997 0.28823,3.880555 1.60705,4.4297511 1.1846,5.9768986 -2.24857,8.2349474 -3.34763,2.2017828 -5.92224,6.5994503 -6.93406,11.8440033 -0.25267,1.309687 -0.58903,2.38125 -0.74746,2.38125 -0.15844,0 -0.28806,0.259073 -0.28806,0.5757233 0,0.755487 -1.30811,2.899067 -2.447315,4.010388 -0.497241,0.485069 -1.643744,1.27091 -2.547779,1.746314 -1.264299,0.664852 -1.927056,1.357005 -2.871252,2.998611 -1.533472,2.666142 -1.894921,3.836225 -2.353472,7.61867 -0.333851,2.753825 -1.316157,6.345527 -1.893309,6.922678 -0.728102,0.728102 -0.132235,1.093128 1.617987,0.991172 1.801485,-0.104945 15.72889,-0.248091 19.00981,-0.195386 1.50091,0.02409 1.68206,0.124393 2.20129,1.218593 0.70169,1.4787 0.21474,3.294539 -0.96163,3.585926 -0.41717,0.103336 -2.97443,0.123081 -5.6828,0.04388 -4.87323,-0.142508 -4.9313,-0.13511 -5.59872,0.713381 -0.370935,0.471561 -0.893434,0.773345 -1.161119,0.670623 -0.597707,-0.229362 -0.554827,-0.699946 -0.672091,7.375818 -0.05353,3.686528 -0.20502,8.396602 -0.336641,10.466832 L 97.778215,62.09117 116.03343,62.0022 c 10.04036,-0.04893 19.22073,0.0035 20.40081,0.116501 l 2.14561,0.205472 0.10586,2.030487 c 0.10001,1.918141 0.0537,2.050316 -0.83672,2.388859 -1.09943,0.417999 -4.98561,0.364504 -5.88372,-0.08099 -0.3407,-0.169001 -0.61736,-0.170592 -0.61736,-0.0036 0,0.16648 -2.8575,0.232312 -6.35,0.146297 -4.54643,-0.111971 -6.35,-0.04412 -6.35,0.238894 0,0.217407 -0.34101,0.73629 -0.75779,1.153076 -0.64288,0.642877 -0.86405,0.691437 -1.45846,0.32022 -0.64543,-0.403074 -0.68613,-0.36146 -0.51614,0.527759 0.10149,0.530934 0.0456,1.449641 -0.12412,2.041574 -0.4008,1.397501 0.19725,3.634581 1.10095,4.118226 1.13996,0.610086 1.86071,2.397467 1.63394,4.051963 -0.19492,1.422093 -0.16179,1.48355 1.05768,1.962033 l 1.2589,0.493956 -0.22338,3.0056 c -0.20031,2.695243 0.0488,5.414483 0.70352,7.679908 0.18654,0.6454 0.0898,0.79375 -0.51729,0.79375 -0.41069,0 -0.75494,0.19843 -0.76501,0.44097 -0.0101,0.24253 -0.002,3.97316 0.0174,8.290285 0.0334,7.36117 -0.13034,8.71109 -0.90478,7.45802 -0.133,-0.21521 -0.22829,-6.38064 -0.21174,-13.700975 l 0.0301,-13.30968 -2.10213,-0.07586 -2.10213,-0.07586 v 2.463313 2.46331 l 1.11662,-0.320245 c 1.29739,-0.372085 2.85495,-0.0796 2.66146,0.499791 -0.0763,0.228632 -0.91849,0.398872 -1.97313,0.398872 h -1.83994 l 0.10569,10.936109 c 0.0912,9.432725 0.0344,10.936115 -0.41271,10.936115 -0.4407,0 -0.53701,-1.48033 -0.64262,-9.877775 -0.0683,-5.43278 -0.0175,-11.82247 0.11294,-14.19931 l 0.23718,-4.321528 h 1.06055 c 0.82215,0 1.01242,-0.125437 0.84642,-0.558021 -0.1178,-0.306899 -0.21415,-1.089952 -0.21415,-1.740104 0,-0.872476 -0.18491,-1.240783 -0.70593,-1.406151 -0.38827,-0.123229 -0.85114,-0.495371 -1.02861,-0.826982 -0.38238,-0.714481 -1.18319,-5.823663 -1.12325,-7.166391 0.0339,-0.760692 -0.0864,-0.904392 -0.63688,-0.760438 -0.4627,0.120996 -0.86964,-0.113837 -1.27845,-0.73776 l -0.5997,-0.915254 h -6.30943 -6.309426 l -0.0021,4.321528 c -0.0011,2.37684 -0.104069,5.631215 -0.228678,7.231944 l -0.226561,2.910417 h 1.040063 c 0.572037,0 1.230567,0.1905 1.4634,0.423333 0.511832,0.511835 0.564812,2.975364 0.07056,3.280834 -0.194028,0.119916 -0.352778,0.512932 -0.352778,0.873365 0,0.360436 -0.198437,0.735411 -0.440972,0.833275 -0.352778,0.142349 -0.352778,0.183504 0,0.205786 0.519603,0.03281 0.605786,1.438963 0.08819,1.438963 -0.559795,0 -0.409166,1.313988 0.176389,1.538686 0.717823,0.275452 0.671523,1.874368 -0.06623,2.287238 -0.51526,0.28835 -0.603839,1.08611 -0.658079,5.92656 -0.132439,11.819805 -0.106165,11.414185 -0.73938,11.414185 -0.531777,0 -0.561795,-0.81068 -0.349426,-9.4368 0.12778,-5.190255 0.334518,-11.311083 0.459419,-13.60186 l 0.227094,-4.165043 -1.90614,0.07664 c -2.749896,0.110575 -2.788084,0.14236 -2.788084,2.320555 0,1.884817 0.0223,1.927651 0.970139,1.86515 1.546444,-0.101967 1.852083,-0.02014 1.852083,0.495864 0,0.485983 -1.942256,1.075472 -2.469613,0.749547 -0.306187,-0.18923 -0.628862,5.607632 -0.864041,15.522327 -0.08284,3.4925 -0.160408,6.38969 -0.172371,6.4382 -0.07755,0.31442 -0.784197,-0.002 -0.94603,-0.42408 z M 45.587528,88.165158 c -0.227137,-0.436562 -0.448125,-0.837173 -0.491087,-0.890248 -0.16411,-0.202742 -1.237429,0.363082 -1.237429,0.652335 0,0.167182 0.212691,0.222345 0.472647,0.122594 0.259956,-0.09976 0.676269,0.06398 0.92514,0.363848 0.653106,0.786945 0.808654,0.670055 0.330729,-0.248529 z m 3.369499,-2.187211 c -0.180612,-0.665004 -0.138352,-0.656446 0.52512,0.106338 0.614587,0.706582 0.753674,0.7458 0.938334,0.264583 0.119238,-0.310727 0.101954,-0.842772 -0.03841,-1.182321 -0.181,-0.437853 -0.304524,-0.484861 -0.424827,-0.161664 -0.130276,0.349988 -0.284414,0.360426 -0.664483,0.045 C 48.93561,84.753476 48.7979,84.74938 48.7979,85.035163 c 0,0.771909 -0.550306,0.377673 -1.406423,-1.007555 -0.477085,-0.771937 -1.070186,-1.481331 -1.318002,-1.57643 -0.247816,-0.09509 -0.445837,-0.376318 -0.440047,-0.624945 0.0058,-0.248624 0.615708,0.248069 1.355373,1.10376 0.797726,0.92286 1.440301,1.401357 1.579478,1.176161 0.243685,-0.394289 -2.575367,-3.043181 -2.896699,-2.721846 -0.100192,0.100189 -0.88944,-0.496097 -1.753884,-1.325086 -1.427625,-1.369075 -1.733707,-1.295436 -0.518962,0.124851 0.421402,0.492707 0.414661,0.602968 -0.04771,0.780398 -0.315344,0.121009 -0.45054,0.435712 -0.326286,0.759512 0.186884,0.48701 0.269691,0.478092 0.694979,-0.07484 0.455622,-0.592374 0.477534,-0.587993 0.389044,0.07783 -0.05157,0.388056 -0.217609,0.903993 -0.368968,1.146528 -0.151359,0.242534 -0.175581,0.639409 -0.05383,0.881944 0.121753,0.242535 -0.259172,-0.100774 -0.8465,-0.762906 -0.587329,-0.662133 -0.969625,-1.376508 -0.849547,-1.5875 0.120078,-0.210993 0.08669,-0.264213 -0.07419,-0.118269 -0.160883,0.145944 -0.622897,-0.0086 -1.026698,-0.343415 -0.403802,-0.334825 -0.535747,-0.382796 -0.293212,-0.106606 0.52702,0.600156 0.586252,1.19804 0.08819,0.890224 -0.839948,-0.519116 -0.24303,0.746097 0.980014,2.077216 0.733035,0.79781 1.602508,1.837859 1.932163,2.311223 0.329655,0.473361 0.711235,0.748796 0.847957,0.612077 0.136721,-0.136723 -0.285339,-0.799455 -0.937912,-1.472738 -0.652572,-0.673284 -1.100906,-1.309741 -0.996296,-1.414353 0.104609,-0.10461 0.391009,0.05176 0.636443,0.347493 0.245435,0.295733 0.615013,0.537693 0.821284,0.537693 0.206272,0 0.742459,0.345172 1.191527,0.767048 1.164842,1.094314 0.983589,0.343355 -0.270283,-1.119826 -0.798113,-0.93134 -0.929415,-1.261822 -0.534382,-1.345018 0.31998,-0.06739 0.439379,-0.330066 0.306926,-0.675234 -0.149559,-0.389742 -0.08134,-0.481221 0.219992,-0.294989 0.240228,0.148466 0.349613,0.497092 0.243078,0.774717 -0.121572,0.316812 0.1322,0.628685 0.681505,0.83753 0.481364,0.183014 0.875206,0.514872 0.875206,0.737457 0,0.273114 -0.194082,0.247276 -0.596885,-0.07946 -0.514506,-0.417343 -0.555614,-0.411134 -0.29785,0.045 0.667259,1.180769 1.001221,1.456842 1.258582,1.040423 0.169841,-0.274807 0.488983,-0.147285 0.997554,0.3986 0.793255,0.851461 0.748884,1.404296 -0.0589,0.733894 -0.361246,-0.299808 -0.644179,-0.261859 -1.155053,0.154916 -0.568072,0.46344 -0.579389,0.521543 -0.07055,0.362207 0.772675,-0.241952 1.213791,0.41794 0.470137,0.703309 -0.30581,0.117351 -0.824417,-0.0028 -1.152459,-0.267074 -0.458705,-0.369493 -0.437301,-0.262587 0.09269,0.462939 l 0.689127,0.943385 1.147911,-1.102121 c 0.814301,-0.781819 1.090827,-1.312301 0.951493,-1.825328 z m -7.214682,-2.839872 c -0.249326,-0.300418 -0.373944,-0.625591 -0.27693,-0.722605 0.09701,-0.09701 0.380382,0.06941 0.629708,0.369827 0.249326,0.300419 0.373945,0.625592 0.276931,0.722606 -0.09701,0.09701 -0.380383,-0.06941 -0.629709,-0.369828 z m 1.437326,3.047594 c -0.172502,-0.322326 -0.675858,-0.901767 -1.118569,-1.287653 l -0.804928,-0.701608 0.79456,1.144122 c 0.437008,0.629264 0.696902,1.302135 0.577541,1.495263 -0.124698,0.201768 0.01314,0.262827 0.324009,0.143531 0.381431,-0.146367 0.448508,-0.380488 0.227387,-0.793655 z m -2.621173,-2.341788 c -0.06632,-1.149336 -0.580042,-1.149554 -0.580042,-2.5e-4 0,0.485069 0.141957,0.881944 0.315459,0.881944 0.173502,0 0.292565,-0.396762 0.264583,-0.881694 z m 10.003292,0.395722 c 0,-0.07326 -0.277812,-0.351067 -0.617361,-0.617362 -0.559525,-0.438809 -0.572003,-0.426332 -0.133193,0.133195 0.460858,0.58764 0.750554,0.774517 0.750554,0.484167 z m 48.571543,-0.991285 c -0.112614,-0.281421 -0.196208,-0.197831 -0.213134,0.213138 -0.01531,0.371884 0.06806,0.580245 0.185286,0.463021 0.117224,-0.117225 0.129755,-0.421499 0.02783,-0.676159 z M 50.873197,82.562017 c -1.309318,-0.366913 -2.075296,-0.340833 -2.075296,0.07067 0,0.208111 0.296924,0.282311 0.663778,0.165876 0.430987,-0.136789 0.741754,-0.0075 0.886119,0.368734 0.188839,0.492108 0.308502,0.507905 0.794157,0.104846 0.515716,-0.428004 0.489348,-0.497674 -0.268758,-0.710121 z m 2.430989,-1.225024 c 1.918945,-0.481256 2.501586,-0.498246 3.877278,-0.113076 0.89044,0.249305 2.583092,0.453235 3.761458,0.453175 1.934708,-9.9e-5 2.399065,-0.159156 4.788313,-1.640152 1.455208,-0.902021 3.072222,-2.002025 3.593363,-2.44445 0.934903,-0.793694 5.226082,-8.76124 5.226082,-9.703404 0,-0.362169 -0.380789,-0.443015 -1.499306,-0.318325 -0.824618,0.09193 -2.372431,0.185166 -3.439583,0.207193 -2.137294,0.04411 -1.994941,-0.09603 -4.726672,4.6534 -0.919756,1.599103 -4.854646,5.208976 -6.893194,6.323824 -0.55916,0.305795 -1.422227,0.821732 -1.917929,1.146528 -1.089515,0.713877 -1.278872,0.731389 -1.278872,0.118269 0,-0.259747 1.071562,-1.159214 2.38125,-1.998815 2.3841,-1.528374 6.790972,-5.471364 6.790972,-6.076135 0,-0.176823 0.449234,-0.985096 0.998298,-1.796164 1.792213,-2.647435 1.929267,-2.473488 -1.74303,-2.212273 -1.821716,0.129579 -6.205587,0.25673 -9.741933,0.282554 l -6.429722,0.04696 0.213232,0.909599 c 0.117278,0.500277 0.525779,1.429564 0.907778,2.06508 0.670863,1.116083 0.651301,2.195907 -0.03978,2.195907 -0.524057,0 -1.693612,-2.156495 -1.948998,-3.59368 -0.260552,-1.46625 -0.690547,-1.616657 -4.003963,-1.400517 l -1.856173,0.12108 0.756994,1.346888 c 0.416346,0.740791 1.211936,1.683244 1.767978,2.094343 0.556041,0.411099 1.010984,0.901449 1.010984,1.089671 0,0.601158 -1.162521,0.367322 -1.976763,-0.397616 l -0.787516,-0.739832 0.196556,1.533582 c 0.108107,0.84347 0.476389,2.089206 0.818407,2.768303 0.821318,1.630783 3.052504,3.850295 4.483344,4.459891 0.63059,0.268658 1.146528,0.645086 1.146528,0.83651 0,0.533365 3.043486,0.413957 5.564618,-0.218316 z m 10.027719,-0.756557 c 0.864623,-1.774574 1.171797,-2.204861 1.574013,-2.204861 0.643206,0 0.599056,0.210224 -0.29936,1.425395 -0.677333,0.916143 -1.623003,1.49443 -1.274653,0.779466 z M 46.39303,79.156657 c -0.994224,-0.720637 -1.812356,-1.508686 -1.818071,-1.751221 -0.01548,-0.656865 0.486372,-0.536504 1.470921,0.352778 0.483331,0.436562 1.331638,1.122175 1.885127,1.523587 0.58336,0.423076 0.851532,0.825518 0.638024,0.957474 -0.202577,0.125198 -1.181777,-0.361978 -2.176001,-1.082618 z m 18.632649,-1.82439 c 0,-0.185763 1.112866,-1.225688 2.473033,-2.310945 1.36017,-1.085254 2.727801,-2.362017 3.039184,-2.837247 0.526612,-0.803709 1.543957,-1.198997 1.542852,-0.599472 -7.05e-4,0.456872 -2.596709,3.144485 -3.70368,3.834581 -0.582083,0.362875 -1.347667,1.017761 -1.701299,1.455304 -0.649319,0.803391 -1.65009,1.081031 -1.65009,0.457779 z M 51.443735,72.378353 c -0.36919,-0.597362 0.168611,-1.058334 1.234722,-1.058334 1.15571,0 1.742782,0.631617 1.015337,1.092373 -0.660803,0.418546 -1.982706,0.398547 -2.250059,-0.03404 z m 4.056944,-2.293056 c 0,-0.291041 0.15875,-0.529166 0.352778,-0.529166 0.194028,0 0.352778,0.238125 0.352778,0.529166 0,0.291042 -0.15875,0.529167 -0.352778,0.529167 -0.194028,0 -0.352778,-0.238125 -0.352778,-0.529167 z m 2.626836,-0.207126 c -0.130365,-0.210937 -0.06036,-0.560187 0.155568,-0.776111 0.288276,-0.288276 0.392596,-0.186369 0.392596,0.383515 0,0.851785 -0.183254,0.983033 -0.548164,0.392596 z M 43.153457,80.436118 c 0,-0.140257 -0.174427,-0.362818 -0.387615,-0.494573 -0.213188,-0.131759 -0.590685,-0.722524 -0.838883,-1.31281 -0.429938,-1.022522 -0.469421,-1.039336 -0.835286,-0.355709 -0.560436,1.047182 0.216522,2.568441 1.268034,2.482776 0.436562,-0.03557 0.79375,-0.179426 0.79375,-0.319684 z m -1.418187,-0.48157 c -0.245434,-0.29573 -0.357109,-0.626826 -0.248167,-0.735767 0.108943,-0.108945 0.375275,0.133018 0.59185,0.53769 0.462085,0.863413 0.290546,0.962279 -0.343683,0.198077 z m 75.59455,-1.31439 c 0.27329,-0.793817 -0.46313,-2.275893 -1.32627,-2.669169 -0.59591,-0.271512 -0.91155,-0.78032 -1.06967,-1.724318 -0.34848,-2.080447 -0.5364,-2.22577 -0.37885,-0.292968 0.11117,1.363712 0.34586,1.913654 1.0595,2.482698 0.58213,0.464171 0.91671,1.080202 0.91671,1.687841 0,0.975783 0.52376,1.314154 0.79858,0.515916 z M 41.03679,77.450436 c 0,-0.468771 -0.09578,-0.492876 -0.529167,-0.133194 -0.291042,0.241543 -0.529167,0.499106 -0.529167,0.572361 0,0.07326 0.238125,0.133194 0.529167,0.133194 0.291042,0 0.529167,-0.257563 0.529167,-0.572361 z m 55.386112,-0.309583 c 0,-0.291042 -0.141767,-0.529167 -0.315034,-0.529167 -0.17327,0 -0.40641,0.238125 -0.518096,0.529167 -0.123691,0.322336 -7.06e-4,0.529167 0.315034,0.529167 0.284953,0 0.518096,-0.238126 0.518096,-0.529167 z m 0.176389,-2.234258 c 0,-0.638055 -0.690492,-0.521572 -0.82744,0.139587 -0.0762,0.367845 0.05605,0.529117 0.352778,0.430205 0.261062,-0.08702 0.474662,-0.343429 0.474662,-0.569792 z m 0.176389,-2.528242 c 0,-0.391975 -0.235186,-0.705556 -0.529166,-0.705556 -0.293981,0 -0.529167,0.313581 -0.529167,0.705556 0,0.391975 0.235186,0.705555 0.529167,0.705555 0.29398,0 0.529166,-0.31358 0.529166,-0.705555 z m 18.19455,-2.273004 c 0.24073,-0.959118 -0.0744,-1.728569 -0.58003,-1.416096 -0.4384,0.270944 -0.42285,2.277989 0.0176,2.277989 0.19033,0 0.4434,-0.387851 0.56237,-0.861893 z M 96.77568,69.390812 c 0,-0.629172 -0.146865,-0.814515 -0.529166,-0.667812 -0.291042,0.111686 -0.529167,0.503576 -0.529167,0.870874 0,0.367295 0.238125,0.667812 0.529167,0.667812 0.327466,0 0.529166,-0.33195 0.529166,-0.870874 z m 0,-1.951348 c 0,-0.194028 -0.238125,-0.352778 -0.529166,-0.352778 -0.291042,0 -0.529167,0.15875 -0.529167,0.352778 0,0.194028 0.238125,0.352778 0.529167,0.352778 0.291041,0 0.529166,-0.15875 0.529166,-0.352778 z m 20.63751,-0.352778 c 0.13891,-0.224762 -0.88523,-0.352778 -2.82223,-0.352778 -1.937,0 -2.96113,0.128016 -2.82222,0.352778 0.11992,0.194028 1.38992,0.352778 2.82222,0.352778 1.43231,0 2.70231,-0.15875 2.82223,-0.352778 z M 43.858248,63.186474 c 4.23e-4,-0.107827 -0.408652,-0.742827 -0.90905,-1.411111 -0.500398,-0.668285 -1.330473,-2.008816 -1.844612,-2.978955 -0.877604,-1.65597 -0.93645,-2.066057 -0.961833,-6.702778 -0.02541,-4.641278 -0.08963,-5.087694 -1.065805,-7.408333 -0.571323,-1.358194 -1.157832,-2.522361 -1.303353,-2.587036 -0.382842,-0.170152 -0.325877,-1.469908 0.06442,-1.469908 0.180953,0 0.439244,-0.347335 0.573981,-0.771854 0.180074,-0.567361 0.03294,-0.94355 -0.555369,-1.41993 -1.014424,-0.821429 -0.63488,-1.256178 0.54527,-0.624583 0.775857,0.415227 0.96911,0.400005 1.486175,-0.117062 0.557282,-0.557279 0.495028,-0.594349 -0.998189,-0.594349 -0.875897,0 -1.780394,0.187854 -2.009993,0.417452 -0.2296,0.229602 -0.534565,0.300345 -0.677701,0.157209 -0.143135,-0.143136 -0.02672,-0.407935 0.258704,-0.588441 0.415155,-0.262551 0.369012,-0.329275 -0.230702,-0.333597 -0.537803,-0.0039 -0.804194,0.268757 -0.94265,0.964738 -0.181106,0.910371 0.190233,5.686517 0.671987,8.643055 0.24319,1.492466 -0.376713,1.85335 -0.908969,0.529167 -0.373383,-0.928924 -0.36217,-0.95407 -0.589915,1.322917 -0.162408,1.623762 -0.134699,1.707882 0.348794,1.058887 0.28887,-0.387749 0.62308,-0.607138 0.742689,-0.487528 0.342341,0.342339 -0.408943,3.202689 -0.927566,3.53151 -0.352385,0.223418 -0.358756,0.297374 -0.02597,0.301452 0.242534,0.0028 0.440972,0.252896 0.440972,0.555389 0,0.330083 0.165023,0.447996 0.412728,0.294904 0.276913,-0.171139 0.339135,-0.0633 0.189085,0.327727 -0.137891,0.35934 -0.05943,0.550612 0.204633,0.498842 0.28392,-0.05566 0.389976,0.309704 0.314648,1.08397 -0.06249,0.642362 0.04264,1.356737 0.233643,1.5875 0.190999,0.230762 0.529717,1.427127 0.752706,2.658583 0.704395,3.89002 0.569489,3.758208 3.846414,3.758208 1.575233,0 2.864403,-0.08822 2.864823,-0.196045 z m -7.094412,-8.799788 c -0.02773,-0.09701 -0.08954,-0.493889 -0.137338,-0.881944 -0.630566,-5.118901 -0.627658,-4.961132 -0.08129,-4.409723 0.637922,0.643809 1.075398,4.204642 0.606781,4.938889 -0.185751,0.291042 -0.360421,0.449792 -0.388153,0.352778 z m 13.797954,7.504525 c 0.48507,-0.720555 1.675695,-2.130044 2.645834,-3.132197 0.970138,-1.002154 2.240138,-2.490689 2.822222,-3.307856 0.582083,-0.817171 1.415521,-1.970074 1.852083,-2.56201 0.526528,-0.71392 0.79375,-1.575403 0.79375,-2.558934 0,-0.815477 0.145821,-1.942938 0.324048,-2.50547 0.178223,-0.562529 0.592236,-1.920988 0.920027,-3.018797 L 60.515736,42.80993 59.370891,40.484419 58.226046,38.158908 56.246,38.097678 c -4.468364,-0.138173 -5.354074,-0.17828 -9.917543,-0.449118 -4.591335,-0.272489 -4.786654,-0.255718 -5.434538,0.466626 -0.36962,0.412101 -0.885558,0.749276 -1.146528,0.749276 -0.968321,0 -0.558111,3.103499 0.777149,5.879616 l 1.251639,2.602266 -0.433615,3.474473 c -0.428664,3.434803 -0.422393,3.505242 0.549187,6.169145 0.54054,1.482069 1.18365,2.81232 1.429132,2.956112 0.245482,0.143795 0.787712,0.936131 1.204955,1.760749 l 0.758625,1.499305 2.197691,-0.0025 c 2.141208,-0.0025 2.220359,-0.03608 3.079636,-1.31251 z m 12.916655,0.963966 5.331933,-0.0018 0.556324,-1.499306 c 0.995944,-2.684099 0.951216,-2.896376 -0.636856,-3.022378 -0.961781,-0.07631 -1.635778,-0.37973 -2.116667,-0.952881 -0.734299,-0.875181 -3.309256,-1.684845 -6.799865,-2.138136 -1.520113,-0.197401 -1.988581,-0.126185 -2.557639,0.388803 -0.383163,0.346759 -0.696663,0.837484 -0.696663,1.090496 0,0.253012 -1.047199,1.538097 -2.327112,2.85574 -3.701355,3.810473 -3.704395,3.785796 0.432653,3.511867 1.915076,-0.126806 5.881328,-0.231376 8.813892,-0.232381 z m 12.85384,-0.930364 c 0.194165,-0.510698 0.264333,-1.207999 0.155924,-1.549562 -0.257813,-0.812306 -1.940521,-1.49232 -3.331682,-1.346394 -0.656298,0.06884 -1.223201,-0.07735 -1.398246,-0.360578 -0.370071,-0.598787 -0.575962,-0.244803 -0.895283,1.53924 -0.138917,0.776111 -0.501872,1.688924 -0.806566,2.028473 -0.523484,0.58336 -0.375645,0.617361 2.684413,0.617361 3.173035,0 3.245534,-0.01873 3.59144,-0.92854 z m 10.046872,0.388246 c 4.650934,-0.133106 8.481776,-0.264431 8.512983,-0.291831 0.03118,-0.02741 0.15622,-4.49482 0.277816,-9.927598 0.121592,-5.432777 0.301667,-10.393577 0.400163,-11.023998 0.174131,-1.114524 0.154541,-1.135042 -0.70841,-0.741853 -0.761464,0.346946 -0.976641,0.297413 -1.515233,-0.348795 -0.52129,-0.625443 -1.093523,-0.774598 -3.374496,-0.87956 -1.510715,-0.06952 -2.825796,0.0014 -2.922405,0.157812 -0.09661,0.156312 0.385368,0.905192 1.071059,1.664169 1.697411,1.878831 1.677426,3.113719 -0.0762,4.708444 -0.727604,0.66167 -1.91546,2.395672 -2.639677,3.853332 -1.036303,2.085802 -1.579083,2.775384 -2.548375,3.237607 -0.844388,0.402661 -1.29479,0.89552 -1.432546,1.567579 -0.33419,1.630422 -0.996852,2.658283 -2.110652,3.273845 -0.607826,0.335929 -1.182931,1.02344 -1.351044,1.615108 -0.16099,0.566611 -0.433793,1.490024 -0.606231,2.052034 -0.313997,1.023391 -0.154157,1.771417 0.316378,1.480612 0.137845,-0.0852 4.055939,-0.263804 8.706874,-0.396907 z M 97.128458,61.05172 c 0,-0.769655 -0.165802,-1.02059 -0.674342,-1.02059 -0.74337,0 -0.8038,1.094786 -0.07386,1.338101 0.327664,0.10922 0.329371,0.256695 0.0075,0.64456 -0.337732,0.406943 -0.306874,0.460523 0.161668,0.280726 0.352248,-0.13517 0.579056,-0.621954 0.579056,-1.242797 z m 0,-2.784478 c 0,-0.346538 -0.238125,-0.721445 -0.529167,-0.833131 -0.396353,-0.152093 -0.529166,0.05701 -0.529166,0.833131 0,0.776121 0.132813,0.985223 0.529166,0.83313 0.291042,-0.111686 0.529167,-0.486593 0.529167,-0.83313 z M 74.600629,56.429947 c -0.408989,-0.638726 -0.746294,-0.918828 -0.749561,-0.622452 -0.0071,0.645746 1.04659,2.230363 1.308767,1.968182 0.101427,-0.101427 -0.150213,-0.707005 -0.559206,-1.34573 z m 2.566445,0.653065 c -0.12234,-0.318812 -0.369789,-0.579659 -0.549882,-0.579659 -0.18021,0 -0.150386,0.330838 0.06633,0.735771 0.449206,0.839346 0.819658,0.719751 0.483556,-0.156112 z m -4.380283,0.0827 c 0,-0.273583 0.163562,-0.26023 0.529166,0.04319 0.600234,0.498151 0.695689,0.08881 0.164532,-0.705555 -0.308176,-0.460887 -0.401313,-0.44855 -0.721836,0.09561 -0.202403,0.34363 -0.516996,0.532698 -0.6991,0.420155 -0.182103,-0.112547 -0.331096,-0.03651 -0.331096,0.168966 0,0.205479 0.238125,0.373599 0.529167,0.373599 0.291042,0 0.529167,-0.178188 0.529167,-0.395972 z m 3.030932,-0.59986 c -0.283231,-0.547708 -0.794032,-1.222396 -1.135112,-1.499305 -0.542219,-0.440207 -0.581233,-0.436979 -0.310472,0.02568 0.482614,0.824685 1.709099,2.469444 1.841443,2.469444 0.06551,0 -0.112627,-0.448123 -0.395859,-0.995831 z m -6.205932,0.311097 c 0,-0.591407 -0.625666,-0.737848 -0.833907,-0.195185 -0.122873,0.320203 0.0011,0.527142 0.31581,0.527142 0.284953,0 0.518097,-0.14938 0.518097,-0.331957 z m 1.900047,-0.925138 c 0.117348,-0.305802 -0.180199,-1.128198 -0.667812,-1.845783 -0.483701,-0.711831 -0.879458,-1.120045 -0.879458,-0.907143 0,0.212901 0.335598,0.813738 0.745773,1.33519 0.410178,0.521454 0.671886,1.02199 0.581575,1.112301 -0.09031,0.09031 -0.608242,-0.476554 -1.150959,-1.259692 -1.319554,-1.904118 -1.520236,-1.559779 -0.283876,0.487098 1.06197,1.758167 1.327407,1.931091 1.654757,1.078029 z m 25.61662,-0.368148 c 0,-0.270281 -0.238125,-0.491423 -0.529167,-0.491423 -0.291168,0 -0.529166,0.312349 -0.529166,0.694485 0,0.47238 0.169231,0.629542 0.529166,0.491423 0.291042,-0.111686 0.529167,-0.424201 0.529167,-0.694485 z m -28.927779,0.222761 c 0,-0.124605 -0.233076,-0.534709 -0.517948,-0.911341 -0.701968,-0.928085 -0.675037,-1.41163 0.04546,-0.816176 0.534956,0.442111 0.543775,0.416616 0.101547,-0.29354 -0.266361,-0.427739 -0.555071,-0.706928 -0.641579,-0.620423 -0.0865,0.08651 -0.370329,-0.01954 -0.630714,-0.235627 -0.701174,-0.581925 -0.559414,0.09267 0.232124,1.104589 0.855688,1.093932 0.978553,2.076845 0.176389,1.411111 -0.291041,-0.241543 -0.529166,-0.648486 -0.529166,-0.904321 0,-0.255831 -0.15875,-0.563262 -0.352778,-0.683179 -0.585449,-0.361826 -0.397253,0.377476 0.332133,1.304738 0.61891,0.786818 1.784533,1.207576 1.784532,0.644169 z m 11.287136,-1.507932 c -0.0011,-0.242535 -0.40912,-0.917223 -0.907016,-1.499306 l -0.905263,-1.058333 0.795588,1.499305 c 0.841548,1.585913 1.019524,1.771181 1.016691,1.058334 z m -4.23158,-0.06737 c 0,-0.08556 -0.15875,-0.253682 -0.352778,-0.373599 -0.194027,-0.119916 -0.352777,-0.04991 -0.352777,0.155568 0,0.205479 0.15875,0.373599 0.352777,0.373599 0.194028,0 0.352778,-0.07001 0.352778,-0.155568 z m 21.90162,-0.167817 c 0.221086,-1.54759 0.160648,-1.793286 -0.441131,-1.793286 -0.474807,0 -0.646599,0.265564 -0.646599,0.999536 0,0.653295 0.183307,0.99954 0.529166,0.99954 0.291042,0 0.542396,-0.09261 0.558564,-0.20579 z M 72.417842,53.298137 c -0.216574,-0.404671 -0.482907,-0.646634 -0.591849,-0.53769 -0.108944,0.108942 0.0028,0.440038 0.248165,0.735768 0.634231,0.764201 0.80577,0.665335 0.343684,-0.198078 z m 2.279501,-2.134549 c -0.165519,-0.267815 -0.348477,-0.209133 -0.567351,0.181977 -0.17768,0.317497 -0.21312,0.755142 -0.07875,0.972552 0.16552,0.267815 0.348477,0.209134 0.567351,-0.181977 0.17768,-0.317496 0.21312,-0.755142 0.07875,-0.972552 z m -6.431989,-0.733894 c -0.253139,-0.253139 -0.417452,-0.273967 -0.417452,-0.05292 0,0.200498 0.105833,0.470373 0.235186,0.599723 0.12935,0.129353 0.317204,0.153165 0.417453,0.05292 0.100248,-0.100245 -0.0056,-0.37012 -0.235187,-0.599723 z m 28.686715,0.429214 C 96.832153,50.66488 96.584658,50.50613 96.402082,50.50613 c -0.182577,0 -0.331957,0.15875 -0.331957,0.352778 0,0.194028 0.247494,0.352778 0.549987,0.352778 0.302493,0 0.451873,-0.15875 0.331957,-0.352778 z M 77.72568,49.800575 c -0.207681,-0.388056 -0.555371,-0.705556 -0.772644,-0.705556 -0.217272,0 -0.10771,0.3175 0.243477,0.705556 0.351187,0.388055 0.698874,0.705555 0.772643,0.705555 0.07377,0 -0.0358,-0.3175 -0.243476,-0.705555 z m -7.639375,-0.191604 c -0.114896,-0.29941 -0.284561,-0.468722 -0.377031,-0.376248 -0.09247,0.09247 -0.06349,0.337446 0.0644,0.544382 0.347857,0.562842 0.551173,0.453499 0.312631,-0.168134 z m -6.995778,-0.954924 -0.218806,-0.79375 0.714346,0.82066 c 0.392889,0.451365 0.877532,0.719808 1.076978,0.596544 0.510297,-0.315384 0.452452,-0.906001 -0.07834,-0.799843 -0.242535,0.04851 -0.433874,-0.14993 -0.425203,-0.440972 0.0087,-0.291042 -0.348513,-0.9115 -0.79375,-1.3788 -0.612292,-0.642631 -0.809519,-0.714255 -0.809519,-0.293981 0,0.305608 -0.165294,0.61075 -0.367319,0.678092 -0.230759,0.07692 -0.155579,0.546883 0.202226,1.264119 0.659014,1.321023 1.016681,1.498957 0.699385,0.347931 z m 4.404597,0.309016 c 0,-0.07257 -0.410446,-0.866324 -0.912104,-1.763889 -0.91477,-1.636702 -1.557341,-2.091711 -1.557341,-1.102766 0,0.291042 0.122651,0.529167 0.272557,0.529167 0.149902,0 0.571778,0.555625 0.937496,1.234722 0.548809,1.01908 1.259392,1.641288 1.259392,1.102766 z m 10.936111,-0.573599 c 0,-0.194028 -0.168119,-0.352778 -0.373598,-0.352778 -0.205479,0 -0.275485,0.15875 -0.155568,0.352778 0.119916,0.194027 0.288036,0.352777 0.373598,0.352777 0.08556,0 0.155568,-0.15875 0.155568,-0.352777 z m -8.477472,-1.940278 c 0,-0.194028 -0.13777,-0.135294 -0.306158,0.130521 -0.247139,0.39013 -0.37701,0.356693 -0.673693,-0.173451 -0.202145,-0.361212 -0.470186,-0.554101 -0.595644,-0.428639 -0.125462,0.125459 0.05378,0.557333 0.398314,0.959722 0.610345,0.712829 1.177181,0.477774 1.177181,-0.488153 z M 82.48818,44.508908 c -1.286958,-1.857082 -1.630031,-1.514009 -0.377977,0.377977 0.527999,0.79786 1.051063,1.359584 1.162364,1.248283 0.111305,-0.111302 -0.24167,-0.843121 -0.784387,-1.62626 z m 14.43723,0.0021 c -0.04934,-0.774859 0.05554,-1.498604 0.233059,-1.608318 0.177521,-0.109717 0.322767,-0.836753 0.322767,-1.615641 0,-1.158377 -0.112378,-1.394731 -0.617361,-1.298451 -0.503993,0.09609 -0.63674,0.564091 -0.722888,2.548505 -0.109005,2.51096 0.03711,3.382744 0.566953,3.382744 0.168949,0 0.266813,-0.633977 0.21747,-1.408839 z m -28.886613,0.373976 c -0.127896,-0.206781 -0.401355,-0.376093 -0.607688,-0.376093 -0.233927,0 -0.207162,0.202417 0.07109,0.537693 0.483848,0.583001 0.91628,0.452897 0.536596,-0.161445 z m -3.189507,-0.02331 c 0.119917,-0.194028 0.04991,-0.352778 -0.155567,-0.352778 -0.205479,0 -0.373599,0.15875 -0.373599,0.352778 0,0.194028 0.07001,0.352778 0.155568,0.352778 0.08556,0 0.253682,-0.15875 0.373598,-0.352778 z m 10.018861,-0.418747 c -0.482642,-0.901827 -1.728582,-2.297183 -1.728582,-1.935883 0,0.136324 0.357187,0.799293 0.79375,1.473268 0.868778,1.341239 1.598256,1.70223 0.934832,0.462615 z m -3.87447,-0.498405 c -0.292689,-0.352672 -0.576696,-0.383307 -1.076036,-0.116067 -0.911694,0.487923 -0.542036,0.980528 0.575494,0.766896 0.70981,-0.135685 0.81479,-0.272185 0.500542,-0.650829 z m 8.319499,-0.493959 c 0.119916,-0.194028 0.04991,-0.352778 -0.155568,-0.352778 -0.205479,0 -0.373599,0.15875 -0.373599,0.352778 0,0.194028 0.07,0.352778 0.155568,0.352778 0.08556,0 0.253683,-0.15875 0.373599,-0.352778 z m -2.998611,-0.335248 c 0,-0.184387 -0.208019,-0.462199 -0.462266,-0.617362 -0.254244,-0.155162 -0.730494,-0.674624 -1.058334,-1.154359 -0.327836,-0.479732 -0.596067,-0.671742 -0.596067,-0.426685 0,0.245057 0.347355,0.915377 0.771899,1.489604 0.769849,1.041277 1.344768,1.344306 1.344768,0.708802 z m 7.279732,-1.581609 c -0.52722,-0.804637 -1.988066,-1.876884 -1.988066,-1.45922 0,0.09709 0.497378,0.743007 1.105281,1.435372 1.221042,1.390689 1.788418,1.406017 0.882785,0.02385 z M 81.744394,41.14867 c -0.321014,-0.489931 -0.718792,-1.402743 -0.883948,-2.028472 -0.287405,-1.088888 -0.293632,-1.079066 -0.145105,0.228981 0.08535,0.751667 0.424695,1.66448 0.754101,2.028472 0.83952,0.927658 0.964572,0.82351 0.274952,-0.228981 z m -9.772351,-0.427925 c -0.542798,-0.542798 -0.596363,-0.544682 -0.596363,-0.021 0,0.316448 0.198437,0.646236 0.440972,0.732853 0.720795,0.257429 0.793161,-0.07408 0.155391,-0.711856 z M 85.482759,40.34382 c -0.415103,-0.738579 -1.051028,-1.527906 -1.413168,-1.754064 -0.381074,-0.237988 -0.109813,0.327518 0.643968,1.342485 0.716318,0.964526 1.352243,1.753856 1.413164,1.754064 0.06092,2.08e-4 -0.228861,-0.60391 -0.643964,-1.342485 z M 61.435403,39.201127 c -0.09042,-0.924236 -0.28056,-1.176031 -0.922577,-1.221726 -1.094892,-0.07793 -1.318556,0.409543 -0.439723,0.958384 0.407091,0.254233 0.719243,0.825733 0.719243,1.316817 0,0.6177 0.109026,0.758613 0.378474,0.489165 0.208164,-0.208163 0.327226,-0.902349 0.264583,-1.54264 z m 4.18404,1.008302 c -0.112614,-0.281421 -0.196208,-0.197831 -0.213134,0.213138 -0.01531,0.371884 0.06806,0.580245 0.185286,0.463021 0.117224,-0.117229 0.129755,-0.421499 0.02783,-0.676159 z m 7.53181,-1.106981 -0.797469,-0.767151 0.392892,0.770558 c 0.486728,0.954592 0.499767,1.277409 0.04012,0.993331 -0.194028,-0.119916 -0.352778,-0.07637 -0.352778,0.09677 0,0.638235 0.45169,0.736653 0.975737,0.212605 0.483437,-0.483436 0.456805,-0.618003 -0.258497,-1.306117 z m 2.579497,0.981523 c -0.114897,-0.29941 -0.284562,-0.468722 -0.377032,-0.376249 -0.09247,0.09247 -0.06349,0.337447 0.0644,0.544382 0.347856,0.562843 0.551173,0.4535 0.312632,-0.168133 z m 11.167152,0.42267 c 0,-0.06694 -0.3175,-0.409046 -0.705555,-0.760233 -0.831346,-0.752359 -0.957591,-0.478822 -0.15119,0.327579 0.529621,0.529622 0.856745,0.694817 0.856745,0.432654 z m -8.113889,-0.936622 c 0,-0.194028 -0.16812,-0.352778 -0.373599,-0.352778 -0.205479,0 -0.275484,0.15875 -0.155568,0.352778 0.119917,0.194028 0.288036,0.352778 0.373599,0.352778 0.08556,0 0.155568,-0.15875 0.155568,-0.352778 z m 20.637501,-0.352778 c 0.129959,-0.21028 -0.253499,-0.338575 -0.949318,-0.317612 -1.097524,0.03305 -1.114595,0.05206 -0.285405,0.317612 0.48507,0.155346 0.912263,0.298274 0.949318,0.317613 0.03706,0.01933 0.165488,-0.123585 0.285405,-0.317613 z M 67.784211,38.53679 c 2.361227,-0.930709 6.491447,-1.853555 9.147719,-2.043942 1.212673,-0.08692 2.204861,-0.312603 2.204861,-0.501527 0,-0.188923 -0.15875,-0.245385 -0.352778,-0.125469 -0.877471,0.542308 -0.903111,-0.277784 -0.03592,-1.149028 1.260073,-1.265968 3.284527,-4.785502 3.904763,-6.788472 0.270372,-0.873125 0.627228,-1.769131 0.793013,-1.99112 0.165788,-0.221992 0.402106,-1.253867 0.525152,-2.293055 0.209694,-1.770998 1.894505,-4.885584 3.070599,-5.676396 0.717522,-0.482466 -0.162652,-0.273717 -0.949876,0.225281 -0.429736,0.272397 -1.459466,0.604431 -2.288289,0.737855 -1.175022,0.189156 -1.621822,0.464729 -2.028472,1.251106 -0.286837,0.554683 -0.521522,1.350881 -0.521522,1.769332 0,0.538067 -0.15807,0.700162 -0.539899,0.553639 -0.352347,-0.135209 -0.678388,0.09678 -0.938568,0.667812 -0.448169,0.983622 -0.990978,1.160342 -0.990978,0.322633 0,-0.963525 0.688375,-1.901536 1.240102,-1.689817 0.384627,0.147596 0.523787,-0.05571 0.523787,-0.765231 0,-1.56089 1.952713,-3.113694 4.798822,-3.816043 3.497411,-0.863071 3.772712,-1.429921 0.57246,-1.178712 -2.507464,0.196825 -3.208659,-0.18609 -1.163373,-0.63531 0.563647,-0.123797 1.11179,-0.451736 1.218089,-0.728751 0.151362,-0.394441 0.400205,-0.424988 1.147498,-0.140868 1.079471,0.410415 3.733101,-0.33685 5.597338,-1.576211 2.070816,-1.376701 4.056944,-3.9064863 4.056944,-5.1674433 0,-0.181396 -0.401856,-0.329812 -0.893014,-0.329812 -0.966382,0 -1.540863,-0.882234 -0.955591,-1.467505 0.247142,-0.247144 0.619866,-0.223605 1.176507,0.0743 0.517578,0.277 0.858009,0.306307 0.933327,0.08035 0.06521,-0.195634 0.881133,-1.528087 1.813154,-2.961005 l 1.694584,-2.60530665 -0.914345,-0.387006 c -0.502892,-0.2128534 -1.13146,-0.79293999 -1.396823,-1.28908135 l -0.482477,-0.9020757 -1.906648,1.90664885 c -1.048656,1.048657 -2.567897,2.34311885 -3.37609,2.87658185 -1.42566,0.941034 -4.507689,3.981597 -4.864809,4.799359 -0.09701,0.222148 -0.475686,0.845392 -0.841492,1.384986 -0.365806,0.539594 -0.720615,1.6358413 -0.788462,2.4361063 -0.150967,1.780629 -0.857493,3.461982 -1.454774,3.461982 -0.585837,0 -0.559336,-0.28689 0.08612,-0.932343 0.291041,-0.291041 0.523067,-0.875012 0.515613,-1.297717 -0.02078,-1.179033 -3.01152,2.333727 -3.775841,4.434921 -0.335252,0.921632 -0.731033,1.675694 -0.879521,1.675694 -0.803123,0 0.504063,-2.872722 2.412563,-5.301936 1.855904,-2.362271 1.959239,-2.806615 0.37097,-1.595183 -0.648906,0.494943 -1.343843,0.899897 -1.544306,0.899897 -0.200462,0 -0.582351,0.277812 -0.848646,0.617361 -0.438809,0.559527 -0.426331,0.572004 0.133195,0.133195 0.535517,-0.419982 0.617361,-0.404989 0.617361,0.113097 0,0.852935 -2.376731,3.55122 -5.298648,6.015514 -1.380352,1.164166 -3.091811,2.910416 -3.803241,3.880555 -1.66479,2.270189 -3.950889,6.130417 -3.950889,6.671342 0,0.23072 -0.134302,0.570304 -0.298446,0.75463 -0.257913,0.28962 -2.667621,6.729706 -2.699403,7.214306 -0.0063,0.09701 -0.137566,0.374826 -0.291567,0.617361 -0.40778,0.642207 0.502846,0.555678 2.52017,-0.239479 z m 9.073706,-8.468823 c -0.431327,-0.697903 0.984575,-5.314615 1.629946,-5.314615 0.385946,0 0.375469,0.703863 -0.02942,1.975831 -0.179063,0.562529 -0.424382,1.618093 -0.545155,2.345697 -0.212312,1.279105 -0.633603,1.675529 -1.055377,0.993087 z M 97.128458,2.5830287 c 0,-0.341499 1.171303,-1.465788 1.527083,-1.465788 0.420127,0 0.252145,0.639821 -0.31756,1.209524 -0.602608,0.602607 -1.209523,0.731196 -1.209523,0.256264 z M 95.459477,38.98584 c -0.238841,-0.09663 -0.715091,-0.102513 -1.058333,-0.01309 -0.343243,0.08944 -0.147825,0.168508 0.434258,0.175698 0.582084,0.0072 0.862916,-0.06599 0.624075,-0.162627 z m 1.573438,0.01827 c -0.117228,-0.117224 -0.421499,-0.129755 -0.676158,-0.02783 -0.281422,0.112614 -0.197831,0.196208 0.213137,0.213134 0.371885,0.01531 0.580246,-0.06806 0.463021,-0.185286 z M 86.545124,38.716928 c 0,-0.08115 0.106352,-0.424688 0.23634,-0.763428 0.161132,-0.419905 0.105005,-0.53472 -0.176389,-0.360811 -0.247706,0.153092 -0.412728,0.03518 -0.412728,-0.294904 0,-0.302493 0.12265,-0.549988 0.272556,-0.549988 0.308518,0 1.328494,-1.888395 1.667273,-3.086806 0.123409,-0.436562 0.351515,-0.79375 0.5069,-0.79375 0.410284,0 1.289269,-3.567271 1.781972,-7.231944 0.53008,-3.942708 0.798245,-4.659309 2.944784,-7.869245 0.94802,-1.417669 1.666498,-2.613554 1.59662,-2.657517 -1.208927,-0.760649 -2.130323,-1.016632 -2.462745,-0.684209 -0.273029,0.273029 -0.170928,0.447887 0.359907,0.616366 0.407585,0.129364 0.741066,0.383258 0.741066,0.564212 0,0.50534 -0.946566,0.390373 -1.52177,-0.184831 -1.17897,-1.178969 -5.829181,3.684937 -6.392168,6.685911 -0.240983,1.28456 -1.209135,4.198822 -2.635822,7.934177 -0.406569,1.064479 -1.21545,2.598558 -1.797508,3.409058 -0.582059,0.810503 -1.04678,1.685816 -1.032711,1.945139 0.03104,0.572096 6.324423,3.878365 6.324423,3.32257 z M 82.78741,33.575947 c 0.126467,-0.632322 0.229937,-1.367959 0.229937,-1.634747 0,-0.266789 0.167876,-0.48507 0.373062,-0.48507 0.56715,0 0.249837,2.912908 -0.338416,3.106635 -0.385311,0.126895 -0.443742,-0.09102 -0.264583,-0.986818 z m 9.000268,-16.906116 c -0.458058,-0.371355 -0.728522,-0.779936 -0.601032,-0.907959 0.341292,-0.342716 2.473414,0.848889 2.22836,1.245394 -0.307544,0.497614 -0.696891,0.416881 -1.627328,-0.337435 z m 19.275512,20.077966 v -1.234722 l -11.145276,-0.09307 -11.145262,-0.09308 -0.552585,1.406744 -0.552587,1.406744 4.995072,0.09744 c 2.747289,0.05359 8.011328,0.01807 11.697848,-0.07895 l 6.70279,-0.176389 z m -32.15744,0.866729 c -0.114897,-0.299409 -0.284561,-0.468722 -0.377032,-0.376248 -0.09247,0.09247 -0.06349,0.337446 0.0644,0.544382 0.347857,0.562843 0.551173,0.453499 0.312632,-0.168134 z M 38.204724,32.326214 c -0.236129,-0.284519 -0.6877,-0.504772 -1.003491,-0.489454 -0.365591,0.01774 -0.413975,0.09249 -0.133193,0.205786 0.242534,0.09786 0.440972,0.389604 0.440972,0.648306 0,0.545624 0.823263,0.92661 1.003491,0.46439 0.06685,-0.171446 -0.07165,-0.544509 -0.307779,-0.829028 z m 1.420955,0.608454 c 0,-0.156944 -0.240705,-0.593507 -0.5349,-0.970139 -0.496006,-0.634997 -0.504714,-0.614246 -0.119763,0.285351 0.415362,0.970665 0.654663,1.220978 0.654663,0.684788 z m -3.372157,-0.585375 c -0.376634,-0.284868 -1.002288,-0.51737 -1.390343,-0.516664 -0.623683,0.0011 -0.603214,0.05978 0.176388,0.505446 1.207635,0.690347 2.123026,0.698807 1.213955,0.01122 z M 98.467497,13.357127 c 1.137292,-1.089596 2.541513,-3.5392823 2.541513,-4.4337053 0,-0.883012 1.75186,-6.082226 2.32519,-6.900774 0.6476,-0.9245794 0.62912,-1.48479225 -0.0577,-1.74834295 -0.71095,-0.2728165 -1.91472,0.3648092 -1.91472,1.01420745 0,0.2745738 -0.19895,0.6261755 -0.44211,0.7813375 -0.81217,0.518246 -2.740276,4.032569 -3.104763,5.658968 -0.396839,1.770779 -1.386561,3.3512033 -2.901389,4.6330383 -0.902677,0.763838 -0.941938,0.890701 -0.445435,1.439334 0.836338,0.92414 2.798728,0.70625 3.9994,-0.444063 z m 2.460453,-15.6293709 c -0.80015,-1.4773208 -0.960777,-2.0471232 -0.63402,-2.2490712 0.2871,-0.1774409 0.31207,-0.3480717 0.0726,-0.4960807 -0.20077,-0.1240847 -0.458347,0.068366 -0.572386,0.4276683 -0.23677,0.7459941 1.064566,3.94307936 1.604986,3.94307936 0.1964,0 0.24382,0.18327829 0.10537,0.40728479 -0.1478,0.23915789525 -0.0976,0.3120178 0.1217,0.1765018 0.23895,-0.1476795 -0.0125,-0.94326535 -0.69824,-2.20938235 z m 3.32074,1.54916046 c -0.57023,-0.57022816 -0.52656,-1.09925306 0.0718,-0.86964656 0.3441,0.1320433 0.43614,-0.0153 0.31026,-0.4966663 -0.13204,-0.5049284 -0.0384,-0.6304672 0.35702,-0.4787227 0.2948,0.1131253 0.6408,0.03611 0.7689,-0.1711455 0.14199,-0.2297547 -0.11945,-0.3768281 -0.66988,-0.3768281 -0.49652,0 -0.90276,0.1700894 -0.90276,0.3779764 0,0.2078866 -0.24565,0.62363 -0.5459,0.9238735 -0.49268,0.4926781 -0.48716,0.6108051 0.0566,1.21168646 0.33139,0.36618409 0.68552,0.58279529 0.78696,0.48135789 0.10144,-0.101437 -0.004,-0.37228529 -0.23302,-0.60188509 z m -3.94523,-0.1348331 c 0,-0.50905826 -1.168349,-2.61095376 -1.451309,-2.61095376 -0.496224,0 -0.36389,1.0048522 0.257158,1.9526895 0.522277,0.79709366 1.194151,1.16745775 1.194151,0.65826426 z m 2.16686,-1.78285066 c -0.19331,-0.358443 -0.44617,-0.9522485 -0.56191,-1.3195677 -0.11575,-0.3673197 -0.29539,-0.5829156 -0.3992,-0.4791026 -0.10381,0.1038133 0.0608,0.7859092 0.36571,1.5157693 0.30496,0.7298599 0.64276,1.2387274 0.75067,1.1308165 0.10791,-0.1079108 0.038,-0.4894728 -0.15527,-0.8479155 z m 0.34227,-1.2823045 c -0.2881,-0.288102 -0.39246,-0.2486237 -0.39246,0.1484605 0,0.7012718 0.47438,1.1756528 0.6497,0.6496992 0.0744,-0.223132 -0.0414,-0.5823038 -0.25724,-0.7981597 z m -0.70147,-1.4037617 c -0.34841,-0.3458165 -0.38893,-0.305295 -0.19748,0.1974832 0.13248,0.3479169 0.32974,0.5437085 0.43835,0.4350925 0.10862,-0.1086157 2.3e-4,-0.3932746 -0.24087,-0.6325757 z m 3.30762,0.4468519 c 0.11991,-0.1940277 0.0593,-0.3527777 -0.13475,-0.3527777 -0.19403,0 -0.45089,0.15875 -0.57081,0.3527777 -0.11992,0.1940278 -0.0593,0.3527778 0.13475,0.3527778 0.19403,0 0.45089,-0.15875 0.57081,-0.3527778 z m -1.32292,-1.0865905 c -0.33955,-0.1977689 -0.61736,-0.7391975 -0.61736,-1.2031747 0,-0.4639772 -0.15875,-0.9417078 -0.35278,-1.0616237 -0.41048,-0.2536931 -0.43485,0.0306 -0.13229,1.5434028 0.16498,0.824901 0.4092,1.0997301 0.97014,1.091703 0.67869,-0.00971 0.69121,-0.044765 0.13229,-0.3703074 z m 4.44567,-1.7389634 c 0.11678,-0.583916 -0.0421,-2.0523535 -0.35296,-3.2631946 -0.39985,-1.557211 -0.50505,-2.987282 -0.35946,-4.886314 0.22414,-2.923718 -0.15296,-4.870315 -1.23967,-6.399243 -0.86581,-1.21814 -1.16724,-1.21814 -1.63,0 -0.74396,1.958381 -0.74527,4.434241 -0.004,7.496528 0.39924,1.649236 0.72032,3.707889 0.71351,4.574785 -0.0223,2.8326993 2.38608,4.9097758 2.87256,2.4774386 z m -3.47036,0.091526 c -0.13569,-0.3395486 -0.44013,-2.0028396 -0.67654,-3.6962026 -0.55053,-3.943407 -1.04561,-4.472344 -0.77191,-0.824703 0.21714,2.8937848 0.81798,5.1382668 1.3755,5.1382668 0.17581,0 0.20864,-0.2778125 0.0729,-0.6173612 z m 6.16844,-1.8869576 c 0,-1.095098 -0.28229,-2.310465 -0.74925,-3.225788 -0.68417,-1.341076 -0.71484,-1.669311 -0.35312,-3.778306 0.43448,-2.533174 0.12571,-4.672225 -0.80943,-5.607357 -0.423,-0.422996 -0.64974,-0.455468 -0.96675,-0.138451 -0.31702,0.317018 -0.26474,0.74551 0.22294,1.826962 0.53655,1.189856 0.59881,1.934216 0.39455,4.716835 -0.20239,2.757265 -0.15214,3.379044 0.30371,3.757364 0.30043,0.249337 0.54624,0.979192 0.54624,1.621901 0,1.4958172 0.59991,3.0853171 1.05768,2.8024003 0.19439,-0.1201403 0.35343,-1.0091421 0.35343,-1.9755603 z"
       style="fill:#000000;stroke-width:0.35277778" />
  </g>
</svg>
