<?xml version="1.0" encoding="UTF-8" standalone="no"?>
<svg
   xmlns:dc="http://purl.org/dc/elements/1.1/"
   xmlns:cc="http://creativecommons.org/ns#"
   xmlns:rdf="http://www.w3.org/1999/02/22-rdf-syntax-ns#"
   xmlns:svg="http://www.w3.org/2000/svg"
   xmlns="http://www.w3.org/2000/svg"
   id="svg22501"
   version="1.1"
   viewBox="0 0 99.500526 41.712711"
   height="41.712711mm"
   width="99.500526mm">
  <defs
     id="defs22495" />
  <metadata
     id="metadata22498">
    <rdf:RDF>
      <cc:Work
         rdf:about="">
        <dc:format>image/svg+xml</dc:format>
        <dc:type
           rdf:resource="http://purl.org/dc/dcmitype/StillImage" />
        <dc:title></dc:title>
      </cc:Work>
    </rdf:RDF>
  </metadata>
  <g
     transform="translate(-14.116583,-86.627899)"
     id="layer1">
    <path
       id="path23172"
       d="m 110.74269,128.23436 c -1.3233,-0.1935 -3.21519,-0.84499 -7.40833,-2.55116 -0.97014,-0.39474 -3.43077,-1.1474 -5.46806,-1.67257 -3.06926,-0.79118 -4.24837,-0.92942 -6.87917,-0.8065 -1.74625,0.0816 -4.92125,0.18218 -7.05555,0.22352 -2.29394,0.0444 -4.31327,0.26658 -4.93889,0.54333 -0.582085,0.25749 -2.010835,0.53565 -3.175002,0.61813 -1.164167,0.0825 -3.307292,0.56946 -4.762501,1.08218 l -2.645833,0.93221 -14.111113,-0.0295 c -22.183693,-0.0464 -21.809439,-0.009 -24.505192,-2.4846 -0.686173,-0.63027 -1.50194,-1.22883 -1.812815,-1.33015 -0.310875,-0.10131 -0.978606,-0.93501 -1.483846,-1.85267 -0.50524,-0.91767 -1.554569,-2.26006 -2.331842,-2.9831 -1.760864,-1.63801 -2.485757,-3.0111 -3.082475,-5.83882 -0.257029,-1.21801 -0.806196,-2.67291 -1.220371,-3.23311 -0.414175,-0.5602 -0.753045,-1.42232 -0.753045,-1.91581 0,-0.4935 -0.297656,-1.16664 -0.661458,-1.49588 -0.363802,-0.32923 -0.661459,-0.78446 -0.661459,-1.01161 0,-0.5559 -1.406332,-1.81117 -2.34866,-2.09636 -0.91481,-0.27687 -1.297423,-1.11309 -0.863814,-1.88791 0.198733,-0.35511 0.14033,-1.150561 -0.157016,-2.138561 -0.460985,-1.53174 -0.449024,-1.59266 0.454464,-2.31467 0.51035,-0.40785 1.176573,-0.83691 1.480496,-0.95348 0.303922,-0.11656 0.57243,-0.39438 0.596683,-0.61736 0.02425,-0.22298 0.06394,-0.5094 0.08819,-0.63648 0.08806,-0.46144 1.455209,1.0617 1.455209,1.62126 0,0.64673 -1.431563,0.82493 -1.833503,0.22822 -0.152738,-0.22675 -0.585737,-0.046 -1.142122,0.47666 -0.701576,0.65909 -0.80822,0.94777 -0.491228,1.32972 0.222691,0.26833 0.617583,0.40625 0.877539,0.3065 0.259956,-0.0998 0.472647,-0.0226 0.472647,0.1714 0,0.19403 -0.242177,0.44571 -0.538171,0.5593 -0.396277,0.15206 -0.438267,0.32689 -0.159258,0.66307 0.225199,0.27135 0.246126,0.53863 0.05159,0.65886 -0.180029,0.11127 -0.413586,0.532161 -0.519017,0.935331 -0.181961,0.69582 -0.09459,0.7209 1.721307,0.49402 1.314791,-0.16428 1.912998,-0.11599 1.912998,0.15441 0,0.21638 -0.396875,0.39342 -0.881945,0.39342 -0.485069,0 -0.881944,0.14889 -0.881944,0.33086 0,0.41513 1.440776,0.36064 2.019679,-0.0764 0.301319,-0.22747 0.558805,-0.0483 0.850376,0.59158 0.230009,0.50481 0.606236,0.91784 0.836061,0.91784 0.585495,0 1.754229,1.36003 1.439336,1.67492 -0.142715,0.14272 -0.414213,-0.017 -0.60333,-0.35494 -0.189116,-0.33793 -0.642762,-0.61442 -1.008101,-0.61442 -0.365339,0 -0.765024,-0.3175 -0.888188,-0.70556 -0.144239,-0.45445 -0.533765,-0.70555 -1.094518,-0.70555 -0.788909,0 -0.832187,0.0745 -0.46131,0.79375 0.574766,1.1147 1.778593,2.38125 2.263334,2.38125 0.407181,0 2.996661,6.08755 2.996661,7.04478 0,0.84539 -0.569402,-0.035 -1.362086,-2.10589 l -0.74267,-1.94028 0.224435,1.94028 c 0.307425,2.65773 1.181495,4.50382 2.923025,6.17361 0.80946,0.77611 1.883724,2.16517 2.387254,3.0868 0.50353,0.92163 1.021281,1.6757 1.150558,1.6757 0.129277,0 1.141567,0.70392 2.249535,1.56428 2.584056,2.00656 3.678337,2.34585 7.116232,2.20641 1.545865,-0.0627 3.435777,-1.2e-4 4.199804,0.13906 1.013395,0.18461 1.619953,0.10183 2.242459,-0.30605 0.825769,-0.54107 0.848951,-0.67376 0.718039,-4.10988 -0.155958,-4.09356 -0.687853,-5.13827 -2.616045,-5.13827 -1.125857,0 -2.451979,-1.01955 -3.611733,-2.77677 -0.502556,-0.76146 -0.572218,-0.7791 -0.776538,-0.19663 -0.187083,0.53333 -0.324929,0.43847 -0.827902,-0.56977 -0.337877,-0.67729 -0.45307,-1.25976 -0.261751,-1.32353 0.207932,-0.0693 0.224277,-0.48552 0.04175,-1.06318 -0.164968,-0.52211 -0.398757,-1.5446 -0.519529,-2.2722 -0.120773,-0.72761 -0.366255,-1.32292 -0.545516,-1.32292 -0.903603,0 -3.264582,1.62877 -3.768726,2.59994 -0.606244,1.16784 -1.030355,0.78648 -0.679587,-0.61109 0.234113,-0.93278 3.358733,-2.45642 5.805506,-2.83091 1.534182,-0.23481 4.769508,-1.67794 5.153064,-2.29855 0.112787,-0.18249 1.274959,-0.4406 2.582605,-0.57357 2.75632,-0.28028 5.130313,-1.2092 6.291005,-2.4616 0.448437,-0.48387 1.021362,-0.874721 1.273161,-0.868551 0.277858,0.007 0.188641,0.21481 -0.22697,0.529161 -1.379972,1.04376 -0.147871,0.48175 1.477723,-0.674051 1.812586,-1.28875 2.407973,-1.52958 4.362404,-1.76458 1.350476,-0.16238 5.604384,-2.20738 5.604384,-2.69422 0,-0.15819 -0.198438,-0.35511 -0.440973,-0.4376 -0.242534,-0.0825 0.485003,-0.74401 1.616746,-1.47005 1.131746,-0.72605 1.983796,-1.39402 1.893446,-1.48437 -0.09035,-0.0904 -0.760666,0.24045 -1.48959,0.73511 -1.199141,0.81376 -1.932407,1.10811 -1.932407,0.77572 0,-0.068 0.79375,-0.61708 1.763889,-1.22015 0.970139,-0.60307 1.763889,-1.2583 1.763889,-1.45607 0,-0.19777 -0.745455,0.11317 -1.656567,0.69098 -0.911112,0.57781 -1.793607,1.05056 -1.961099,1.05056 -0.595764,0 0.09779,-0.62891 1.347569,-1.22197 0.697985,-0.33121 1.182903,-0.68837 1.077591,-0.79368 -0.105307,-0.10531 -0.910219,0.14638 -1.788692,0.55932 -0.878474,0.41293 -1.817642,0.75078 -2.087041,0.75078 -0.682925,0 -1.14379,0.67814 -1.408511,2.07257 -0.223048,1.17492 -0.211699,1.18776 0.860654,0.97329 0.698444,-0.13969 1.041894,-0.083 0.96132,0.15875 -0.06895,0.20684 -0.280145,0.38371 -0.469322,0.39304 -0.189177,0.009 -1.050925,0.22973 -1.914998,0.48977 -0.864069,0.26005 -1.657819,0.37753 -1.763889,0.26107 -0.106066,-0.11646 -0.01693,-0.27512 0.198096,-0.35257 1.068144,-0.38473 1.604916,-1.1361 1.704033,-2.38527 0.07421,-0.93534 0.371507,-1.56591 0.94688,-2.00836 1.317516,-1.01314 0.532024,-0.76979 -1.408017,0.4362 -1.233297,0.76667 -1.922854,1.49278 -2.290731,2.4122 -0.479538,1.19848 -0.740184,1.38092 -2.933319,2.05318 -1.323859,0.4058 -3.280139,0.84247 -4.347292,0.97038 -1.947487,0.23344 -4.856413,1.36986 -6.173612,2.41184 -0.700853,0.55442 -0.70046,0.55821 0.05895,0.569361 0.420476,0.006 1.514507,-0.310271 2.43118,-0.703211 0.916673,-0.39293 1.763272,-0.61739 1.881331,-0.4988 0.278867,0.28013 -1.306194,1.566001 -1.930366,1.566001 -0.263645,0 -1.044636,0.3175 -1.735537,0.70556 -1.496445,0.8405 -2.089701,0.89823 -1.812704,0.17639 0.1342,-0.34972 -0.01251,-0.52917 -0.432627,-0.52917 -0.349628,0 -0.746116,-0.11043 -0.881084,-0.2454 -0.433135,-0.43313 -1.427392,-0.44989 -2.680424,-0.0452 -1.305561,0.42168 -4.761027,2.51698 -5.12674,3.10871 -0.257075,0.41596 0.229964,0.47791 0.725589,0.0923 0.187037,-0.14552 -0.136441,0.15899 -0.718841,0.6767 -0.659432,0.58618 -1.592896,0.99607 -2.474372,1.08652 -0.778506,0.0799 -1.732965,0.2649 -2.121021,0.41116 -0.6077,0.22904 -0.590048,0.16397 0.127277,-0.46916 0.539482,-0.47616 1.316105,-0.73508 2.204861,-0.73508 0.822658,0 1.372029,-0.16747 1.372029,-0.41824 0,-0.23003 0.344585,-0.78503 0.765743,-1.23333 0.421159,-0.4483 0.679951,-0.90089 0.575095,-1.00575 -0.104857,-0.10485 -1.212283,-0.22454 -2.460948,-0.26597 -2.119998,-0.0703 -2.4033,0.0161 -4.279261,1.30623 -1.363599,0.93774 -2.008963,1.61877 -2.008963,2.12 0,0.40615 -0.3175,0.93673 -0.705555,1.17907 -0.388056,0.24235 -0.705556,0.67741 -0.705556,0.96681 0,0.2894 -0.15875,0.52618 -0.352778,0.52618 -0.586049,0 -0.401108,-0.59399 0.529167,-1.69956 0.48507,-0.57647 0.881945,-1.29147 0.881945,-1.58888 0,-0.29741 0.591795,-1.02856 1.3151,-1.62477 1.088941,-0.8976 1.195109,-1.0912 0.617361,-1.12581 -1.178374,-0.0706 -1.730601,0.0827 -2.375596,0.65943 -0.340739,0.30468 -0.716825,0.45666 -0.835748,0.33774 -0.260116,-0.26012 0.727603,-1.30816 1.232864,-1.30816 0.196436,0 0.469579,-0.1819 0.606983,-0.40423 0.176946,-0.2863 -0.04854,-0.33618 -0.77293,-0.17097 -0.914837,0.20863 -0.957614,0.18204 -0.405395,-0.25203 0.826915,-0.649991 0.782081,-1.036481 -0.08819,-0.760271 -1.053558,0.334391 -0.931574,-1.24059 0.1898,-2.45058 0.492446,-0.53135 0.821797,-1.22922 0.731893,-1.55082 -0.0899,-0.32159 -0.267303,-1.10065 -0.394219,-1.73124 -0.126916,-0.63059 -0.376893,-1.14652 -0.555504,-1.14652 -0.396986,0 -0.397867,-0.0739 0.01632,1.37029 0.272547,0.95032 0.199899,1.49914 -0.361595,2.7317 -0.386465,0.84835 -0.852156,1.54245 -1.034867,1.54245 -0.182711,0 -0.893118,0.56092 -1.578683,1.24648 -0.685565,0.685571 -1.246482,1.091811 -1.246482,0.902761 0,-0.18904 0.169573,-0.44851 0.376828,-0.5766 0.207256,-0.1281 0.285976,-0.469661 0.174933,-0.759031 -0.128631,-0.3352 0.05826,-0.59416 0.51501,-0.7136 0.533588,-0.13954 0.663362,-0.37926 0.507513,-0.93749 -0.139308,-0.49899 -0.10366,-0.59843 0.106506,-0.2971 0.173744,0.24911 0.581018,0.35118 0.905054,0.22684 0.732841,-0.28122 0.773126,-0.85615 0.05999,-0.85615 -0.780383,0 -0.643551,-0.7417 0.176389,-0.95612 0.81776,-0.21385 0.961647,-1.16055 0.176389,-1.16055 -0.63565,0 -0.682431,-0.41118 -0.111713,-0.98189 0.625286,-0.62529 0.158955,-0.84691 -0.605636,-0.28783 -0.562427,0.41126 -0.603092,0.6246 -0.261824,1.3736 0.337596,0.74094 0.297561,0.98307 -0.243521,1.47274 -0.520258,0.47082 -0.704423,0.49482 -0.936939,0.12206 -0.616117,-0.98773 -0.435407,-1.72595 0.700576,-2.86193 1.149477,-1.14948 1.163812,-1.1996 0.557336,-1.94856 -0.342367,-0.42281 -0.874852,-0.76874 -1.183299,-0.76874 -0.308448,0 -0.560814,-0.18642 -0.560814,-0.41427 0,-0.62323 -1.732081,1.09227 -2.83757,2.8104 -0.535846,0.83281 -1.04076,1.31471 -1.122032,1.0709 -0.19366,-0.58098 1.682497,-3.34564 2.741156,-4.0393 0.7113,-0.46606 1.289406,-0.48665 4.09314,-0.14575 1.79567,0.21833 3.431269,0.53888 3.634664,0.71233 0.203395,0.17344 0.766684,1.27687 1.251754,2.45206 0.485069,1.17518 0.989485,2.13738 1.120923,2.13822 0.131439,8.5e-4 0.583615,-0.43504 1.004836,-0.96862 0.616775,-0.78129 0.734404,-1.30095 0.604278,-2.66955 -0.127294,-1.33881 -2.5e-5,-1.93768 0.599757,-2.82223 0.418736,-0.61754 0.867726,-1.40061 0.997756,-1.74016 0.309361,-0.80784 0.984922,-0.7904 1.199716,0.031 0.163686,0.62593 0.216912,0.6249 1.540053,-0.0297 0.75378,-0.37294 1.535747,-0.57595 1.737706,-0.45114 0.201959,0.12482 0.367198,1.03466 0.367198,2.02187 0,1.52916 -0.182828,2.01805 -1.234722,3.30175 -0.679098,0.82875 -1.234723,1.60345 -1.234723,1.72155 0,0.1181 -0.873125,1.66305 -1.940278,3.43322 -1.067153,1.77017 -1.940278,3.313691 -1.940278,3.430061 0,0.11637 0.357188,0.23829 0.79375,0.27094 3.129674,0.23405 4.103148,0.13295 5.702475,-0.59228 0.967571,-0.438751 2.535398,-0.810321 3.547832,-0.840841 1.455253,-0.0439 2.21067,-0.3179 3.818821,-1.38533 1.55901,-1.03481 2.6526,-1.44352 4.918833,-1.83831 5.315444,-0.92597 6.287827,-1.30576 7.025725,-2.74407 0.404982,-0.78939 1.409115,-1.76493 2.602294,-2.5282 2.11878,-1.35537 2.498725,-1.46706 2.727742,-0.80186 0.116744,0.3391 0.562313,0.29836 1.928826,-0.17639 0.977357,-0.33955 2.271642,-0.61736 2.876191,-0.61736 0.92323,0 1.099181,0.13472 1.099181,0.84162 0,1.34737 -0.82919,2.58975 -3.044465,4.56154 -2.266598,2.01747 -4.734123,3.2507 -7.17427,3.58558 -0.866623,0.11893 -2.05904,0.58492 -2.649816,1.03553 -2.80615,2.140351 -7.653195,4.083541 -10.554339,4.231241 -0.408315,0.0208 -1.615515,0.49888 -2.682668,1.06244 -1.067152,0.56355 -2.575278,1.21855 -3.351389,1.45555 -1.400893,0.42779 -1.410489,0.44273 -1.32524,2.06259 0.170983,3.24894 4.515164,8.60496 5.58082,6.88069 0.132151,-0.21382 0.806121,-0.62519 1.49771,-0.91416 0.691589,-0.28896 1.786865,-0.92921 2.433948,-1.42276 0.911597,-0.69531 1.719783,-0.93624 3.589212,-1.07 2.637367,-0.1887 4.953756,0.52579 9.390219,2.8964 1.967618,1.05139 2.389925,1.13722 5.997223,1.21878 2.134305,0.0483 4.798265,0.30068 5.919911,0.56094 1.833513,0.42543 2.33202,0.40267 4.938889,-0.22546 2.60693,-0.62815 3.397935,-0.66425 7.838425,-0.35776 3.9551,0.27299 5.5562,0.55159 8.03798,1.39863 3.40709,1.16287 2.57368,1.18627 9.18361,-0.2579 1.1681,-0.25522 1.48807,-0.17516 2.41403,0.60399 1.0954,0.92171 2.76577,3.30626 2.76577,3.94829 0,0.19788 -0.15875,0.35979 -0.35278,0.35979 -0.19403,0 -0.35278,-0.1508 -0.35278,-0.3351 0,-0.68517 -2.2328,-3.6135 -3.03335,-3.97825 -0.69384,-0.31614 -1.07679,-0.21413 -2.33778,0.62271 -1.89207,1.25564 -3.75655,1.26324 -7.38777,0.0301 -5.8102,-1.97308 -8.38559,-2.16019 -12.89205,-0.93662 -3.126293,0.84883 -3.969174,0.83866 -9.626827,-0.11623 -1.843264,-0.31111 -4.651841,-0.56849 -6.241282,-0.57197 l -2.889892,-0.006 0.20477,2.44246 c 0.191452,2.28366 0.131276,2.57268 -0.925612,4.44538 -0.621707,1.10161 -1.032534,2.10076 -0.912953,2.22034 0.402135,0.40213 8.799947,0.19112 10.14209,-0.25485 0.72457,-0.24075 1.597696,-0.78344 1.940278,-1.20595 1.053797,-1.29967 3.345279,-2.30776 5.822721,-2.56159 1.845557,-0.18908 2.453997,-0.12818 2.869367,0.28719 0.64819,0.64818 3.87621,1.11719 4.71938,0.68568 0.33933,-0.17366 1.1954,-0.33244 1.90237,-0.35283 0.70697,-0.0204 1.93182,-0.29573 2.72189,-0.61185 0.79006,-0.31612 1.64038,-0.49882 1.88959,-0.406 0.29587,0.1102 0.20827,0.25445 -0.25244,0.41569 -2.06772,0.72366 -2.03702,0.81253 0.29,0.83969 1.32367,0.0155 2.7058,-0.15872 3.0714,-0.38703 0.70871,-0.4426 2.90863,0.15698 5.72263,1.55968 l 1.32292,0.65944 v -1.01627 c 0,-0.55896 -0.36404,-1.55437 -0.80898,-2.21203 -1.26288,-1.86669 -1.36964,-2.07771 -1.05123,-2.07771 0.16396,0 0.80833,0.66386 1.43193,1.47524 0.80609,1.04882 1.13383,1.85223 1.13383,2.77943 0,1.1442 0.14064,1.3592 1.14653,1.75268 1.71776,0.67195 3.11759,1.25274 4.55123,1.8883 1.14139,0.50601 4.18002,0.81261 4.18002,0.42177 0,-0.20336 -2.12986,-2.32019 -2.33448,-2.32019 -0.20752,0 -2.25014,-1.43987 -2.90147,-2.04528 -1.07179,-0.99623 -0.009,-0.79019 1.24123,0.24074 0.73329,0.60444 1.49898,1.09898 1.70154,1.09898 0.5996,0 3.79353,3.09798 3.5688,3.4616 -0.31173,0.5044 -1.29593,0.64857 -2.86312,0.41941 z m -59.866393,-2.54045 c 0.232833,-0.23284 0.423333,-0.28187 0.423333,-0.10897 0,0.17291 0.235109,0.006 0.522464,-0.37041 0.452219,-0.59272 0.570068,-0.61365 0.87654,-0.15562 0.298023,0.44538 0.354937,0.42211 0.359484,-0.147 0.0028,-0.37188 0.112688,-0.56887 0.243812,-0.43774 0.131127,0.13113 0.607377,-0.10821 1.058333,-0.53187 0.791454,-0.74352 0.819923,-0.74609 0.819923,-0.0738 0,0.38308 -0.1905,0.887 -0.423333,1.11983 -0.252169,0.25217 -0.276271,0.42333 -0.05961,0.42333 0.200046,0 0.568403,-0.38245 0.818568,-0.84988 0.383935,-0.7174 0.365732,-0.97712 -0.116776,-1.666 -0.433966,-0.61957 -0.571624,-0.6766 -0.571624,-0.2368 0,0.38296 -0.606383,0.78072 -1.789045,1.17354 -0.983979,0.32683 -1.874087,0.81583 -1.978022,1.08668 -0.103935,0.27086 -0.400745,0.49246 -0.659578,0.49246 -0.258833,0 -0.568717,0.15875 -0.688633,0.35278 -0.307993,0.49834 0.653542,0.44007 1.164167,-0.0705 z m 7.478889,-0.32386 c 0,-0.19403 -0.15875,-0.25467 -0.352778,-0.13475 -0.194027,0.11991 -0.352777,0.37677 -0.352777,0.5708 0,0.19403 0.15875,0.25467 0.352777,0.13475 0.194028,-0.11992 0.352778,-0.37678 0.352778,-0.5708 z m -12.700001,0.0416 c 0,-0.19402 -0.15875,-0.35277 -0.352778,-0.35277 -0.194027,0 -0.352777,0.15875 -0.352777,0.35277 0,0.19403 0.15875,0.35278 0.352777,0.35278 0.194028,0 0.352778,-0.15875 0.352778,-0.35278 z m 10.936112,-0.56691 c 0,-0.68908 -0.263652,-0.61156 -0.701308,0.2062 -0.304599,0.56915 -0.274405,0.65964 0.163978,0.49142 0.295533,-0.11341 0.53733,-0.42733 0.53733,-0.69762 z m -9.837645,-1.47892 c 0.245515,-0.64576 0.44528,-0.78486 0.725168,-0.50498 0.279889,0.27989 0.685917,0.17424 1.473931,-0.38352 1.392827,-0.98586 2.386866,-2.14723 1.967361,-2.29854 -0.179321,-0.0647 -0.326038,-0.37423 -0.326038,-0.68791 0,-0.42043 0.103685,-0.46664 0.394501,-0.17583 0.290816,0.29082 0.612401,0.1471 1.223575,-0.5468 0.647957,-0.73568 0.831508,-0.81099 0.840221,-0.34477 0.0061,0.3281 -0.147602,0.69466 -0.34163,0.81457 -0.194027,0.11992 -0.352777,0.50918 -0.352777,0.86502 0,0.35585 -0.264672,0.74856 -0.588159,0.87269 -0.448278,0.17202 -0.490227,0.32363 -0.176389,0.63747 0.226473,0.22647 0.41177,0.63758 0.41177,0.91357 0,0.39894 -0.105128,0.41456 -0.512802,0.0762 -0.404936,-0.33606 -0.720301,-0.30855 -1.499305,0.13078 -0.542576,0.306 -1.43262,0.7159 -1.977872,0.9109 -0.559555,0.20011 -0.890036,0.51849 -0.758727,0.73095 0.15679,0.25369 0.422506,0.21141 0.814978,-0.12969 0.609541,-0.52976 1.614386,-0.4209 1.269271,0.1375 -0.368473,0.59621 0.711405,0.28336 2.315919,-0.67093 3.183358,-1.89332 3.712292,-2.2969 4.405483,-3.36144 0.388055,-0.59594 1.101598,-1.1765 1.585648,-1.29014 0.48405,-0.11364 0.935873,-0.49626 1.004051,-0.85028 0.06818,-0.35402 -0.01796,-0.55597 -0.191378,-0.44878 -0.17344,0.10719 -0.545889,0.0396 -0.827666,-0.15016 -0.428107,-0.28832 -0.381847,-0.43654 0.281428,-0.90169 0.436563,-0.30616 0.79375,-0.78646 0.79375,-1.06733 0,-0.86496 -1.570962,-0.40158 -1.699274,0.50123 -0.06147,0.43254 -0.743705,1.32735 -1.516066,1.98847 -1.203975,1.03055 -1.373315,1.34612 -1.187108,2.21217 0.2072,0.96371 0.191756,0.97866 -0.336018,0.32535 -0.720217,-0.89153 -0.698073,-1.3425 0.152355,-3.10268 0.388055,-0.80318 0.705555,-1.48787 0.705555,-1.52154 0,-0.0337 -0.396875,0.0147 -0.881944,0.10739 -0.50097,0.0958 -0.881945,0.004 -0.881945,-0.2129 0,-0.51292 1.334227,-1.20103 1.786633,-0.92142 0.198518,0.12269 0.592113,0.0312 0.874652,-0.20327 0.361799,-0.30027 0.513715,-0.30925 0.513715,-0.0304 0,0.21778 0.238125,0.39597 0.529167,0.39597 0.291042,0 0.529167,-0.15573 0.529167,-0.34606 0,-0.28835 -0.758081,-0.60442 -2.204861,-0.91928 -0.145521,-0.0317 -0.383646,-0.0957 -0.529167,-0.1423 -0.7785,-0.24928 -1.784738,0.17648 -2.663508,1.12699 -1.015118,1.09799 -1.048254,1.5866 -0.08246,1.21599 0.301209,-0.11558 0.506494,-0.39316 0.456188,-0.61684 -0.05031,-0.22368 0.123627,-0.48501 0.386524,-0.58073 0.64389,-0.23443 0.155321,1.34302 -0.583222,1.88305 -0.335154,0.24507 -0.424177,0.57162 -0.240803,0.8833 0.160009,0.27197 -0.06356,0.1833 -0.49681,-0.19704 -0.63706,-0.55926 -0.844278,-0.60003 -1.083367,-0.21318 -0.309079,0.5001 -1.42518,0.28212 -1.42518,-0.27834 0,-0.17779 0.651687,-0.95578 1.448192,-1.72887 1.271302,-1.23393 1.399057,-1.49743 1.045919,-2.15727 -0.291666,-0.54498 -0.738335,-0.75164 -1.624577,-0.75164 -1.363027,0 -1.466264,0.26884 -0.684085,1.7814 0.599598,1.1595 0.49282,1.31591 -0.333933,0.48916 -0.303413,-0.30341 -0.711627,-0.45279 -0.907143,-0.33196 -0.534348,0.33025 -0.427314,1.23098 0.173683,1.4616 0.321818,0.12349 0.529167,0.6573 0.529167,1.3623 0,0.70499 -0.207349,1.2388 -0.529167,1.36229 -0.382303,0.14671 -0.529167,-0.0386 -0.529167,-0.66781 0,-0.53892 -0.201701,-0.87087 -0.529167,-0.87087 -0.581617,0 -0.735765,0.92886 -0.18539,1.11713 0.413026,0.14128 0.06,1.70509 -0.384921,1.70509 -0.171398,0 -0.311633,-0.30052 -0.311633,-0.66781 0,-0.3673 -0.238125,-0.75919 -0.529167,-0.87087 -0.611362,-0.23461 -0.721849,0.31962 -0.13591,0.68175 0.239101,0.14777 0.330344,0.8978 0.232765,1.91333 -0.146617,1.52587 -0.100282,1.65454 0.535917,1.48817 0.490736,-0.12833 0.645606,-0.0361 0.524388,0.31235 -0.09461,0.27196 -0.433367,0.44782 -0.752786,0.39081 -0.412568,-0.0736 -0.580763,0.15303 -0.580763,0.78268 0,1.13926 0.962849,0.85277 1.451245,-0.4318 z m 0.312644,-1.63751 c 0,-0.27959 0.15875,-0.60646 0.352778,-0.72638 0.194028,-0.11991 0.352778,0.10884 0.352778,0.50835 0,0.3995 -0.15875,0.72637 -0.352778,0.72637 -0.194028,0 -0.352778,-0.22875 -0.352778,-0.50834 z m 1.411112,-0.34475 c 0,-0.27517 -0.07656,-0.71173 -0.170131,-0.97014 -0.09357,-0.2584 0.155208,-0.8667 0.552845,-1.35177 0.652988,-0.79657 0.685328,-0.8051 0.334105,-0.0882 -0.279774,0.57107 -0.281837,0.99373 -0.0074,1.5066 0.391771,0.73201 0.211117,1.40382 -0.37749,1.40382 -0.182576,0 -0.331956,-0.22515 -0.331956,-0.50032 z m 7.04293,-1.91115 c 0.23241,-0.45318 0.519321,-0.72721 0.637572,-0.60896 0.118251,0.11825 -0.07191,0.48904 -0.422572,0.82396 -0.609512,0.58217 -0.618973,0.5727 -0.215,-0.215 z m -5.984597,-6.0552 c 0,-0.19403 0.247495,-0.35278 0.549988,-0.35278 0.302493,0 0.451873,0.15875 0.331957,0.35278 -0.119917,0.19403 -0.367411,0.35278 -0.549988,0.35278 -0.182577,0 -0.331957,-0.15875 -0.331957,-0.35278 z m 26.328418,10.00189 c 0.341524,-0.42568 0.428858,-0.42048 0.604009,0.036 0.112617,0.29347 0.409204,0.47015 0.659084,0.39261 0.249879,-0.0775 0.890887,-0.23663 1.424464,-0.35355 1.119044,-0.2452 1.311914,-0.90469 0.264584,-0.90469 -0.388056,0 -0.705556,-0.16594 -0.705556,-0.36876 0,-0.2334 -0.485624,-0.2811 -1.322917,-0.12996 -1.491686,0.26928 -2.345835,0.65532 -3.594146,1.62443 l -0.860115,0.66774 1.56567,-0.23307 c 0.86112,-0.12819 1.745337,-0.45701 1.964923,-0.73071 z m -18.114287,-1.30565 c -0.104849,-0.16965 0.0088,-0.43171 0.252536,-0.58235 0.243745,-0.15064 0.332486,-0.45299 0.19721,-0.67187 -0.371376,-0.60089 -0.902765,-0.10159 -0.902765,0.84826 0,0.46216 -0.151818,0.93413 -0.337372,1.04881 -0.185554,0.11468 -0.240796,0.46017 -0.12276,0.76777 0.176121,0.45896 0.294347,0.41027 0.659197,-0.27145 0.244525,-0.4569 0.358804,-0.96953 0.253954,-1.13917 z m 1.551856,1.11539 c -0.112614,-0.28142 -0.196208,-0.19783 -0.213134,0.21314 -0.01531,0.37188 0.06806,0.58024 0.185286,0.46302 0.117224,-0.11723 0.129755,-0.4215 0.02783,-0.67616 z m 0.459034,-1.88308 c -0.453323,-0.7335 -0.673629,-1.49327 -0.537037,-1.85209 0.182471,-0.47936 0.139771,-0.51727 -0.201316,-0.17876 -0.595944,0.59146 0.193287,3.27452 0.96321,3.27452 0.44733,0 0.407448,-0.22058 -0.224857,-1.24367 z m 1.130756,-1.84313 c -0.284301,-0.37488 -0.544457,-0.12569 -0.644547,0.61736 -0.111615,0.82859 -0.09369,0.83926 0.296316,0.17639 0.228314,-0.38806 0.385018,-0.74525 0.348231,-0.79375 z m -2.955255,0.28663 c 0.08819,-0.26459 -0.0441,-0.39688 -0.308681,-0.30868 -0.25466,0.0849 -0.532476,0.3627 -0.617361,0.61736 -0.08819,0.26458 0.0441,0.39687 0.30868,0.30868 0.25466,-0.0849 0.532476,-0.3627 0.617362,-0.61736 z m 40.988367,-1.60955 c 0.47671,-0.5744 0.36268,-0.6462 -0.50031,-0.31503 -0.30691,0.11777 -0.55802,0.35589 -0.55802,0.52916 0,0.48798 0.57162,0.37232 1.05833,-0.21413 z m -18.83671,-1.64479 1.02143,-0.43161 -0.88194,-0.11465 c -0.48507,-0.0631 -1.913819,0.20731 -3.175,0.60082 l -2.293056,0.71548 2.153568,-0.16922 c 1.184462,-0.0931 2.613208,-0.36344 3.174998,-0.60082 z m -34.336977,-0.91285 c 0.238375,-0.53358 0.876676,-1.34708 1.418447,-1.80778 0.541772,-0.46071 0.898333,-0.92436 0.792359,-1.03033 -0.105973,-0.10597 -0.550397,0.14338 -0.987608,0.55412 -0.437212,0.41074 -1.416625,0.95376 -2.176474,1.20671 -1.474558,0.49088 -2.328029,1.61142 -0.953601,1.252 0.505003,-0.13206 0.752786,-0.0336 0.752786,0.29928 0,0.83699 0.69614,0.55107 1.154091,-0.474 z m 7.254202,-2.5141 c 0.357942,-0.22689 0.29452,-0.34453 -0.264583,-0.49073 -0.487885,-0.12759 -0.735376,-0.0253 -0.735376,0.30383 0,0.56271 0.314402,0.62147 0.999959,0.1869 z m -32.296854,-5.57816 c -0.32856,-0.50145 -0.654591,-0.7401 -0.724513,-0.53033 -0.188047,0.56414 0.606248,1.88434 0.990739,1.64671 0.187687,-0.11599 0.07235,-0.59966 -0.266226,-1.11638 z m 8.64062,-6.65621 c 0.431228,-0.30205 0.784051,-0.79288 0.784051,-1.090741 0,-0.29785 0.326588,-0.96354 0.725751,-1.4793 1.587354,-2.05101 2.789513,-4.15193 2.795607,-4.88567 0.0035,-0.42511 0.166299,-0.87174 0.361706,-0.99251 0.195408,-0.12077 0.614001,-0.72545 0.930206,-1.34373 0.562289,-1.09946 0.56012,-1.11099 -0.09876,-0.52465 -0.412712,0.36728 -0.854268,0.48791 -1.139863,0.3114 -0.380367,-0.23508 -0.362649,-0.48833 0.09625,-1.37574 0.838543,-1.62157 0.685701,-1.76765 -0.495899,-0.47396 -0.582084,0.6373 -1.058334,1.38705 -1.058334,1.66612 0,0.27906 -0.15875,0.50739 -0.352777,0.50739 -0.455752,0 -0.452176,-0.0287 0.197055,-1.58255 0.302408,-0.72376 0.465599,-1.40016 0.362647,-1.50312 -0.102951,-0.10295 -0.340584,0.21629 -0.528072,0.70942 -0.187488,0.49313 -0.48054,0.98291 -0.651228,1.0884 -0.333296,0.20599 -0.310052,2.75652 0.03014,3.30696 0.201615,0.32622 -0.398185,1.00144 -3.705041,4.17095 -1.978919,1.89672 -2.538782,3.549001 -1.283756,3.788651 1.608878,0.30721 2.258182,0.2435 3.030317,-0.29732 z m -1.942056,-0.34644 c -0.349407,-0.37822 -0.158883,-0.685911 0.986407,-1.593001 1.828921,-1.44853 2.199423,-1.12863 0.434934,0.37553 -0.737588,0.62876 -1.14263,1.034561 -0.900096,0.901771 0.242535,-0.1328 0.440973,-0.0827 0.440973,0.11133 0,0.59242 -0.504711,0.69962 -0.962218,0.20437 z m 0.256662,-5.057181 c 0,-0.55765 -0.407993,-1.74388 -0.90665,-2.63608 -0.706944,-1.26486 -1.192604,-1.70159 -2.204861,-1.98274 -1.668878,-0.46352 -2.564531,-0.48544 -1.870377,-0.0458 0.267393,0.16937 0.383866,0.47347 0.258829,0.67578 -0.344541,0.55748 0.451797,0.88724 1.014609,0.42015 0.388332,-0.32229 0.587092,-0.26086 0.929368,0.28721 0.239465,0.38344 0.625635,0.62416 0.858156,0.53494 0.363243,-0.13939 0.535814,0.20184 1.054316,2.08471 0.04007,0.14552 0.0927,0.58208 0.116957,0.97014 0.0691,1.10555 0.749653,0.82563 0.749653,-0.30834 z m -1.737431,0.21133 c -0.01455,-0.14067 -0.02646,-0.74138 -0.02646,-1.33492 0,-0.6296 -0.146959,-0.98833 -0.352778,-0.86112 -0.482164,0.29799 -0.45711,2.7394 0.02646,2.57821 0.20858,-0.0695 0.36733,-0.2415 0.352778,-0.38217 z m 38.824101,-1.93143 c 0.447855,-0.57106 0.431253,-0.57855 -0.221389,-0.0998 -0.388056,0.28465 -0.771702,0.56246 -0.852548,0.61736 -0.08084,0.0549 0.01878,0.0998 0.22139,0.0998 0.202607,0 0.586253,-0.27781 0.852547,-0.61736 z m -29.333403,-5.15436 c -0.0043,-0.22104 -0.318284,-0.005 -0.697711,0.48005 -0.901805,1.1529 -0.891143,1.83845 0.01174,0.75467 0.3816,-0.45806 0.690289,-1.01368 0.685975,-1.23472 z M 33.448238,124.059 c 0.100054,-0.16189 0.863485,-0.31844 1.696515,-0.3479 1.093817,-0.0387 1.367587,0.0416 0.985431,0.28895 -0.646914,0.41871 -2.935378,0.46902 -2.681946,0.0589 z m 50.240802,-1.71052 c 0.25466,-0.10191 0.55893,-0.0894 0.67616,0.0278 0.11723,0.11723 -0.0911,0.2006 -0.46302,0.18529 -0.41097,-0.0169 -0.49456,-0.10052 -0.21314,-0.21314 z m 15.37408,-1.5304 c -0.0362,-1.01563 -0.0151,-1.03168 0.46141,-0.35136 0.27462,0.39208 0.40137,0.87134 0.28167,1.06503 -0.40177,0.65007 -0.70488,0.35895 -0.74308,-0.71367 z m -64.079464,0.46987 c -0.690117,-0.18035 -0.808356,-0.65547 -0.249129,-1.00109 0.395954,-0.24472 1.395657,0.4248 1.395657,0.93468 0,0.32385 -0.132124,0.3315 -1.146528,0.0664 z m 2.734028,-0.1096 c 0.119916,-0.19403 0.446785,-0.35278 0.726376,-0.35278 0.279591,0 0.508347,0.15875 0.508347,0.35278 0,0.19403 -0.326869,0.35278 -0.726376,0.35278 -0.399506,0 -0.628262,-0.15875 -0.508347,-0.35278 z m 43.920836,-0.22157 c -2.36565,-0.6271 -2.29702,-0.62211 -4.145138,-0.3013 -1.031473,0.17906 -1.499305,0.13612 -1.499305,-0.1376 0,-0.228 0.59358,-0.39786 1.39029,-0.39786 0.76466,0 1.498883,-0.1757 1.631593,-0.39044 0.13272,-0.21475 0.34053,-0.25359 0.4618,-0.0863 0.30312,0.41811 2.57103,1.18231 3.50873,1.18231 0.42278,0 0.7687,0.15875 0.7687,0.35278 0,0.19403 -0.0397,0.33928 -0.0882,0.32277 -0.0485,-0.0165 -0.96132,-0.26145 -2.02847,-0.54434 z m -42.320648,-0.043 c 0.007,-0.14552 0.403064,-0.74084 0.880192,-1.32292 0.779559,-0.95104 0.867683,-0.98341 0.869257,-0.31926 9.53e-4,0.40649 -0.28856,1.0018 -0.643387,1.32292 -0.689127,0.62365 -1.126715,0.74996 -1.106062,0.31926 z M 31.73248,118.7222 c -0.344575,-0.38075 -1.177545,-0.87414 -1.851043,-1.09641 -0.818778,-0.27023 -1.107299,-0.52138 -0.870718,-0.75796 0.447021,-0.44703 3.944465,1.39153 3.944465,2.07354 0,0.67386 -0.494791,0.58516 -1.222704,-0.21917 z m 53.61021,0.33949 c 0.11991,-0.19402 0.6149,-0.35277 1.09997,-0.35277 0.49813,0 0.78706,0.15352 0.66392,0.35277 -0.11992,0.19403 -0.6149,0.35278 -1.09997,0.35278 -0.49814,0 -0.78707,-0.15352 -0.66392,-0.35278 z M 42.127407,117.6714 c 0,-0.18257 0.15875,-0.43007 0.352778,-0.54998 0.194028,-0.11992 0.352778,0.0295 0.352778,0.33195 0,0.3025 -0.15875,0.54999 -0.352778,0.54999 -0.194028,0 -0.352778,-0.14938 -0.352778,-0.33196 z M 24.55772,115.7817 c -1.641582,-1.69369 -1.384478,-2.38892 0.277638,-0.75077 0.772847,0.76171 1.407847,1.50398 1.411112,1.6495 0.01235,0.55067 -0.599572,0.22501 -1.68875,-0.89873 z m 14.041909,-0.445 c 0,-0.30249 0.15875,-0.45188 0.352778,-0.33196 0.194028,0.11992 0.352778,0.36741 0.352778,0.54999 0,0.18257 -0.15875,0.33195 -0.352778,0.33195 -0.194028,0 -0.352778,-0.24749 -0.352778,-0.54998 z m -12.87793,-0.51084 c -0.120763,-0.1954 0.03547,-0.45314 0.347173,-0.57275 0.675445,-0.25919 1.051883,0.0264 0.727206,0.55177 -0.292939,0.47399 -0.788426,0.48366 -1.074379,0.021 z m 2.647374,-0.98235 c 0,-1.701 0.398828,-3.19068 0.906379,-3.38544 0.376124,-0.14433 0.400491,0.0124 0.117598,0.75648 -0.196257,0.51619 -0.308501,1.48579 -0.249432,2.15465 0.06545,0.74111 -0.06484,1.27506 -0.333573,1.36703 -0.287413,0.0984 -0.440972,-0.21251 -0.440972,-0.89272 z m 4.596328,-3.23471 c -0.73274,-0.4634 -0.358144,-0.68999 0.779422,-0.47146 0.531315,0.10207 0.879133,0.32618 0.77293,0.49802 -0.248036,0.40133 -0.893214,0.39029 -1.552352,-0.0266 z m -8.124107,-0.64674 c 0,-0.18644 0.256436,-0.55181 0.569856,-0.81192 0.49302,-0.40917 0.552479,-0.38326 0.440972,0.19215 -0.13287,0.68567 -1.010828,1.22397 -1.010828,0.61977 z m -0.489031,-1.30732 c 0.283244,-1.31854 0.841809,-1.9953 0.841809,-1.01993 0,0.38978 -0.24056,1.01684 -0.534578,1.39348 -0.504052,0.64568 -0.521595,0.62435 -0.307231,-0.37355 z m 2.252921,-1.17647 c 0,-0.38836 -0.09636,-0.95721 -0.214133,-1.26412 -0.117772,-0.30691 -0.05561,-0.55802 0.138145,-0.55802 0.193753,0 0.451708,0.39616 0.573233,0.88036 0.315171,1.25574 0.30551,1.38029 -0.118009,1.52147 -0.20858,0.0695 -0.379236,-0.19134 -0.379236,-0.57969 z m 1.411111,-0.39291 c 0,-0.19403 0.47625,-0.59906 1.058333,-0.90006 0.582084,-0.30101 1.058334,-0.38854 1.058334,-0.19451 0,0.19403 -0.47625,0.59905 -1.058334,0.90006 -0.582083,0.30101 -1.058333,0.38854 -1.058333,0.19451 z m 4.938889,-1.78762 c 0,-0.16341 0.912813,-0.54774 2.028472,-0.85409 1.11566,-0.30634 2.810736,-0.87149 3.766836,-1.25588 0.9561,-0.38439 1.824628,-0.61263 1.930061,-0.5072 0.326829,0.32683 -0.745408,0.83707 -3.315646,1.57779 -1.358195,0.39142 -2.906008,0.85226 -3.439584,1.02408 -0.533576,0.17182 -0.970139,0.17871 -0.970139,0.0153 z m -10.193011,-1.02952 c -0.264393,-0.1634 -0.370033,-0.47618 -0.234754,-0.69507 0.135278,-0.21889 0.403745,-0.30046 0.596593,-0.18127 0.192847,0.11918 0.6591,-0.0625 1.036119,-0.40366 0.377019,-0.3412 0.790349,-0.5155 0.918511,-0.38734 0.128163,0.12817 0.166877,0.27271 0.08603,0.32122 -0.08084,0.0485 -0.54632,0.43808 -1.034388,0.86571 -0.577943,0.50638 -1.055033,0.67391 -1.368113,0.48041 z m -3.918101,-7.037121 c 0,-0.19402 0.15875,-0.45089 0.352778,-0.5708 0.194027,-0.11992 0.352777,-0.0593 0.352777,0.13475 0,0.19402 -0.15875,0.45089 -0.352777,0.5708 -0.194028,0.11992 -0.352778,0.0593 -0.352778,-0.13475 z m 35.806947,-0.39441 c 0.119917,-0.19403 0.376778,-0.35278 0.570805,-0.35278 0.194028,0 0.254667,0.15875 0.134751,0.35278 -0.119916,0.19402 -0.376777,0.35277 -0.570805,0.35277 -0.194028,0 -0.254667,-0.15875 -0.134751,-0.35277 z"
       style="fill:#000000;stroke-width:0.35277778" />
  </g>
</svg>
