<?xml version="1.0" encoding="UTF-8" standalone="no"?>
<!-- Created with Inkscape (http://www.inkscape.org/) -->

<svg
   xmlns:dc="http://purl.org/dc/elements/1.1/"
   xmlns:cc="http://creativecommons.org/ns#"
   xmlns:rdf="http://www.w3.org/1999/02/22-rdf-syntax-ns#"
   xmlns:svg="http://www.w3.org/2000/svg"
   xmlns="http://www.w3.org/2000/svg"
   xmlns:sodipodi="http://sodipodi.sourceforge.net/DTD/sodipodi-0.dtd"
   xmlns:inkscape="http://www.inkscape.org/namespaces/inkscape"
   width="293.15836mm"
   height="156.62241mm"
   viewBox="0 0 293.15837 156.62239"
   version="1.1"
   id="svg8"
   inkscape:version="0.92.2 5c3e80d, 2017-08-06"
   sodipodi:docname="Figure_110.svg">
  <defs
     id="defs2" />
  <sodipodi:namedview
     id="base"
     pagecolor="#ffffff"
     bordercolor="#666666"
     borderopacity="1.0"
     inkscape:pageopacity="0.0"
     inkscape:pageshadow="2"
     inkscape:zoom="0.7"
     inkscape:cx="574.67699"
     inkscape:cy="259.99314"
     inkscape:document-units="mm"
     inkscape:current-layer="layer1"
     showgrid="false"
     fit-margin-top="0"
     fit-margin-left="0"
     fit-margin-right="0"
     fit-margin-bottom="0"
     inkscape:window-width="1440"
     inkscape:window-height="807"
     inkscape:window-x="0"
     inkscape:window-y="1"
     inkscape:window-maximized="1" />
  <metadata
     id="metadata5">
    <rdf:RDF>
      <cc:Work
         rdf:about="">
        <dc:format>image/svg+xml</dc:format>
        <dc:type
           rdf:resource="http://purl.org/dc/dcmitype/StillImage" />
        <dc:title></dc:title>
      </cc:Work>
    </rdf:RDF>
  </metadata>
  <g
     inkscape:label="Layer 1"
     inkscape:groupmode="layer"
     id="layer1"
     transform="translate(144.1964,129.52263)">
    <path
       style="fill:#000000;stroke-width:0.35277778"
       d="m -139.10552,26.736261 c -0.13334,-0.215742 -0.22137,-1.323838 -0.19563,-2.462431 0.0544,-2.407497 0.95896,-4.610302 3.36602,-8.197223 0.88908,-1.324871 1.61651,-2.570878 1.61651,-2.768907 0,-0.198028 0.25431,-0.939665 0.56514,-1.648086 0.31082,-0.70842 0.69064,-1.605537 0.84404,-1.9935929 2.3049,-5.830647 3.33382,-7.361333 8.16634,-12.148763 3.45518,-3.422957 9.4067,-10.8550961 10.05413,-12.5554001 0.55745,-1.464024 4.55828,-4.930006 7.23796,-6.270357 2.80763,-1.404356 4.75658,-3.192643 7.765664,-7.12548 1.673994,-2.187889 3.485208,-3.98477 5.528038,-5.484294 1.723856,-1.265386 3.146694,-3.569021 3.410388,-5.521572 0.253531,-1.877307 1.412332,-5.750567 2.167855,-7.246003 0.268358,-0.531163 1.556427,-2.198038 2.862379,-3.704166 3.979287,-4.58923 5.287825,-6.26877 5.421521,-6.958673 0.07036,-0.363085 0.350467,-0.734264 0.622455,-0.824833 0.927368,-0.308814 0.103251,2.061425 -1.229762,3.536908 -0.695047,0.769334 -1.845829,2.296841 -2.557294,3.394463 -0.711468,1.097622 -1.730138,2.565972 -2.263715,3.263 -0.533576,0.697029 -0.970139,1.388245 -0.970139,1.536037 0,0.147789 -0.443554,0.847182 -0.985675,1.554202 -0.729615,0.951536 -1.151544,2.156128 -1.624146,4.636875 -0.404457,2.123028 -0.965814,3.859975 -1.531575,4.738984 -0.491207,0.763175 -1.002711,1.79505 -1.136671,2.293056 -0.195026,0.725029 -0.428685,0.883228 -1.172556,0.793902 -0.731834,-0.08788 -1.315152,0.286459 -2.748555,1.763889 -1.000763,1.031497 -2.501099,2.907322 -3.334085,4.168503 -2.061477,3.121184 -3.344477,4.247885 -6.955617,6.108277 -3.42514,1.764566 -5.47223,3.676632 -6.86835,6.415334 -0.49456,0.970139 -1.00947,1.843264 -1.14427,1.940278 -0.13479,0.09701 -0.65225,0.783029 -1.14991,1.52448 -1.15692,1.7236581 -5.15053,6.0811551 -9.52037,10.38784113 -3.3971,3.34800597 -5.36881,6.38279797 -6.13688,9.44569597 -0.34429,1.3729369 -1.69923,4.1792489 -2.97353,6.1586499 -1.08269,1.68178 -2.1067,3.760424 -2.1067,4.276414 0,0.82392 0.65124,0.120756 1.51018,-1.630581 0.86072,-1.754967 2.02349,-2.62068 2.01378,-1.499306 -0.0106,1.230179 -1.60711,5.396417 -2.37656,6.202053 -0.24658,0.258176 -0.34183,0.641734 -0.21166,0.852349 0.32844,0.531432 1.80859,-1.393768 2.09573,-2.725878 0.5089,-2.360867 2.41509,-4.867787 5.85073,-7.694549 0.68691,-0.565171 1.22744,-1.353824 1.26858,-1.850898 0.0394,-0.476367 0.54975,-1.9204869 1.13406,-3.2091559 0.58431,-1.288673 1.06743,-2.678268 1.0736,-3.087995 0.0157,-1.039713 0.99029,-2.289651 1.34183,-1.720853 0.19608,0.317267 0.42536,0.246644 0.86456,-0.266302 0.32874,-0.383942 0.8102,-0.698076 1.06992,-0.698076 0.25971,0 1.9064,-1.230313 3.65931,-2.73402797 1.75291,-1.50371503 3.48665,-2.97481603 3.85277,-3.26911803 0.36612,-0.294297 1.84845,-1.484922 3.29406,-2.645833 1.44561,-1.160907 3.28421,-2.507618 4.08577,-2.992688 2.35246,-1.4235991 5.55468,-4.2546091 7.315178,-6.4671891 0.901157,-1.132565 3.309465,-3.31658 5.357344,-4.858399 2.046146,-1.540514 3.720264,-2.956218 3.720264,-3.146005 0,-0.190578 -1.058242,-0.345074 -2.363611,-0.345074 -3.136322,0 -2.49397,-0.611275 0.848088,-0.807056 2.783717,-0.163072 3.34808,-0.436506 5.748856,-2.785326 1.37969,-1.349826 5.088181,-7.055795 5.747375,-8.843034 0.279262,-0.757146 1.255811,-0.811545 1.534432,-0.08547 0.112257,0.292541 -0.06416,0.941313 -0.392039,1.441718 -0.327878,0.500408 -0.523836,0.982137 -0.435462,1.070511 0.235691,0.235691 2.012361,-1.962016 2.012361,-2.489257 0,-0.247135 0.509486,-0.830266 1.132191,-1.295848 0.622706,-0.465582 1.694269,-1.336167 2.38125,-1.934633 0.686982,-0.598463 2.389802,-1.697926 3.784043,-2.443247 2.135597,-1.141635 2.621919,-1.282979 3.086806,-0.89716 0.303502,0.251883 0.551822,0.60754 0.551822,0.790346 0,0.182809 -1.364224,0.962649 -3.031607,1.732982 -2.620595,1.210719 -2.970731,1.473962 -2.58258,1.941657 0.36395,0.438531 0.93007,0.495974 2.987717,0.303156 1.586012,-0.148622 2.621108,-0.104528 2.758331,0.117507 0.120809,0.195467 1.212123,0.466206 2.425146,0.601641 1.21302,0.135435 4.031118,0.730444 6.262438,1.322247 5.147853,1.365338 7.011984,1.536752 9.297705,0.854956 2.070566,-0.617615 5.614572,-1.12765 6.954023,-1.000784 0.498239,0.04719 3.435114,-0.882654 6.526389,-2.066322 9.837304,-3.766764 11.174089,-4.182329 15.245818,-4.73945 2.189484,-0.299578 4.119482,-0.544688 4.288879,-0.544688 0.1694,0 0.381822,-0.833438 0.472044,-1.852084 0.09023,-1.018646 0.365464,-2.539012 0.611636,-3.378595 0.355572,-1.212691 0.359703,-1.937932 0.02011,-3.527778 -1.161299,-5.436489 -1.509342,-6.39494 -2.893042,-7.966904 -0.760483,-0.863953 -1.773633,-2.454807 -2.251449,-3.535232 -0.866514,-1.959345 -0.872801,-1.964408 -2.437737,-1.964408 -0.862941,0 -1.951408,0.145398 -2.418814,0.323106 -0.490418,0.186454 -2.477005,0.207197 -4.697272,0.04904 -4.043302,-0.288015 -5.388412,-0.728906 -8.60994,-2.822127 -2.528718,-1.643059 -5.247976,-2.826103 -8.288155,-3.605862 -2.926337,-0.750559 -3.575642,-1.017062 -10.501372,-4.31026 -4.243399,-2.017741 -7.126309,-2.773782 -12.343113,-3.236965 -1.722946,-0.152975 -2.38125,-0.349949 -2.38125,-0.712509 0,-0.275601 0.247494,-0.501089 0.549987,-0.501089 0.302493,0 0.450272,-0.16134 0.328401,-0.358532 -0.12187,-0.197192 -0.357935,-0.274263 -0.524587,-0.171266 -0.166653,0.102997 -0.407289,-0.141309 -0.534752,-0.542901 -0.127458,-0.401591 -0.892951,-1.199144 -1.701091,-1.772334 -2.102125,-1.490977 -7.993969,-8.118927 -7.994936,-8.993791 -3.52e-4,-0.399478 -0.199238,-0.980563 -0.441773,-1.291301 -0.436393,-0.559096 -6.790185,-5.21432 -7.1169,-5.21432 -0.0932,0 -1.207273,-0.725491 -2.475724,-1.612197 l -2.306274,-1.6122 -2.737711,0.39172 c -2.594864,0.37128 -6.100883,1.08682 -6.406273,1.30745 -0.42675,0.30829 5.496251,6.897197 8.46435,9.415966 l 1.192029,1.01157 3.603894,-0.427108 c 2.747662,-0.325632 3.922183,-0.330066 4.943591,-0.01866 3.21484,0.980122 3.92496,1.471764 5.290873,3.663075 0.737271,1.18279 2.030092,2.930585 2.872938,3.883991 l 1.532442,1.733466 -0.15645,3.484411 c -0.08605,1.916426 -0.254127,3.582084 -0.373507,3.701464 -0.119376,0.11938 -0.04878,0.531467 0.156884,0.915755 0.205662,0.384288 0.305745,1.055405 0.222405,1.491375 -0.121856,0.637448 0.07877,0.875951 1.024527,1.21794 1.441214,0.521148 2.08934,1.532485 1.366541,2.132352 -0.275396,0.228561 -0.787996,0.385699 -1.139112,0.3492 -1.481784,-0.154037 -1.930083,0.06505 -2.391164,1.168573 -0.58874,1.409054 -1.786255,2.573923 -2.109082,2.051583 -0.125246,-0.202657 -0.06163,-0.678812 0.141369,-1.058122 0.604044,-1.12867 0.424385,-1.263752 -0.511464,-0.384567 -0.9563,0.898398 -1.655428,0.69366 -0.956808,-0.280197 0.85144,-1.186885 0.843866,-1.507172 -0.06379,-2.697169 -0.506586,-0.664172 -0.921068,-1.375114 -0.921068,-1.57987 0,-0.509707 -0.910735,-1.643024 -2.990353,-3.721185 l -1.755627,-1.754399 1.368468,0.84576 1.368471,0.84576 -0.236922,-0.943977 c -0.296432,-1.181078 0.116095,-1.202626 1.18763,-0.06203 0.752817,0.801334 1.763889,1.188346 1.763889,0.67517 0,-0.38942 -2.271431,-2.615455 -2.668786,-2.615455 -0.218274,0 -0.684194,-0.3175 -1.035381,-0.705556 -0.673213,-0.743892 -0.263673,-1.004506 0.45273,-0.288103 0.229602,0.229602 0.539165,0.294746 0.687917,0.14477 0.148756,-0.14998 -0.184224,-0.636062 -0.739955,-1.080185 -0.704677,-0.56316 -0.864796,-0.857444 -0.529167,-0.972559 0.264689,-0.09078 1.272318,0.542781 2.239176,1.407915 2.363047,2.114427 4.768466,3.740626 4.768466,3.223747 0,-0.231295 -0.595313,-0.964205 -1.322917,-1.62869 -0.727604,-0.664489 -1.124479,-1.108506 -0.881944,-0.986706 0.575027,0.288774 0.575027,-0.399319 0,-0.763009 -0.242535,-0.153398 -0.879857,-0.303057 -1.416266,-0.332577 -0.572604,-0.0315 -1.259956,-0.415558 -1.66473,-0.930145 -1.262775,-1.605357 -6.673808,-3.780765 -9.421795,-3.787863 -1.530047,-0.004 -2.352869,0.525395 -1.259861,0.810507 0.341922,0.08919 -0.280801,0.18058 -1.383828,0.203087 -1.10303,0.02251 -2.421823,-0.117362 -2.930659,-0.310818 -0.763016,-0.2901 -1.153237,-0.196752 -2.226663,0.532655 -0.715832,0.486421 -1.354952,0.72408 -1.420265,0.528133 -0.183586,-0.550749 -1.018026,-0.420867 -1.254456,0.195256 -0.1164,0.303339 -0.36974,0.453813 -0.56298,0.33438 -0.21707,-0.134154 -0.13235,-0.551377 0.22168,-1.091702 0.8465,-1.291926 0.27551,-1.481826 -0.94361,-0.313824 -0.77942,0.746728 -1.04245,1.301563 -0.99127,2.090949 0.1462,2.254588 -0.0546,3.779985 -0.47884,3.638553 -0.73046,-0.243483 -0.97017,-2.047413 -0.52977,-3.986583 0.3437,-1.513346 0.71955,-2.118896 2.01004,-3.238553 0.87301,-0.757438 2.222299,-1.754233 2.998411,-2.215098 0.776111,-0.460866 1.932573,-1.285071 2.569915,-1.83157 0.637339,-0.546498 1.470777,-0.993634 1.852084,-0.993634 0.381303,0 0.693279,-0.06145 0.693279,-0.13656 0,-0.07511 -1.15932,-1.305419 -2.57627,-2.734028 -1.416946,-1.428605 -3.509871,-3.847863 -4.650949,-5.376128 l -2.07467,-2.778663 -2.42045,0.22496 c -1.5718,0.14608 -2.68716,0.0822 -3.18115,-0.18215 -1.06102,-0.56785 -3.84707,-0.48574 -6.96874,0.20537 -4.47122,0.989895 -6.71891,1.24822 -10.93611,1.256883 -2.37689,0.0049 -5.12972,0.242469 -6.64745,0.573717 -2.35465,0.513907 -2.64097,0.514926 -3.1447,0.0112 -0.45657,-0.456576 -0.47424,-0.650509 -0.10032,-1.10106 0.38436,-0.46312 1.6493,-0.54871 8.25997,-0.55892 6.75715,-0.0104 8.18535,-0.11112 10.62834,-0.74931 3.85741,-1.0077 6.62232,-1.15795 9.67637,-0.52585 3.5904,0.74311 4.43515,0.30738 2.63623,-1.35981 -0.50411,-0.46719 -0.85659,-1.02936 -0.78329,-1.24925 0.0733,-0.2199 0.94472,0.38642 1.9365,1.34737 l 1.80322,1.7472 2.419652,-0.48147 c 4.793534,-0.95383 5.453563,-1.10398 5.630482,-1.2809 0.363773,-0.36378 -1.519143,-1.95654 -4.099109,-3.46745 -5.009085,-2.9335 -5.460205,-3.36957 -6.340145,-6.12866 -0.65662,-2.05889 -1.16346,-2.86954 -2.98425,-4.77315 -1.43143,-1.49655 -2.4183,-2.90576 -2.84106,-4.05695 -0.65134,-1.77357 -1.55582,-3.14693 -1.86736,-2.83539 -0.0921,0.0921 0.0982,0.5731 0.42297,1.06878 0.32479,0.49568 0.5492,1.09595 0.4987,1.33392 -0.0505,0.23798 0.11939,1.17468 0.37755,2.08157 0.25816,0.90688 0.3985,1.85938 0.31187,2.11666 -0.18141,0.53877 -1.17856,-1.61171 -2.40035,-5.17665 -0.91967,-2.68341 -2.496,-5.52955 -2.70886,-4.89097 -0.073,0.21889 0.41044,1.72641 1.07424,3.35004 0.6638,1.62362 1.47323,3.77326 1.79874,4.77697 0.32552,1.00372 0.82127,2.01534 1.10167,2.24806 0.28041,0.23272 0.50984,0.64181 0.50984,0.9091 0,0.91629 -0.59232,0.4854 -1.26616,-0.9211 -0.98933,-2.06498 -1.27073,-1.72163 -0.47782,0.58301 0.37811,1.09898 0.59402,2.09117 0.4798,2.20486 -0.4583,0.45616 -1.47535,-1.45308 -1.89531,-3.55795 -0.24499,-1.22792 -0.7378,-3.05116 -1.09512,-4.05166 -0.35733,-1.0005 -0.72623,-2.45408 -0.81977,-3.23019 -0.0935,-0.77611 -0.36451,-1.72243 -0.60214,-2.10294 -0.88138,-1.4113 0.73423,-2.59376 1.79596,-1.31445 0.24154,0.29104 0.70753,0.52916 1.03553,0.52916 0.94223,0 2.22078,1.68245 3.88729,5.11528 1.03569,2.13341 2.24594,3.93222 3.68912,5.48315 2.02607,2.17735 3.15628,4.30825 3.73192,7.03616 0.10741,0.50903 0.48038,0.93303 0.88803,1.00952 0.38656,0.0725 1.38548,0.59042 2.219826,1.15084 0.834345,0.56042 1.647893,1.01894 1.807877,1.01894 0.159989,0 1.472646,0.86303 2.917021,1.91785 l 2.626131,1.91784 4.032656,0.19334 c 2.217963,0.10634 5.577293,0.286 7.465176,0.39926 2.805258,0.16828 4.002487,0.0678 6.551539,-0.5498 3.046293,-0.73808 3.220374,-0.74252 7.465589,-0.19023 4.543482,0.59109 4.951745,0.69962 4.951745,1.31634 0,0.2485 -0.630742,0.29883 -1.852084,0.14777 -4.949257,-0.61213 -6.979236,-0.63082 -10.174111,-0.0937 -5.124323,0.86154 -5.588417,0.88156 -8.731109,0.37664 -4.273833,-0.68666 -7.723971,-0.9335 -7.94941,-0.56874 -0.164723,0.26653 4.424214,3.48323 5.583177,3.913631 0.841488,0.312501 5.505803,4.005684 5.834377,4.619634 0.195703,0.365676 0.36014,1.032489 0.365411,1.481808 0.01072,0.914241 5.09845,6.217814 9.436947,9.837321 2.356591,1.966048 2.762063,2.169954 4.938889,2.483672 4.389152,0.632552 7.991789,1.761773 12.249302,3.839457 2.328333,1.136237 5.185834,2.262812 6.35,2.503502 1.164167,0.24069 2.275417,0.555932 2.469445,0.700539 0.194028,0.144611 0.987778,0.378284 1.763889,0.519275 1.715523,0.311651 3.815637,1.239618 6.947987,3.070077 3.489561,2.039196 5.108818,2.432053 9.985347,2.422581 6.296797,-0.01224 6.418576,0.0333 7.916958,2.960568 1.144181,2.235298 1.52062,2.628755 4.253875,4.446203 9.0774351,6.035939 11.65671013,7.721247 11.81694913,7.721247 0.09762,0 0.177496,-0.463568 0.177496,-1.030154 0,-0.752746 -0.40373603,-1.414702 -1.49930503,-2.458208 -2.239462,-2.133043 -8.9159471,-6.486137 -8.2193811,-5.359068 0.225919,0.365544 5.7912641,4.21259 7.0856131,4.897931 0.962843,0.50981 1.191542,1.832832 0.316826,1.832832 -0.864305,0 -1.917086,-0.678917 -1.917086,-1.236295 0,-0.27825 -0.90116,-1.106103 -2.002579,-1.83967 -1.101418,-0.733566 -2.887355,-1.925799 -3.9687501,-2.649407 -1.081394,-0.723607 -2.445646,-1.543939 -3.031666,-1.822958 -1.317019,-0.627069 -2.428286,-1.813651 -2.138162,-2.283079 0.119267,-0.19298 -0.133417,-0.596208 -0.56152,-0.896062 -0.428103,-0.299854 -0.673336,-0.650219 -0.544964,-0.778591 0.261289,-0.261289 4.492191,1.875606 7.010838,3.540954 3.9405101,2.605489 6.4107031,4.086581 6.5625031,3.934777 0.08995,-0.08995 -0.859268,-0.847107 -2.109368,-1.682577 -8.7346721,-5.837583 -11.6225391,-7.692647 -11.9755151,-7.692647 -0.188468,0 -0.291937,-0.346792 -0.229937,-0.770647 0.08657,-0.591767 1.136287,-1.296106 4.522453,-3.034457 5.4060301,-2.775289 6.5953961,-3.163732 10.6163781,-3.467276 3.32404203,-0.250931 5.24182,0.101265 7.022511,1.289671 0.791754,0.528404 1.247663,0.544011 4.45818,0.152636 4.7663419,-0.581039 14.5346219,-0.678381 23.4112659,-0.233296 7.043078,0.353149 9.834686,0.62054 17.109723,1.63884 8.702647,1.218124 15.091153,0.984141 18.344445,-0.671872 0.970139,-0.493829 1.882496,-0.898532 2.027463,-0.899344 0.144964,-7.05e-4 1.414964,-0.548294 2.822223,-1.216628 1.407255,-0.66833 3.749273,-1.709222 5.204481,-2.31309 1.455204,-0.603867 3.439584,-1.484213 4.409724,-1.956322 0.97014,-0.472108 2.71639,-1.035593 3.88055,-1.252192 2.41814,-0.449904 2.94139,-0.419227 17.109721,1.003092 3.4305,0.344375 6.45861,0.22654 8.06567,-0.313866 0.70562,-0.237282 1.8018,-0.389992 2.43595,-0.339358 1.008,0.08048 1.21548,-0.05559 1.64983,-1.082054 0.66193,-1.564309 3.28635,-4.029181 4.6055,-4.325522 2.91557,-0.65497 4.98222,0.184789 6.65969,2.706081 2.11324,3.176249 4.76759,5.664624 7.22405,6.772335 0.80415,0.362624 1.46209,0.793955 1.46209,0.958512 0,0.16456 0.67469,0.300086 1.49931,0.301169 2.71871,0.0036 4.07338,0.591041 4.84341,2.100415 0.43948,0.861455 1.24864,1.668095 2.19943,2.192584 1.6646,0.918242 2.10036,1.939661 1.13018,2.649075 -0.61142,0.447083 -0.61142,0.4815 0,0.928582 1.45326,1.062652 -0.47855,3.130159 -3.04585,3.259811 -0.83116,0.04197 -1.93158,0.243019 -2.44539,0.446762 -2.73796,1.085719 -14.31243,1.760008 -22.70192,1.322528 -4.38898,-0.228864 -5.2924,-0.173277 -8.11389,0.499252 -1.74625,0.416235 -4.04812,0.960638 -5.11528,1.209784 -1.06715,0.249146 -3.1309,0.88647 -4.586111,1.416276 -1.45521,0.529805 -3.67771,1.268211 -4.93889,1.640907 -1.26118,0.372692 -2.7693,0.846398 -3.35139,1.052675 -4.44677,1.575851 -10.91995,2.754354 -15.586959,2.837755 -3.40238,0.0608 -6.401051,1.297463 -11.12138,4.586492 -1.259297,0.877453 -6.565096,2.099095 -8.080432,1.860493 -0.900737,-0.141827 -2.279202,0.23905 -5.604281,1.548497 -6.276626,2.471798 -7.130302,2.727699 -14.816667,4.441532 -3.761214,0.838638 -6.589854,1.253677 -12.170834,1.78579 -10.699888,1.020173 -12.606634,1.098952 -17.0929659,0.706211 -2.434562,-0.213123 -4.664604,-0.277759 -4.955646,-0.143637 -0.56288497,0.259402 -5.736939,-0.157913 -6.304135,-0.508462 -0.185085,-0.114388 -1.189782,-0.280585 -2.232664,-0.369326 -2.193505,-0.186655 -4.4931761,-1.056972 -5.1064591,-1.932556 -0.335177,-0.478532 -0.861271,-0.587167 -2.475223,-0.511111 -2.75814,0.129974 -7.613953,0.888721 -8.029159,1.254601 -0.184326,0.162429 -0.673805,0.295324 -1.08773,0.295324 -0.413928,0 -0.856432,0.103837 -0.983343,0.230749 -0.126912,0.126912 -1.463058,0.667286 -2.969211,1.200827 -1.506157,0.533545 -3.609351,1.302833 -4.673762,1.70953 -1.064416,0.406699 -2.175666,0.740427 -2.469445,0.741623 -0.293783,0.0011 -1.010398,0.252099 -1.592481,0.557562 -0.582084,0.305463 -2.839092,0.851754 -5.015576,1.213979 -2.176484,0.362225 -4.240234,0.802957 -4.586111,0.979403 -0.345878,0.176448 -1.588559,0.5039 -2.761517,0.727671 -2.284807,0.435888 -2.144815,0.467511 -9.096061,-2.054885 -3.344595,-1.213651 -7.840208,-1.870918 -9.849468,-1.440011 -0.940893,0.201789 -2.456967,0.368374 -3.369049,0.370195 -1.771992,0.0035 -4.314303,1.230157 -6.127757,2.956532 -0.51791,0.493038 -1.428877,1.192734 -2.024377,1.554878 -1.12056,0.681454 -5.500871,5.65681 -5.224014,5.93367 0.0861,0.0861 1.567204,0.01824 3.291346,-0.150795 1.724141,-0.169034 3.531679,-0.186782 4.016749,-0.03944 1.891968,0.574693 8.260482,0.688827 10.759723,0.192835 3.350648,-0.664961 37.668437,-0.616719 38.33905,0.05389 0.237176,0.237176 0.359791,0.455599 0.272479,0.485384 -0.08731,0.02977 -2.301875,0.104651 -4.92125,0.166366 -5.116799,0.120559 -15.969196,0.454265 -17.991668,0.553237 -1.948794,0.09536 -10.152715,-0.331234 -10.500223,-0.546001 -0.172578,-0.106663 -1.889068,0.05057 -3.81442,0.349405 -3.784427,0.587382 -9.846885,0.455658 -11.664823,-0.25345 -1.062916,-0.414605 -5.348235,-0.422102 -8.591293,-0.01503 -0.193224,0.02427 -1.460398,1.061904 -2.815947,2.30589 -1.355548,1.243986 -3.547325,2.981565 -4.870616,3.861283 -1.577008,1.048396 -2.88581,2.285626 -3.798633,3.590901 -0.765962,1.095276 -1.92755,2.556947 -2.581311,3.248155 -1.022105,1.080653 -5.728825,4.8355431 -7.409995,5.9114791 -0.30318,0.194028 -2.12401,1.622778 -4.0463,3.175001 -1.92229,1.552222 -4.06282,3.26160303 -4.75673,3.798626 -0.69391,0.537023 -1.34865,1.108869 -1.45499,1.270766 -0.17863,0.271981 -1.17162,0.751025 -3.63292,1.752635 -0.6745,0.274486 -0.97014,0.649651 -0.97014,1.231134 0,0.459987 -0.55562,1.883357 -1.23472,3.163045 -0.6791,1.279687 -1.23472,2.8276119 -1.23472,3.4398299 0,1.156141 -0.18056,1.372291 -4.18837,5.014002 -1.0159,0.923103 -2.08795,2.193103 -2.38234,2.822223 -1.56732,3.349427 -2.34415,4.276767 -5.17684,6.179816 -1.78842,1.201501 -2.51975,1.388368 -2.91713,0.745384 z m 3.02301,-4.319969 c 0,-1.136738 -0.53604,-0.823323 -0.94812,0.554352 -0.63453,2.121355 -0.57084,2.398825 0.24389,1.062545 0.38733,-0.635278 0.70423,-1.362883 0.70423,-1.616897 z M 18.257773,-40.074397 c 3.397649,-0.118057 8.648849,-0.784144 10.922036,-1.385397 1.156423,-0.305869 2.512984,-0.556129 3.014574,-0.556129 1.340503,0 7.738142,-1.399043 9.170335,-2.00538 0.679098,-0.287503 2.663473,-0.992717 4.409723,-1.567141 1.74625,-0.574421 3.766908,-1.434345 4.490353,-1.910941 0.723445,-0.476596 1.449836,-0.866539 1.614202,-0.866539 0.164366,0 0.671689,-0.396875 1.12739,-0.881944 1.000089,-1.064546 2.313252,-1.164544 2.566677,-0.195449 0.202734,0.775257 0.754754,0.817389 3.946031,0.301169 1.156638,-0.187099 2.530521,-0.644613 3.05307,-1.016698 0.522545,-0.372089 1.067897,-0.676522 1.21189,-0.676522 0.14399,0 1.110104,-0.563072 2.146917,-1.251268 1.036814,-0.688198 2.46416,-1.493209 3.171878,-1.788911 1.835472,-0.766911 6.295507,-1.473457 8.774371,-1.390015 3.841817,0.129325 11.065687,-1.682111 20.284727,-5.08653 1.64923,-0.609032 5.300483,-1.582339 8.113883,-2.162905 4.92995,-1.01733 5.33896,-1.04714 11.28889,-0.822752 7.10293,0.267868 17.32094,-0.285612 20.99028,-1.136989 1.3582,-0.315133 3.06476,-0.715059 3.79236,-0.888728 1.30646,-0.311834 1.76811,-1.100582 0.8503,-1.452778 -0.58543,-0.224649 -0.52101,-1.614724 0.0924,-1.993829 0.33702,-0.208291 0.24338,-0.425577 -0.3679,-0.853737 -0.45099,-0.315884 -1.01197,-0.574336 -1.24663,-0.574336 -0.23466,0 -0.75292,-0.458198 -1.15168,-1.018219 -0.46838,-0.657779 -1.1688,-1.101471 -1.97861,-1.253395 -3.42901,-0.643283 -8.20338,-3.677507 -11.83939,-7.524206 -3.22007,-3.406659 -4.42084,-4.315291 -5.70271,-4.315291 -0.55583,0 -0.92364,0.140726 -0.81733,0.31273 0.1063,0.172001 -0.36058,0.917395 -1.03752,1.656437 -0.72851,0.795348 -1.23079,1.128419 -1.23079,0.816162 0,-0.290153 0.18786,-0.715405 0.41745,-0.945004 0.22961,-0.229602 0.33739,-0.497522 0.23953,-0.595383 -0.42903,-0.429031 -1.76861,2.099363 -1.95756,3.694808 -0.19483,1.64502 -0.81608,2.165628 -0.81608,0.683873 0,-0.376604 -0.17726,-0.684734 -0.39391,-0.684734 -0.22994,0 -0.32372,0.367118 -0.22531,0.881944 0.12801,0.669661 0.0196,0.881945 -0.45029,0.881945 -0.3404,0 -0.72046,-0.264672 -0.84459,-0.588158 -0.15897,-0.41425 -0.33626,-0.477602 -0.59959,-0.214264 -0.26335,0.263342 -0.25626,0.593715 0.024,1.117325 0.58037,1.084425 -0.4973,1.005505 -1.2144,-0.08893 -0.52559,-0.802161 -0.66874,-0.825913 -3.9447,-0.654558 -1.86962,0.09779 -5.16004,-0.01333 -7.31205,-0.246956 -7.616153,-0.826791 -11.885373,-1.01691 -14.856953,-0.661606 -1.32799,0.158782 -1.9809,0.399835 -5.65953,2.089471 -0.78887,0.362335 -1.54768,0.658788 -1.68626,0.658788 -0.13857,0 -2.509393,1.086901 -5.268479,2.415335 -7.415509,3.570394 -7.41142,3.568817 -10.200287,3.930971 -3.671524,0.476772 -7.652477,0.410983 -11.92596,-0.197097 -2.037292,-0.289888 -5.017813,-0.673879 -6.623382,-0.853313 -1.605566,-0.179433 -3.050226,-0.407215 -3.210359,-0.506179 -0.590712,-0.365079 -20.51731,-1.391758 -26.149594,-1.347305 -7.6717839,0.06055 -8.8613579,0.136017 -8.7222509,0.553339 0.06424,0.192712 0.58522,0.602817 1.157739,0.911345 1.49109,0.803544 3.2320869,2.053735 5.3678919,3.85463 l 1.860321,1.568616 2.549401,-0.307051 c 5.005938,-0.602911 22.678303,0.146467 24.149203,1.024023 0.149828,0.08939 1.463043,0.265412 2.918252,0.39116 3.125371,0.270065 4.597181,0.447798 7.990889,0.96497 1.923892,0.293183 3.389563,0.27401 6.173612,-0.08076 2.007926,-0.25587 3.801032,-0.424 3.984674,-0.373624 0.53836,0.147684 12.49515,-5.450596 14.36084,-6.723877 0.51502,-0.35149 1.388145,-0.640048 1.940279,-0.641244 0.55213,-0.0011 1.41077,-0.214514 1.90808,-0.474042 0.67445,-0.351963 1.51669,-0.398131 3.31455,-0.181691 3.15335,0.379628 3.63832,0.554309 3.9093,1.408091 0.31145,0.981287 -0.024,1.202828 -1.08761,0.718231 -0.49503,-0.225545 -1.5752,-0.410083 -2.40039,-0.410083 -0.82519,0 -1.687,-0.186654 -1.91514,-0.414789 -0.31786,-0.317863 -0.84955,-0.200388 -2.27541,0.502747 -5.805993,2.863113 -10.958002,5.209576 -12.973132,5.908566 -1.261181,0.437466 -2.462001,0.929051 -2.668492,1.092408 -0.681401,0.539069 -4.863381,1.362541 -8.09951,1.594877 -2.308134,0.16571 -3.859908,0.07798 -5.644445,-0.319126 -1.35364,-0.301216 -4.048665,-0.660146 -5.988943,-0.797624 -1.940278,-0.137478 -3.893876,-0.387643 -4.341333,-0.555918 -1.088746,-0.409451 -6.514274,-1.037886 -10.651723,-1.23378 -3.001578,-0.142113 -4.591777,-0.16311 -11.641667,-0.153734 -4.625305,0.0061 -10.7612399,1.322494 -11.8686579,2.546178 -0.323353,0.3573 -0.806419,0.64964 -1.073478,0.64964 -0.26706,0 -0.58643,0.277812 -0.709708,0.617361 -0.123278,0.339549 -0.734138,1.191923 -1.357465,1.894166 -0.623323,0.702243 -1.30647,1.813493 -1.518098,2.469445 -0.617283,1.913272 -1.02417397,5.17387 -0.707873,5.672529 0.520076,0.819922 0.334603,1.693721 -0.35951197,1.693721 -0.441025,0 -0.72384,0.3233 -0.848646,0.970139 -0.268086,1.389401 0.220154,7.408189 0.63336,7.807741 0.50427397,0.487613 8.63154397,1.029194 12.34202187,0.822442 1.74625,-0.0973 4.1275,-0.210012 5.291667,-0.250462 z M 54.946254,-56.83325 c -0.278832,-0.451164 1.297432,-1.057024 2.757403,-1.059847 0.617957,-0.0011 1.578272,-0.239321 2.134027,-0.529166 1.250848,-0.652364 1.988146,-0.673665 1.988146,-0.05744 0,0.647605 -1.23669,1.232112 -3.487734,1.648443 -2.394553,0.442873 -3.117162,0.442447 -3.391842,-0.0021 z m 27.193623,-8.065784 c -0.1552,-0.251114 3.01531,-2.51689 3.5219,-2.51689 0.0841,0 0.15294,0.232403 0.15294,0.516449 0,0.545991 -2.33517,2.305774 -3.05968,2.305774 -0.23455,0 -0.51137,-0.1374 -0.61516,-0.305333 z m 57.512963,-2.349772 c -0.55116,-0.285944 -1.75774,-0.519895 -2.68131,-0.519895 -0.92356,0 -2.37385,-0.254879 -3.22287,-0.566396 -0.84901,-0.31152 -2.60479,-0.848631 -3.90172,-1.193581 -2.54062,-0.675742 -7.12952,-3.713392 -7.53375,-4.987022 -0.25632,-0.807607 -1.91282,-1.719668 -3.12328,-1.719668 -1.08537,0 -3.28317,1.259618 -3.76338,2.15689 -0.19584,0.365933 -0.57925,0.665332 -0.85201,0.665332 -0.94397,0 -0.9468,0.741345 -0.008,1.972786 0.94936,1.244685 0.98193,2.412485 0.0574,2.057704 -0.72505,-0.278229 -2.12748,-3.185665 -1.86569,-3.867863 0.12291,-0.320315 0.50257,-0.655373 0.84368,-0.744576 0.34112,-0.0892 0.88211,-0.618529 1.20222,-1.176281 0.81049,-1.412205 2.58136,-2.2456 4.83288,-2.274433 1.86268,-0.02385 1.9285,0.0108 3.70417,1.949655 2.57818,2.81511 4.85736,4.440354 6.64103,4.735604 0.83422,0.138088 2.31052,0.550164 3.28066,0.915727 1.17459,0.442598 2.67983,0.664714 4.50548,0.664834 2.58979,1.66e-4 2.76408,0.04954 3.14779,0.891692 0.56455,1.239054 0.006,1.698343 -1.26377,1.039491 z m -27.82075,-1.61883 c -0.53358,-0.398092 -0.97014,-0.948686 -0.97014,-1.223546 0,-0.650903 -0.65674,-0.631539 -2.33285,0.06878 -1.17421,0.490619 -2.48986,0.539077 -9.600443,0.3536 -4.53187,-0.118212 -8.38396,-0.304041 -8.56019,-0.412958 -1.49748,-0.925498 1.49071,-1.308876 9.794333,-1.256584 4.52795,0.02851 7.52608,-0.117291 9.07103,-0.441141 1.26922,-0.266051 2.3929,-0.398505 2.49706,-0.294344 0.10417,0.104161 0.18939,0.555046 0.18939,1.00197 0,0.493808 0.41518,1.119544 1.05833,1.595046 0.58209,0.430353 1.05834,0.911355 1.05834,1.068895 0,0.527103 -1.22435,0.271823 -2.20486,-0.459722 z m 21.20453,-2.568296 c -6.02045,-2.053414 -8.69161,-4.170864 -10.88669,-8.629947 -0.79832,-1.621712 -1.35538,-3.044684 -1.23791,-3.162155 0.30736,-0.307361 2.3502,2.053022 3.17909,3.673246 0.95167,1.860222 3.45418,4.517002 5.24092,5.564007 0.80403,0.471146 3.08905,1.384385 5.07783,2.029421 3.47781,1.127983 4.49795,1.744074 2.82223,1.704439 -0.43657,-0.01034 -2.32453,-0.540879 -4.19547,-1.179011 z m -40.960093,-2.220394 c -0.77611,-0.202816 -0.80428,-1.02072 -0.0452,-1.312009 0.42391,-0.162673 0.51761,-0.492383 0.36159,-1.272466 -0.15442,-0.772104 -0.0774,-1.052901 0.28895,-1.052901 0.27474,0 0.58749,0.142322 0.69499,0.316269 0.2467,0.399158 -0.17414,3.578568 -0.46636,3.523365 -0.11915,-0.02251 -0.49444,-0.113524 -0.83399,-0.202258 z m -95.1618099,32.726013 c 0,-0.437847 -3.191701,-3.110562 -5.909028,-4.948189 -2.0689641,-1.399166 -2.6990991,-2.134644 -1.8288921,-2.134644 0.206784,0 0.722722,0.163336 1.1465281,0.36297 0.753741,0.355046 0.753237,0.350255 -0.02318,-0.219421 -0.8747371,-0.641805 -1.0367151,-1.404652 -0.3527771,-1.66141 0.2573971,-0.09663 0.07382,-0.310438 -0.440973,-0.513599 -0.81898,-0.323208 -0.896913,-0.262841 -1.091628,0.845598 -0.115323,0.656509 -0.31411,1.298081 -0.441741,1.425712 -0.261109,0.261112 0.76957,1.524039 1.243771,1.524039 0.332553,0 3.0951201,1.791191 5.4930711,3.561585 0.824618,0.608813 1.499305,1.326515 1.499305,1.594894 0,0.268383 0.15875,0.487966 0.352778,0.487966 0.194028,0 0.352778,-0.146474 0.352778,-0.325501 z m 1.763889,-0.170974 c 0,-0.542213 -3.202397,-3.561179 -4.381687,-4.130707 -0.789203,-0.381141 -0.04111,0.325695 2.438805,2.304295 0.878276,0.700733 1.235157,1.234754 1.119848,1.675695 -0.104909,0.401175 0.01933,0.647192 0.326894,0.647192 0.272877,0 0.49614,-0.223415 0.49614,-0.496475 z m -6.111438,-0.461257 c -0.101674,-0.164518 -1.109761,-0.919297 -2.240185,-1.677286 -1.1304271,-0.757992 -2.2537591,-1.616791 -2.4962941,-1.908446 -0.372389,-0.447806 -0.440972,-0.363707 -0.440972,0.540731 0,0.974686 0.228102,1.186254 2.536274,2.352449 2.3913641,1.208225 3.0698341,1.386131 2.6411771,0.692552 z m 5.54161,-3.540185 c -0.126771,-0.533576 -0.480734,-1.257713 -0.786585,-1.609196 -0.711271,-0.817379 -4.802516,-3.844639 -6.374864,-4.716995 -1.5586291,-0.864743 -2.1601331,-1.777489 -1.4593431,-2.214474 0.407762,-0.254265 0.318526,-0.406086 -0.442465,-0.752818 -0.524277,-0.238876 -1.04704,-0.340511 -1.1617,-0.225855 -0.289539,0.289542 0.201224,2.375588 0.558881,2.375588 0.160253,0 0.933418,0.515937 1.7181401,1.146528 0.784726,0.63059 2.544633,1.940277 3.910906,2.910416 1.571695,1.116002 2.485245,2.008759 2.487161,2.430555 0.0028,0.625101 0.904504,1.59017 1.509056,1.615171 0.149218,0.0062 0.167584,-0.425344 0.04081,-0.95892 z m -6.13295,-3.427173 c 0,-0.09019 -0.357188,-0.354301 -0.79375,-0.586923 -0.719745,-0.383512 -0.748609,-0.368223 -0.309584,0.163978 0.45079,0.54646 1.103334,0.796604 1.103334,0.422945 z m 6.5896,-2.444344 c -0.165192,-0.430481 -2.109841,-1.817035 -6.979427,-4.9764 -0.29906,-0.194028 -1.317272,-0.868715 -2.2626921,-1.499305 -0.945423,-0.630591 -1.846619,-1.146528 -2.002659,-1.146528 -0.769049,0 0.162662,2.305911 1.143896,2.831052 0.673424,0.360405 0.731393,0.327523 0.531703,-0.301643 -0.322287,-1.015432 0.302733,-1.226947 1.0803471,-0.365601 0.365481,0.40483 1.763631,1.47265 3.107002,2.372932 4.28704,2.873025 4.726728,3.190257 4.972184,3.587415 0.331816,0.536885 0.655895,0.139802 0.409646,-0.501922 z m -4.513552,-0.137576 c -1.744508,-1.304724 -3.839937,-2.545313 -3.839937,-2.273413 0,0.337513 3.826566,2.902645 4.330054,2.902645 0.193164,0 -0.02737,-0.283154 -0.490117,-0.629232 z m 6.92986403,-7.761993 c -0.09982,-0.260118 -0.313037,-0.391633 -0.473826,-0.292263 -0.160786,0.09937 -0.570153,-0.143781 -0.909698,-0.540342 -0.339545,-0.396561 -0.71547203,-0.6229 -0.83539203,-0.50298 -0.119923,0.119919 0.129572,0.461514 0.55442603,0.759093 0.695988,0.487493 1.083776,1.559383 0.564148,1.559383 -0.114575,0 -1.02738803,-0.684209 -2.02847203,-1.520465 -1.001085,-0.836252 -4.31303,-3.09844 -7.359876,-5.027083 -3.0468431,-1.92864 -5.5471561,-3.702509 -5.5562501,-3.941928 -0.02501,-0.658637 2.960751,1.089839 9.6296691,5.639184 2.254959,1.53827 3.746366,2.151183 2.215148,0.910343 -1.323424,-1.072451 -7.2770721,-4.921412 -9.7077741,-6.275955 -1.281561,-0.714167 -2.174738,-0.992572 -2.734028,-0.852199 -1.536287,0.385583 -1.572556,0.354376 5.8721241,5.051916 5.343846,3.371927 8.81944503,6.020308 8.81944503,6.720346 0,0.311213 0.191646,0.757488 0.425876,0.991718 0.332652,0.332652 0.565987,0.137834 1.065922,-0.889977 0.352023,-0.72372 0.55837297,-1.528678 0.458558,-1.788791 z m -3.00869003,1.532879 c 0,-0.08556 -0.15875,-0.253682 -0.352778,-0.373599 -0.194027,-0.119916 -0.352777,-0.04991 -0.352777,0.155568 0,0.205479 0.15875,0.373599 0.352777,0.373599 0.194028,0 0.352778,-0.07 0.352778,-0.155568 z m 5.16883,-3.694395 c 0.764441,-1.204976 3.183156,-3.205593 3.875511,-3.205593 0.993168,0 0.428396,-1.070656 -0.930452,-1.763889 -0.776111,-0.395943 -1.411111,-0.8558 -1.411111,-1.021905 0,-0.50456 -8.514793,-6.782456 -9.044954,-6.668781 -0.801571,0.171874 0.05734,0.970605 6.189927,5.756212 2.209327,1.724064 3.825713,3.198414 3.591969,3.276328 -0.233743,0.07791 -0.706116,-0.112755 -1.049715,-0.423707 -0.872835,-0.789901 -1.33732,-0.708607 -0.600865,0.105163 0.333753,0.368794 0.458946,0.761926 0.278211,0.873626 -0.180735,0.1117 -0.627641,-0.130076 -0.993119,-0.537281 -0.365481,-0.407204 -1.458259,-1.203543 -2.42839797,-1.769642 -2.21049203,-1.289869 -5.99990003,-3.849956 -7.45675303,-5.037699 -1.084989,-0.884572 -1.904252,-1.162593 -1.879261,-0.63773 0.0069,0.145521 1.292158,1.137708 2.856061,2.204861 7.177147,4.897434 9.125786,6.488991 9.125786,7.453514 0,1.098475 -0.739302,1.117906 -1.882567,0.04947 -0.61382297,-0.573645 -1.83041897,-1.519841 -2.703544,-2.102654 -0.873125,-0.582814 -2.744262,-1.837874 -4.158086,-2.789026 -1.413821,-0.951149 -3.120383,-2.008424 -3.792361,-2.3495 -1.1745881,-0.596188 -1.6351681,-1.32014 -0.8398691,-1.32014 0.2100511,0 2.5259281,1.441203 5.1464001,3.202675 2.620469,1.761472 4.85631803,3.110847 4.96855403,2.998611 0.112236,-0.112236 0.137919,-0.250462 0.05708,-0.307171 -0.08085,-0.05671 -1.66581003,-1.090436 -3.52214103,-2.297176 -1.856327,-1.206743 -3.999452,-2.766014 -4.7625,-3.46505 -1.28409,-1.176376 -1.450375,-1.235146 -2.2340991,-0.789626 -0.465713,0.264742 -0.859575,0.640098 -0.875249,0.834125 -0.01566,0.194028 1.7147371,1.488483 3.8453591,2.876565 5.469862,3.563563 8.38681603,5.834136 8.495736,6.613119 0.08682,0.620917 0.711782,1.251934 1.252509,1.264638 0.126468,0.0028 0.523343,-0.457084 0.881945,-1.02234 z m -14.7763091,-1.198502 c -0.863682,-0.70726 -3.092521,-1.771329 -3.092521,-1.4764 0,0.146706 3.641245,2.277717 3.880555,2.271063 0.09701,-0.0028 -0.257601,-0.360295 -0.788034,-0.794663 z m 11.22553013,0.159004 c -0.189495,-0.306606 -6.89453803,-4.851379 -9.70150613,-6.575817 -0.315831,-0.194028 -1.055959,-0.698757 -1.644731,-1.121622 -0.751131,-0.539471 -1.222551,-0.669029 -1.580183,-0.434265 -0.619626,0.406742 -0.200068,0.774583 3.19448,2.800685 1.2611811,0.75276 3.7218061,2.323927 5.4680561,3.49148 2.789121,1.864822 4.82137903,2.741588 4.26388403,1.839539 z M 9.9674951,-65.267786 c 0,-0.17672 -0.717067,-0.668436 -1.59348,-1.092697 -0.876412,-0.424265 -1.746578,-1.057462 -1.933702,-1.407107 -0.187124,-0.349642 -1.335267,-1.314923 -2.551433,-2.145073 -1.216166,-0.830146 -2.42109,-1.719234 -2.677608,-1.975753 -0.25651897,-0.256519 -0.61380597,-0.466397 -0.79397597,-0.466397 -0.687197,0 -0.289885,-0.662206 0.466171,-0.776968 0.77216697,-0.117207 0.77456597,-0.130313 0.08819,-0.482018 -0.388055,-0.198843 -1.337998,-0.274726 -2.11098003,-0.168635 -1.182475,0.162299 -1.322384,0.263522 -0.881944,0.638084 0.814864,0.692982 2.89674303,2.241419 5.09318,3.788149 1.10212,0.776111 2.885468,2.085798 3.962996,2.910416 1.880077,1.438801 2.932582,1.861584 2.932582,1.177999 z m 1.4111109,-0.341055 c 0,-0.170268 -0.24535,-0.513203 -0.545221,-0.762074 -0.299872,-0.24887 -0.470087,-0.648285 -0.378259,-0.887585 0.202614,-0.528006 -0.7059439,-1.351365 -3.4373439,-3.115007 -2.588916,-1.671637 -2.492004,-1.077813 0.121525,0.744661 1.063872,0.74186 2.099469,1.662321 2.301329,2.045466 0.9607899,1.823646 1.2828619,2.284123 1.5976029,2.284123 0.187202,0 0.340367,-0.139312 0.340367,-0.309584 z m -9.0154689,-1.123223 c -0.361982,-0.399986 -1.77565097,-1.546902 -3.14147897,-2.548699 -1.36583203,-1.001801 -2.56523103,-1.904849 -2.66533203,-2.00678 -1.583834,-1.612773 -2.474979,-2.169612 -3.136279,-1.959723 -0.999818,0.31733 -0.929107,0.704769 0.269632,1.477341 0.554559,0.35741 2.181747,1.432088 3.615972,2.388175 2.58263703,1.721651 5.297142,3.364491 5.572771,3.372686 0.07858,0.0025 -0.1533,-0.32301 -0.515285,-0.723 z m -77.8287851,-3.241499 c 0.473375,-1.565998 0.723688,-2.734027 0.585911,-2.734027 -0.723537,0 -1.104078,0.524316 -0.972982,1.34059 0.143041,0.890634 0.06832,0.854262 -1.151068,-0.560302 -1.146108,-1.329553 -4.045388,-3.266641 -4.045388,-2.702832 0,0.473759 4.571171,5.803099 4.977532,5.803099 0.142681,0 0.415379,-0.515937 0.605995,-1.146528 z m 78.2263971,-2.23006 c -0.373588,-0.273173 -0.769962,-0.405962 -0.880836,-0.295091 -0.110871,0.110874 0.104076,0.425094 0.477661,0.698267 0.373588,0.273173 0.769962,0.405963 0.880836,0.295092 0.110871,-0.110875 -0.104076,-0.425094 -0.477661,-0.698268 z m -78.9770091,-3.10716 c -1.103066,-1.19023 -3.443768,-2.784105 -3.704993,-2.522877 -0.110257,0.110258 0.737754,1.066702 1.884472,2.125434 2.052564,1.895072 3.501669,2.211429 1.820521,0.397443 z m 1.517085,-2.580976 c 0,-0.539453 -0.418549,-1.417076 -0.967405,-2.028472 -0.532073,-0.592702 -0.738448,-0.8792 -0.458611,-0.636665 0.585643,0.507577 1.778794,0.592501 1.778794,0.126605 0,-0.429006 -2.668722,-3.628626 -3.339772,-4.004165 -0.29743,-0.166452 -0.540784,-0.514037 -0.540784,-0.772414 0,-0.843831 -2.209962,-2.654618 -3.857046,-3.160367 -0.886055,-0.27207 -1.293509,-0.507715 -0.905454,-0.523653 0.388056,-0.01595 1.380243,0.277269 2.204861,0.651577 1.576963,0.715807 2.061606,0.385092 0.705556,-0.481464 -1.697584,-1.084806 -4.206498,-1.525778 -6.967361,-1.224608 -1.455209,0.158746 -3.740281,0.396508 -5.07794,0.528362 -2.006812,0.197813 -2.642726,0.424663 -3.636578,1.297277 -0.704462,0.618525 -1.050954,1.152426 -0.834659,1.286104 0.203401,0.125709 -0.184093,0.428858 -0.861098,0.673665 -1.118091,0.404308 -2.2295,1.635763 -1.833602,2.031658 0.08828,0.08828 0.696454,-0.147141 1.351499,-0.523156 1.312344,-0.753332 3.336696,-1.417754 2.439737,-0.800763 -0.442644,0.304486 -0.422159,0.457091 0.14557,1.084425 0.616832,0.681591 0.7173,0.692993 1.512941,0.171665 0.592293,-0.388084 1.659579,-0.554189 3.499153,-0.544587 2.703672,0.01411 4.085788,0.319038 6.73456,1.485777 0.824618,0.363231 1.499306,0.503731 1.499306,0.312226 0,-0.191506 -0.140237,-0.348192 -0.311634,-0.348192 -0.171397,0 -0.391915,-0.307005 -0.49004,-0.68223 -0.116709,-0.446302 -0.612358,-0.76364 -1.433262,-0.917642 -0.708882,-0.132986 -1.301492,-0.471187 -1.362043,-0.777314 -0.06562,-0.331734 -0.586059,-0.590917 -1.34191,-0.668277 -0.679098,-0.06951 -1.044265,-0.0036 -0.811481,0.146487 0.23278,0.150075 -1.220177,0.268429 -3.228799,0.263003 -2.008621,-0.0054 -3.578772,-0.128923 -3.489226,-0.274443 0.08955,-0.145521 0.510632,-0.267014 0.935743,-0.269985 0.425111,-0.0028 1.011054,-0.16172 1.302096,-0.352778 0.470369,-0.308779 0.470369,-0.389558 0,-0.727011 -0.470369,-0.337453 -0.470369,-0.362557 0,-0.225926 0.291041,0.08454 1.304597,-0.147606 2.252348,-0.515881 0.947748,-0.368272 1.900249,-0.602587 2.116667,-0.5207 0.216415,0.08189 0.07599,0.261623 -0.312071,0.399415 -2.146596,0.762212 -2.645833,1.004778 -2.645833,1.285526 0,0.379814 -0.06632,0.380922 1.339857,-0.02237 0.789372,-0.226392 1.926396,-0.186087 3.566474,0.126414 2.814334,0.536247 3.207558,0.731633 3.207558,1.593762 0,0.41396 0.343267,0.713225 0.970139,0.845784 0.533576,0.112829 1.477465,0.688298 2.097536,1.27882 0.620067,0.590518 1.324454,1.073672 1.565306,1.073672 0.68349,0 -1.419588,-2.018058 -2.771761,-2.659705 -0.667131,-0.316572 -1.13648,-0.65207 -1.043005,-0.74555 0.09348,-0.09348 0.954786,0.227743 1.914017,0.713822 1.641669,0.831895 3.212402,2.508835 2.767073,2.954164 -0.110836,0.110836 -0.0247,0.414564 0.191396,0.674949 0.858333,1.034228 -0.335562,0.385254 -2.049516,-1.114069 -1.80921,-1.582653 -2.582852,-1.940281 -2.582852,-1.193966 0,0.581625 2.792311,3.071651 4.362832,3.890529 0.825634,0.430491 1.517724,1.117988 1.753037,1.741403 0.486932,1.290031 0.939687,1.328219 0.939687,0.07926 z m -7.9375,-9.092395 c -0.582083,-0.477129 -1.167063,-0.873217 -1.299951,-0.880195 -0.132891,-0.007 -0.688516,-0.18892 -1.234722,-0.404315 -0.916856,-0.361562 -0.938932,-0.412337 -0.287549,-0.661314 0.489722,-0.187187 0.897537,-0.06854 1.333147,0.387862 0.345179,0.36165 1.099241,0.901442 1.675694,1.199539 0.576457,0.298098 1.048103,0.696666 1.048103,0.885713 0,0.471166 -0.03471,0.456339 -1.234722,-0.52729 z m -12.589757,-0.07553 c 0.254659,-0.101907 0.55893,-0.08938 0.676158,0.02783 0.117225,0.117224 -0.09114,0.200603 -0.463021,0.185286 -0.410968,-0.01693 -0.494559,-0.100521 -0.213137,-0.213135 z m 39.22448,88.2503111 c 0,-0.71909097 0.781964,-0.97865497 6.173612,-2.04922897 10.051574,-1.99586203 10.764157,-2.07060503 13.451265,-1.41090703 3.188508,0.782796 8.162509,0.793856 13.16929,0.02928 2.223527,-0.339549 5.729239,-0.617361 7.79047,-0.617361 3.544651,0 4.9677,0.160644 9.7743931,1.103411 1.11566,0.218824 4.012847,0.511284 6.43819503,0.649915 3.87225097,0.22133303 4.64620997,0.16873403 6.34999997,-0.43157 2.598988,-0.915713 7.5864649,-1.179591 10.9361109,-0.578609 1.793459,0.321776 5.82803,0.477421 12.523612,0.48314 8.541315,0.0073 9.877778,0.08003 9.877778,0.537601 0,1.13753203 -2.194744,1.37761903 -11.465278,1.25421003 -5.756473,-0.07663 -9.374301,-0.268418 -10.046854,-0.53261 -0.578062,-0.227072 -2.800562,-0.435857 -4.938889,-0.463962 -3.218371,-0.0423 -4.2539009,0.08299 -6.0134649,0.72759 -1.888627,0.691882 -2.635864,0.76225 -6.702778,0.631221 -2.51745,-0.08111 -4.839451,-0.250885 -5.160006,-0.377281 -0.320552,-0.126397 -2.066802,-0.486664 -3.880556,-0.800591 -4.3498841,-0.75288703 -12.0921361,-0.70723803 -16.5268981,0.09744 -4.567704,0.828802 -9.465367,0.981325 -10.477169,0.326287 -1.277973,-0.82735903 -5.541815,-0.98279303 -9.101999,-0.331801 -1.74625,0.319309 -4.314592,0.730486 -5.70743,0.913729 -1.392833,0.18324 -3.198731,0.568251 -4.013101,0.85557797 -1.877924,0.662577 -2.450303,0.658957 -2.450303,-0.015481 z M -105.03281,-14.411062 c 0.0113,-0.567817 2.35528,-3.005515 2.76022,-2.870535 0.26257,0.08752 -0.0964,0.723776 -0.92473,1.639086 -1.29701,1.433178 -1.84682,1.802046 -1.83549,1.231449 z m 121.139461,-8.341053 c -0.585961,-1.526988 0.844528,-2.023258 4.444178,-1.541787 2.389512,0.319609 4.431446,0.0801 7.381064,-0.865749 1.918942,-0.615346 2.789096,-0.692273 5.684333,-0.502539 1.8802,0.123219 4.114969,0.485267 4.966159,0.804552 1.028664,0.385862 3.108872,0.63644 6.203622,0.747279 4.065369,0.145602 4.848521,0.08055 6.173611,-0.512819 4.607913,-2.063411 6.079494,-2.336313 12.611012,-2.338712 3.405985,-0.0014 8.437983,0.04648 11.18222,0.106059 5.434547,0.117997 4.264227,0.355575 13.178537,-2.675287 l 2.99861,-1.019527 8.29028,0.113421 c 8.640403,0.118212 9.567663,0.287503 9.044363,1.651222 -0.22246,0.579717 -1.21381,0.574612 -5.86936,-0.03023 -3.073023,-0.399245 -10.622663,-0.472461 -11.517743,-0.1117 -0.55323,0.222984 -1.32337,0.533915 -1.71143,0.690958 -0.38805,0.157043 -1.26118,0.455761 -1.94028,0.663811 -0.67909,0.208055 -2.58409,0.803907 -4.23333,1.324113 -2.49097,0.78571 -3.74513,0.958617 -7.408333,1.021359 -2.425347,0.04154 -5.044722,-0.08996 -5.820833,-0.292238 -1.823459,-0.47523 -9.71331,-0.425104 -11.994445,0.0762 -2.007899,0.441262 -4.236749,1.194675 -6.484243,2.191847 -1.228478,0.545056 -2.39044,0.690908 -5.666733,0.711306 -2.26676,0.01411 -4.666975,-0.137873 -5.333813,-0.337739 -5.513332,-1.652481 -9.457765,-1.817708 -13.03049,-0.545835 -1.002182,0.356775 -2.953244,0.590331 -5.291667,0.633458 -2.037292,0.03757 -4.139251,0.189107 -4.671018,0.336741 -0.733037,0.203514 -1.019432,0.131409 -1.184271,-0.298158 z m -68.854655,-20.737083 c -0.499685,-0.499685 0.06222,-1.348948 0.892518,-1.348948 1.236334,0 7.069339,-2.262642 8.268264,-3.20729 1.523863,-1.200672 2.04916,-1.287427 2.04916,-0.33844 0,1.077496 -1.950474,2.259919 -6.350001,3.849528 -4.593036,1.659523 -4.307064,1.598027 -4.859941,1.04515 z m 171.041524,-0.791778 c -0.27425,-0.330454 -0.17568,-0.628389 0.37087,-1.120983 0.66448,-0.598886 1.33655,-0.671047 6.26056,-0.6722 3.45863,-7.06e-4 5.86155,-0.155769 6.44212,-0.415442 0.50928,-0.227785 2.17615,-0.44003 3.70417,-0.471657 1.52801,-0.03164 4.93631,-0.220673 7.574,-0.420102 5.15512,-0.389766 6.31671,-0.180537 6.31671,1.137793 0,0.825567 -1.34155,1.251194 -2.74055,0.869481 -1.66304,-0.453757 -12.02112,-0.03543 -14.33373,0.578891 -0.84678,0.224938 -2.949,0.271565 -5.46806,0.121274 -3.21484,-0.191798 -4.48482,-0.127592 -5.92247,0.299431 -1.47714,0.43875 -1.90213,0.456784 -2.20362,0.09351 z m -262.13714,-1.22865 c -0.47037,-0.321191 -0.47037,-0.419252 0,-0.882566 0.37062,-0.365061 1.42759,-0.540678 3.52778,-0.586137 1.64924,-0.0357 3.4761,-0.258974 4.05971,-0.496167 0.70225,-0.285415 2.55144,-0.39158 5.46805,-0.31393 3.7089,0.09874 4.96576,-0.01672 7.93474,-0.729009 3.9998,-0.959576 9.70139,-1.507288 9.70139,-0.931947 0,0.439724 -0.81019,0.619732 -4.05695,0.901393 -1.35819,0.117825 -3.50132,0.53908 -4.7625,0.936121 -1.71189,0.538935 -3.76832,0.784049 -8.11388,0.967123 -3.5843,0.150999 -6.12976,0.416514 -6.62483,0.691028 -1.05215,0.583402 -6.43842,0.918721 -7.13351,0.444091 z m 85.019446,-0.353949 c 0,-0.631522 0.661663,-1.273691 4.017257,-3.898883 1.573392,-1.230912 1.91335,-1.304216 2.229362,-0.480702 0.234064,0.609967 -1.023504,1.906171 -3.9183,4.038688 -1.600239,1.178853 -2.328319,1.285452 -2.328319,0.340897 z m -50.182636,-3.498353 c -0.33955,-0.06273 -0.61737,-0.283972 -0.61737,-0.491638 0,-0.25587 1.17405,-0.317652 3.64237,-0.191679 2.6891,0.137245 3.95166,0.05585 4.82416,-0.311008 0.71003,-0.298546 1.309959,-0.368741 1.502854,-0.175846 0.686181,0.686181 -2.630264,1.485995 -5.736044,1.38334 -1.64924,-0.05451 -3.27643,-0.150438 -3.61597,-0.213169 z m 12.956677,-6.211771 c -0.81171,-0.81171 -0.910841,-1.12933 -0.701785,-2.248588 0.286022,-1.531317 0.355061,-1.631544 0.894289,-1.298282 0.245141,0.151504 0.327222,0.693518 0.20569,1.35824 -0.111234,0.608369 -0.069,1.316602 0.09386,1.573851 0.503114,0.79471 2.895459,0.869273 5.689455,0.17732 2.427059,-0.601077 2.784239,-0.611081 4.319676,-0.120985 1.948173,0.621838 2.413543,1.688691 0.531019,1.217348 -1.328653,-0.332662 -3.172876,-0.32457 -7.204255,0.03161 -2.810648,0.248331 -2.906364,0.231066 -3.827953,-0.690524 z m 54.512071,-0.917378 c -1.067153,-0.334698 -2.573592,-0.746901 -3.347643,-0.916001 -0.951516,-0.207871 -1.448509,-0.522916 -1.534386,-0.972651 -0.107981,-0.565492 0.02364,-0.630805 0.878198,-0.435758 0.55287,0.126192 2.08987,0.406961 3.415552,0.623933 2.336494,0.382415 2.896056,0.765814 2.646585,1.813387 -0.09906,0.415961 -0.429933,0.39781 -2.058306,-0.11291 z m -10.995185,-1.336449 c -1.319523,-0.537884 -2.713041,-3.238398 -1.67108,-3.238398 0.73139,0 4.199598,2.782733 4.199598,3.369564 0,0.238651 -1.857704,0.142286 -2.528518,-0.131166 z m -36.982595,-1.462098 c 0,-0.187202 0.312519,-0.507619 0.694485,-0.712043 0.381971,-0.204424 1.117586,-1.093639 1.634709,-1.976039 0.611509,-1.04346 1.060613,-1.483967 1.284588,-1.259992 0.619449,0.61945 -2.301579,4.288441 -3.414201,4.288441 -0.109771,0 -0.199581,-0.153165 -0.199581,-0.340367 z m -8.456373,-1.921492 c -0.429394,-1.301077 -0.919191,-1.618697 -2.496175,-1.618697 -1.4668,0 -1.79654,-0.885137 -1.53891,-4.130911 0.11998,-1.51154 0.29686,-2.878003 0.39307,-3.036584 0.0962,-0.158581 -0.16028,-0.375987 -0.56997,-0.483126 -0.40971,-0.107138 -0.83146,-0.53963 -0.93724,-0.961093 -0.33554,-1.336912 -0.008,-4.904049 0.46463,-5.059952 0.32228,-0.106313 0.44097,0.467991 0.44097,2.133794 0,2.517913 0.22394,2.859991 2.11666,3.233194 2.088103,0.411734 2.469449,0.574252 2.469449,1.05241 0,0.520789 -1.828966,0.990526 -2.641969,0.678544 -0.53532,-0.205419 -0.54685,-0.134821 -0.68422,4.192474 -0.0177,0.557926 0.20429,0.826411 0.7472,0.903683 0.676815,0.09633 0.785964,-0.07492 0.881948,-1.383693 0.06482,-0.883839 0.309897,-1.559603 0.600301,-1.655234 0.373856,-0.123108 0.433729,0.06563 0.251343,0.792304 -0.272351,1.085134 1.253614,4.634269 2.330299,5.419887 0.929618,0.678311 0.770784,1.126526 -0.399211,1.126526 -0.860361,0 -1.096705,-0.199168 -1.428175,-1.203526 z m 5.281373,-0.825377 c -0.873125,-0.883758 -2.124329,-1.831523 -2.780453,-2.10615 -0.875009,-0.366244 -1.088458,-0.603815 -0.800877,-0.891396 0.287578,-0.287577 0.622025,-0.269007 1.254877,0.06968 1.397727,0.748044 4.518459,3.843905 4.273811,4.239753 -0.277301,0.448684 -0.06997,0.58836 -1.947358,-1.311892 z m 55.386113,0.841287 c -1.649236,-0.437808 -3.395486,-1.011527 -3.880556,-1.274932 -0.485069,-0.263405 -2.231319,-0.833998 -3.880555,-1.267989 -1.649236,-0.433991 -4.268612,-1.123125 -5.820834,-1.531408 -1.552222,-0.408284 -3.255617,-0.985976 -3.785323,-1.283759 -0.529707,-0.297787 -1.799707,-0.628706 -2.822222,-0.735379 -2.282261,-0.238097 -4.373941,-1.104932 -3.873582,-1.605291 0.561855,-0.561855 4.722153,0.244472 9.307661,1.803961 2.265014,0.770312 5.360639,1.643525 6.879167,1.940475 1.518532,0.296955 4.030966,0.897746 5.583188,1.335092 2.343274,0.66023 3.750184,0.80035 8.290279,0.825679 3.00743,0.01679 6.499931,-0.10306 7.761111,-0.266308 1.261181,-0.163248 2.594536,-0.301184 2.963009,-0.306522 0.749032,-0.01086 1.5185,0.60119 1.180617,0.939074 -0.463706,0.463709 -5.44647,1.190272 -8.169364,1.191221 -1.569385,7.06e-4 -3.409054,0.151638 -4.088151,0.335756 -0.679097,0.184115 -1.552223,0.416116 -1.940278,0.515553 -0.388056,0.09944 -2.054931,-0.177412 -3.704167,-0.615223 z m -27.272711,0.225774 c -0.408958,-0.100108 -0.598922,-0.415911 -0.529167,-0.879715 0.103597,-0.688802 0.327639,-0.72179 4.666005,-0.687006 2.506447,0.02011 4.710342,0.189699 4.897536,0.376893 0.562325,0.562325 -0.01845,1.560562 -0.726443,1.248601 -0.664362,-0.292735 -0.668295,-0.292784 -4.847721,-0.05988 -1.552222,0.0865 -3.109316,0.087 -3.46021,0.0011 z m -11.345517,-0.784348 c -0.113902,-0.184291 0.154545,-0.520372 0.59654,-0.746845 0.441999,-0.226469 1.041756,-0.680487 1.332798,-1.008923 0.755216,-0.852251 5.586737,-2.341305 6.060288,-1.867754 0.618822,0.618822 0.01672,1.069792 -1.982385,1.484806 -1.048861,0.217742 -2.097405,0.625295 -2.330101,0.905676 -0.232696,0.280384 -0.622332,0.509785 -0.865858,0.509785 -0.243526,0 -0.640401,0.238125 -0.881944,0.529167 -0.492305,0.593189 -1.613002,0.705929 -1.929338,0.194088 z m -11.59381,-4.838997 c -0.459373,-0.459369 -0.224973,-1.096306 0.47037,-1.278142 0.415992,-0.108782 0.705555,-0.481192 0.705555,-0.907422 0,-0.397605 0.396875,-1.307744 0.881945,-2.022535 1.077521,-1.587817 1.112816,-2.576389 0.136306,-3.817821 -0.708893,-0.901213 -0.778425,-0.918245 -1.411111,-0.345676 -0.719752,0.651369 -0.939426,0.202402 -0.24214,-0.494884 0.644381,-0.64438 1.49061,-0.508755 2.311245,0.370417 1.252569,1.341924 1.331782,2.520096 0.301865,4.489781 -0.505876,0.967472 -0.919776,2.070457 -0.919776,2.451083 0,0.380626 -0.352824,0.939172 -0.784053,1.241217 -0.869428,0.608968 -1.104356,0.659835 -1.450206,0.313982 z m 20.451129,-1.705091 c -0.134031,-0.349282 -0.686513,-0.529167 -1.625244,-0.529167 -1.07453,0 -1.422181,-0.1394 -1.422181,-0.570265 0,-0.49337 0.32108,-0.53678 2.38125,-0.321931 2.662248,0.277636 3.243065,0.595475 2.570046,1.406412 -0.575942,0.69397 -1.640099,0.702328 -1.903871,0.01496 z m 3.823811,-3.364223 c -0.457542,-0.740318 0.309778,-0.86911 5.177981,-0.86911 3.852915,0 5.060505,0.106799 5.060505,0.447555 0,0.555804 -9.903506,0.963566 -10.238486,0.421555 z m -28.439795,-0.662354 c -0.458058,-0.371356 -0.727541,-0.780913 -0.598855,-0.910132 0.277802,-0.278955 2.059079,0.822396 2.059079,1.273115 0,0.502761 -0.565841,0.362105 -1.460224,-0.362983 z m -2.242337,-1.086104 c -0.122943,-0.198928 -0.103491,-0.717455 0.04323,-1.152282 0.14672,-0.434827 0.226363,-1.068405 0.176985,-1.407954 -0.06163,-0.42376 0.166088,-0.63489 0.72614,-0.673255 2.108655,-0.144456 3.895873,0.491783 3.593666,1.279324 -0.27965,0.728754 -0.675467,0.681351 -1.905741,-0.228233 -1.560219,-1.15352 -1.777968,-0.392614 -0.254624,0.889755 1.673228,1.408543 1.710496,1.941202 0.06802,0.972118 -1.489706,-0.87895 -1.567335,-0.890443 -1.567335,-0.232058 0,0.653373 -0.5894,1.023335 -0.880339,0.552585 z m 9.004445,-3.163817 c -0.285422,-0.180506 -0.404139,-0.443005 -0.263814,-0.583333 0.140324,-0.140324 -0.0079,-0.545832 -0.329477,-0.901125 -0.714308,-0.789301 -0.210136,-0.832534 0.759463,-0.06512 0.507259,0.401482 0.577483,0.606266 0.249859,0.728641 -0.349988,0.130729 -0.360426,0.285006 -0.045,0.665075 0.474997,0.572339 0.362341,0.619661 -0.371034,0.155861 z m -4.704193,-1.25965 c -0.971621,-0.854795 -2.264336,-1.216882 -1.828857,-0.512265 0.121871,0.197192 0.331431,0.290647 0.465685,0.207673 0.134253,-0.08297 0.550499,0.07319 0.924993,0.347024 0.832228,0.608538 0.534678,0.62495 -1.353305,0.07464 -0.798621,-0.232784 -1.575301,-0.623066 -1.725954,-0.867294 -0.15065,-0.244228 -0.507838,-0.354284 -0.79375,-0.24457 -0.285909,0.109714 -0.519836,0.04226 -0.519836,-0.149895 0,-0.192158 0.282773,-0.423323 0.628382,-0.513701 0.869657,-0.227422 5.438532,0.582792 6.272632,1.112343 0.595563,0.378115 0.601144,0.408189 0.04328,0.233271 -0.512374,-0.160655 -0.595796,-0.06017 -0.417198,0.502529 0.309837,0.97622 -0.4699,0.888982 -1.696071,-0.189756 z m -11.565903,-0.473075 -0.81582,-0.660608 1.80042,0.172999 c 1.538024,0.147782 1.855115,0.0708 2.175695,-0.528208 0.690693,-1.290574 4.093174,-2.357515 7.45225,-2.336863 4.770607,0.02932 6.72917,0.861265 6.694449,2.843572 -0.01055,0.602714 -0.04149,0.600545 -0.523656,-0.0367 -0.281838,-0.372487 -0.951477,-0.966755 -1.488087,-1.320592 -1.104103,-0.728045 -3.115247,-0.903125 -2.702486,-0.235263 0.182636,0.295514 0.06332,0.325613 -0.420155,0.105985 -0.371376,-0.168709 -1.765688,-0.368205 -3.098469,-0.443326 -2.371372,-0.133653 -2.450655,-0.109946 -3.704166,1.107737 -2.074327,2.015031 -3.951002,2.480278 -5.369975,1.331263 z m 1.990018,-2.14321 c 0.591774,-0.590426 2.980972,-1.457205 2.980972,-1.081468 0,0.196631 -0.287158,0.357512 -0.638129,0.357512 -0.350972,0 -0.946284,0.233077 -1.322917,0.517948 -0.771024,0.583174 -1.557083,0.741945 -1.019926,0.206008 z m 11.624028,-2.158996 c -0.93448,-0.598579 -0.970016,-0.678131 -0.303664,-0.679771 0.415064,-0.0011 1.129439,0.310363 1.5875,0.691963 1.101573,0.917705 0.153839,0.908703 -1.283836,-0.01221 z m 47.272224,-3.222128 c -7.726956,-1.434278 -11.251915,-1.63268 -14.406983,-0.810888 -2.489563,0.648448 -3.51584,0.675707 -3.320394,0.08819 0.415583,-1.249243 15.355923,-1.57957 17.293076,-0.382344 0.535573,0.331004 5.052674,0.183222 6.543791,-0.214087 2.021597,-0.538656 8.29423,-0.697551 12.764122,-0.323331 3.531436,0.295652 16.2663511,0.404936 22.8388271,0.195992 1.303898,-0.04145 2.16681,0.07187 2.116667,0.277968 -0.04656,0.191371 -0.799035,0.366042 -1.67216,0.388161 -0.87312497,0.02212 -2.8575,0.189456 -4.409722,0.371863 -3.216046,0.377928 -15.6839331,0.395489 -16.2867281,0.02293 -0.448045,-0.276906 -11.230286,-0.374668 -13.2265,-0.119923 -0.710054,0.09061 -1.599572,0.329889 -1.976709,0.531728 -0.749932,0.401351 -4.027661,0.387586 -6.257287,-0.02628 z m 97.190281,-8.734792 c 0,-0.50528 0.356895,-0.781685 1.322917,-1.024558 4.898944,-1.231664 10.734933,-1.581852 14.022917,-0.841442 2.059662,0.463804 6.095584,1.110925 8.113892,1.300981 0.77611,0.07308 3.31611,-0.08999 5.64444,-0.362391 2.32834,-0.272394 6.93209,-0.514742 10.23056,-0.538547 3.29847,-0.02381 7.584723,-0.06395 9.525003,-0.08921 2.92103,-0.03803 3.52778,0.04509 3.52778,0.483239 0,0.348615 -0.30092,0.504402 -0.88195,0.456579 -0.48507,-0.03992 -2.62819,-0.05397 -4.7625,-0.03122 -2.1343,0.02275 -5.468053,0.005 -7.408333,-0.03932 -1.94028,-0.04438 -5.19466,0.161029 -7.23195,0.456462 -5.09873,0.739384 -9.15653,0.781135 -12.699997,0.130676 -7.254618,-1.331704 -8.773023,-1.476713 -10.88818,-1.039837 -1.116873,0.230688 -2.461652,0.419432 -2.988398,0.419432 -0.526743,0 -1.861062,0.3175 -2.965147,0.705555 -2.473604,0.869407 -2.561054,0.869873 -2.561054,0.0136 z M -108.94948,-107.19162 c -1.50459,-2.03358 -3.97799,-6.42749 -3.74774,-6.65774 0.0914,-0.0914 0.84832,0.83334 1.68192,2.0551 0.8336,1.22177 2.12262,2.98971 2.86449,3.92877 0.74187,0.93905 1.34886,1.85186 1.34886,2.02847 0,0.81312 -1.01947,0.17007 -2.14753,-1.3546 z m 116.9563491,-5.79752 c -8.05292597,-1.82867 -7.07781297,-1.73887 -10.690553,-0.98451 -1.816411,0.37927 -3.443599,0.60243 -3.615973,0.49589 -0.764607,-0.47255 -0.181515,-1.19589 1.36229,-1.68995 4.31350303,-1.38044 4.38949503,-1.37771 12.435418,0.44671 2.138076,0.48481 3.8622569,0.68188 4.7624999,0.54434 1.499813,-0.22915 4.823174,-1.1128 5.997222,-1.59461 1.703137,-0.69895 4.742554,-1.09078 6.879167,-0.88684 5.298835,0.50577 10.180373,0.59809 12.012955,0.22718 1.056972,-0.21392 3.033018,-0.55506 4.391212,-0.75808 3.368866,-0.50358 5.362971,-0.89363 7.174654,-1.40341 1.210127,-0.34051 2.021844,-0.33833 3.880556,0.0104 2.585374,0.48508 4.184011,0.51326 9.304694,0.164 1.884616,-0.12854 3.829304,-0.13264 4.321528,-0.009 0.901894,0.22636 1.273665,1.2677 0.453986,1.27162 -0.242535,0.001 -3.068278,0.0824 -6.279427,0.18064 -3.211149,0.0982 -6.633591,0.0277 -7.605427,-0.15657 -1.110986,-0.21069 -2.283164,-0.21142 -3.157383,-0.002 -0.764719,0.18323 -3.216028,0.57802 -5.447347,0.87732 -2.23132,0.2993 -4.691945,0.71699 -5.468056,0.9282 -2.539711,0.69116 -8.762464,0.8728 -13.758334,0.4016 -3.034125,-0.28617 -3.323699,-0.2495 -6.526389,0.82647 -4.933481,1.65744 -7.034068,1.88118 -10.4272929,1.11064 z"
       id="path8672"
       inkscape:connector-curvature="0" />
  </g>
</svg>
