<?xml version="1.0" encoding="UTF-8" standalone="no"?>
<svg
   xmlns:dc="http://purl.org/dc/elements/1.1/"
   xmlns:cc="http://creativecommons.org/ns#"
   xmlns:rdf="http://www.w3.org/1999/02/22-rdf-syntax-ns#"
   xmlns:svg="http://www.w3.org/2000/svg"
   xmlns="http://www.w3.org/2000/svg"
   id="svg8"
   version="1.1"
   viewBox="0 0 91.418346 78.662055"
   height="78.662056mm"
   width="91.418343mm">
  <defs
     id="defs2" />
  <metadata
     id="metadata5">
    <rdf:RDF>
      <cc:Work
         rdf:about="">
        <dc:format>image/svg+xml</dc:format>
        <dc:type
           rdf:resource="http://purl.org/dc/dcmitype/StillImage" />
        <dc:title></dc:title>
      </cc:Work>
    </rdf:RDF>
  </metadata>
  <g
     transform="translate(-26.416555,-11.096413)"
     id="layer1">
    <path
       id="path5491"
       d="m 53.035417,89.200474 c -0.582083,-0.317524 -1.336146,-0.894796 -1.675694,-1.28283 -0.598859,-0.684364 -0.703413,-1.171727 -0.809328,-3.772553 -0.112177,-2.754605 -0.101876,-2.732645 -1.395534,-2.975335 -1.446354,-0.271339 -1.613618,-1.033938 -0.529166,-2.412594 0.388055,-0.493331 0.705555,-1.070366 0.705555,-1.282298 0,-0.358171 -16.528575,-0.691091 -21.254862,-0.428117 -1.640336,0.09127 -2.030458,-0.166892 -1.322308,-0.87504 0.220229,-0.220232 1.250416,-0.253644 2.734027,-0.08867 1.309354,0.145594 6.309705,0.27287 11.111893,0.282832 l 8.73125,0.01811 v -1.234722 c 0,-1.183061 -0.05535,-1.236733 -1.322916,-1.282781 -0.727605,-0.02642 -1.922394,-0.09932 -2.655088,-0.161975 -8.210544,-0.702105 -15.146933,-1.201077 -16.696581,-1.201077 -1.456543,0 -1.903194,-0.124189 -1.903194,-0.529167 0,-0.60966 0.388951,-0.631649 3.527778,-0.19945 1.261181,0.173658 4.198056,0.418828 6.52639,0.544826 2.328333,0.125999 4.788958,0.286326 5.468055,0.356285 0.679098,0.06996 2.742848,0.224935 4.586112,0.344385 1.843264,0.119451 3.748264,0.288865 4.233333,0.376474 0.48507,0.08761 3.97757,0.404848 7.761113,0.704977 3.783542,0.300126 7.434792,0.619481 8.113889,0.709676 0.679097,0.0902 4.727223,0.478691 8.995834,0.863325 4.26861,0.38463 9.64264,0.875838 11.942289,1.091568 4.93599,0.463056 5.244896,0.33413 4.287344,-1.789338 C 91.471546,73.371304 91.381651,73.337321 87.078475,73.0426 85.429238,72.929644 82.651113,72.682608 80.904863,72.493632 76.045,71.967703 67.915893,71.024171 67.322919,70.917198 65.854118,70.65223 47.889675,69.0092 44.215972,68.803837 42.857778,68.727917 39.68375,68.418011 37.162578,68.115165 34.641406,67.81232 31.525531,67.564536 30.238412,67.564536 c -1.64155,0 -2.470294,-0.156736 -2.77592,-0.524994 -0.743363,-0.895695 0.377002,-0.99152 4.835323,-0.413572 2.286376,0.296394 5.823921,0.639001 7.861213,0.761348 3.25514,0.195488 6.561386,0.557833 9.566213,1.048402 0.865699,0.141337 0.935139,0.04755 1.115644,-1.506763 0.105867,-0.911613 -0.01747,-3.483102 -0.274082,-5.714421 -0.265276,-2.306655 -0.398382,-5.959433 -0.308524,-8.466667 0.08692,-2.425347 0.155837,-4.727222 0.15314,-5.115278 -0.0027,-0.388055 0.241117,-1.456446 0.541808,-2.374201 0.67113,-2.04839 0.448279,-2.821494 -1.310144,-4.5451 -1.1221,-1.099882 -1.370166,-1.589048 -1.370166,-2.701856 0,-0.74735 -0.342883,-2.063324 -0.761962,-2.924386 -0.63912,-1.31317 -0.758918,-2.166917 -0.743078,-5.29561 0.01661,-3.280507 0.127682,-3.944743 0.921639,-5.511544 0.877531,-1.731723 1.754746,-2.495045 4.824345,-4.197976 0.733199,-0.406759 2.18237,-1.581187 3.220378,-2.609839 2.434691,-2.412744 4.72688,-3.465681 8.180063,-3.757581 3.570471,-0.301816 3.540168,0.314925 -0.04112,0.836903 -2.941465,0.428723 -5.819311,1.6599 -6.973983,2.983554 -1.431927,1.641482 -2.360159,3.806261 -2.13831,4.986864 0.300074,1.596898 0.346317,1.718261 1.070145,2.808587 0.358243,0.539632 0.550471,1.082028 0.427174,1.205324 -0.28289,0.28289 -0.29337,0.269829 -1.410673,-1.758017 -1.010654,-1.834285 -1.158808,-3.044305 -0.519636,-4.244008 0.361509,-0.67854 0.345025,-0.716541 -0.138037,-0.318219 -0.758462,0.62541 -1.113329,3.360509 -0.627146,4.833659 0.21875,0.662818 0.922671,1.66603 1.564269,2.229361 0.641598,0.563331 1.24536,1.245953 1.341691,1.516939 0.09633,0.270986 0.35976,-0.175283 0.585395,-0.991709 0.225635,-0.816426 0.564682,-1.579857 0.753437,-1.696514 0.188755,-0.116657 0.343191,-0.620559 0.343191,-1.119783 0,-0.499224 0.340428,-1.458503 0.756507,-2.131732 0.50793,-0.82185 0.629967,-1.302259 0.371398,-1.462062 -0.24863,-0.153663 -0.268601,-0.422237 -0.05635,-0.757865 0.272038,-0.430166 0.329689,-0.406907 0.334158,0.134814 0.0044,0.538092 0.187654,0.459569 1.028884,-0.440973 0.96454,-1.032544 1.803358,-1.420907 1.794983,-0.831058 -0.0021,0.145521 -0.535898,0.781509 -1.186293,1.413307 -1.743206,1.693356 -2.690867,5.008293 -2.62038,9.166134 0.03039,1.792615 -0.05233,3.366886 -0.183825,3.498379 -0.131493,0.131493 -0.263258,-0.144567 -0.292812,-0.613468 -0.02955,-0.4689 -0.09062,-1.011296 -0.135696,-1.205324 -0.04508,-0.194028 -0.110303,-0.987778 -0.144941,-1.763889 -0.06092,-1.364914 -0.09574,-1.318718 -1.063822,1.411111 -1.959939,5.526718 -2.286376,7.081386 -1.816321,8.650289 0.426992,1.425174 0.273723,2.295823 -0.337642,1.917979 -0.180621,-0.111629 -0.328401,-0.590469 -0.328401,-1.064087 0,-1.450796 -0.515326,-0.959045 -0.960969,0.917007 -0.23231,0.977972 -0.73077,2.211224 -1.107689,2.740556 -0.533136,0.748722 -0.643533,1.333038 -0.497176,2.631507 0.103471,0.917999 0.0027,2.34381 -0.223977,3.168474 -0.457848,1.665813 -0.07905,6.253667 0.816005,9.883232 0.396244,1.606814 0.410677,2.125306 0.06874,2.469444 -0.255015,0.256657 -0.454825,1.543008 -0.4864,3.131376 l -0.05359,2.695779 1.134332,0.178506 c 0.626458,0.09858 1.315145,-0.0028 1.538176,-0.226335 0.538944,-0.540273 1.235251,-6.806012 0.9717,-8.743862 -0.126372,-0.929196 0.0083,-2.377246 0.33999,-3.65542 0.593297,-2.28636 0.696482,-3.587073 0.5877,-7.408333 -0.09366,-3.289886 0.461328,-5.709808 1.08064,-4.711969 0.485924,0.782924 1.532358,-0.58333 2.974323,-3.883355 0.709175,-1.622984 1.643669,-3.617155 2.076655,-4.431493 l 0.787252,-1.480614 -1.736083,1.168299 c -0.95485,0.642564 -1.878884,1.168298 -2.053414,1.168298 -0.664945,0 -0.263624,-0.561814 1.007999,-1.411111 2.323296,-1.55169 4.481844,-3.249719 4.879181,-3.838222 0.212221,-0.314325 0.688965,-1.441545 1.059424,-2.504933 0.39449,-1.132355 1.216699,-2.4794 1.984439,-3.251147 1.579026,-1.58727 4.629795,-3.200608 5.685645,-3.006738 0.667943,0.122645 0.616934,0.19747 -0.403542,0.591926 -0.871824,0.336998 -1.106403,0.597471 -0.924772,1.026852 0.49137,1.161605 0.581064,2.162818 0.19376,2.162818 -0.216648,0 -0.393905,-0.218687 -0.393905,-0.485971 0,-0.267284 -0.237091,-0.682738 -0.526867,-0.923232 -0.423047,-0.351098 -0.761047,-0.326135 -1.71529,0.126683 -0.653634,0.310169 -1.367741,0.780009 -1.586907,1.044089 -0.340734,0.410556 -2.520936,5.387712 -2.520936,5.755007 0,0.07033 0.797154,0.127868 1.771452,0.127868 1.28711,0 2.131092,-0.236401 3.086806,-0.864618 0.723445,-0.475541 2.002402,-1.017068 2.842126,-1.203395 0.839728,-0.186327 1.597346,-0.409348 1.6836,-0.495602 0.08625,-0.08625 -0.40127,-0.536914 -1.083391,-1.001466 -1.57607,-1.073372 -1.736993,-2.057081 -0.186704,-1.141302 0.582083,0.343845 1.058333,0.732711 1.058333,0.864146 0,0.131435 0.198438,0.314561 0.440973,0.406946 0.309822,0.118016 0.443567,-0.284382 0.449706,-1.353002 0.0066,-1.145413 -0.140822,-1.560085 -0.596956,-1.679367 -0.508515,-0.13298 -0.592053,-0.542781 -0.520693,-2.554342 0.05264,-1.483896 0.246306,-2.449721 0.508759,-2.537206 0.240026,-0.08001 0.423766,-0.782797 0.423766,-1.620861 0,-0.813784 0.254317,-1.842696 0.56515,-2.286471 0.310833,-0.443775 0.509005,-0.863007 0.44039,-0.931625 -0.239772,-0.239773 -6.135239,-0.949967 -7.796512,-0.939203 -1.628221,0.01055 -2.233073,-0.462556 -1.131697,-0.885194 0.629289,-0.24148 6.978573,0.529907 8.252439,1.002606 0.6422,0.238303 0.933471,0.185546 1.154313,-0.209077 0.162454,-0.290292 0.499191,-0.734079 0.748302,-0.986191 0.24911,-0.252113 0.561033,-0.743782 0.693166,-1.092597 0.194709,-0.514021 0.477749,-0.589653 1.493524,-0.399093 0.898634,0.168585 1.224382,0.113845 1.151135,-0.193442 -0.275495,-1.15576 3.500381,-0.872018 3.88118,0.291656 0.125889,0.384695 -0.0044,0.378605 -0.679059,-0.03174 -0.551162,-0.335231 -1.194442,-0.421258 -1.893164,-0.253178 -0.630386,0.151641 -0.784924,0.271463 -0.382175,0.296324 0.371884,0.02296 0.568872,0.149025 0.437745,0.280151 -0.131128,0.131127 0.08408,0.581694 0.478246,1.001261 0.394166,0.419568 1.265136,1.78072 1.935495,3.024783 0.670355,1.244063 1.218949,2.023808 1.219097,1.732767 3.53e-4,-1.013693 -1.374683,-3.548672 -2.46567,-4.545133 -1.037202,-0.947341 -1.057712,-1.014051 -0.367245,-1.194612 0.402216,-0.105182 0.835367,-0.02287 0.962551,0.182926 0.145327,0.235142 0.04715,0.27399 -0.264231,0.104554 -0.272513,-0.148287 -0.06295,0.104997 0.465709,0.562854 1.474774,1.277272 2.365203,3.641946 2.438912,6.476911 0.0366,1.407816 0.128154,1.939239 0.212958,1.236138 0.08182,-0.678318 0.310166,-1.427794 0.507446,-1.665501 0.250924,-0.302347 0.06809,-1.203678 -0.608566,-3.000028 -0.531993,-1.412307 -1.125873,-2.770106 -1.319732,-3.017329 -0.193858,-0.247224 -0.237493,-0.564474 -0.09697,-0.705001 0.791715,-0.791716 2.754225,4.30434 2.703136,7.019242 -0.07996,4.248702 -0.97414,6.959765 -2.803127,8.498757 -1.583715,1.332608 -1.674731,2.130519 -0.389615,3.415635 0.604714,0.604714 1.24489,1.00961 1.422619,0.899769 0.177726,-0.109841 0.347317,0.24622 0.376869,0.791248 0.07944,1.464898 0.117175,1.627442 0.567411,2.443661 0.226671,0.410931 0.89402,0.843524 1.482994,0.961319 0.667695,0.13354 1.070864,0.430928 1.070864,0.789902 0,0.380054 -0.189657,0.502952 -0.558021,0.361598 -0.306909,-0.117775 -0.78027,-0.214134 -1.051916,-0.214134 -0.271643,0 -1.072547,-0.561946 -1.779785,-1.248769 -0.707239,-0.686823 -1.354427,-1.180232 -1.438194,-1.096464 -0.08377,0.08377 0.113273,0.764777 0.437868,1.513352 0.324594,0.748576 0.634195,2.392922 0.688001,3.654103 0.150714,3.532642 1.113705,8.224823 1.99433,9.71737 0.553043,0.937334 0.665279,1.389831 0.369207,1.488521 -0.250483,0.08349 -0.425379,0.814687 -0.425379,1.778391 0,1.486556 0.04406,1.572804 0.480568,0.940742 0.803677,-1.163711 0.985238,-3.695079 0.401842,-5.602619 -0.291296,-0.952468 -0.537983,-2.460593 -0.548192,-3.351389 -0.0102,-0.890795 -0.225401,-2.775369 -0.478205,-4.187941 -0.252807,-1.412573 -0.336751,-2.64427 -0.186538,-2.737106 0.323339,-0.199835 0.530059,0.743499 1.046653,4.776253 0.211268,1.649236 0.619901,4.030486 0.908078,5.291667 0.662401,2.898955 0.212842,5.947382 -0.993563,6.737258 -0.499777,0.327219 -0.458587,5.117726 0.0716,8.328036 0.405804,2.457125 0.54441,2.803676 0.917381,2.293609 0.241642,-0.330468 0.542707,-0.497494 0.669029,-0.371175 0.218701,0.218704 0.11823,0.50237 -0.822466,2.322068 -0.224321,0.433931 -0.407853,1.227681 -0.40785,1.763889 7e-6,0.911207 0.103763,0.97893 1.5875,1.036182 1.501116,0.05792 1.587444,0.0099 1.586572,-0.881944 -3.52e-4,-0.51876 0.223344,-1.975076 0.497449,-3.236257 0.274101,-1.26118 0.667272,-3.245555 0.873707,-4.409722 0.498426,-2.810827 0.152245,-11.163071 -0.548322,-13.229167 -0.296059,-0.873125 -0.625712,-3.230566 -0.732565,-5.238757 -0.167869,-3.154971 -0.307019,-3.785242 -1.023757,-4.637035 -0.956314,-1.136514 -1.057656,-1.576142 -0.295949,-1.283849 0.419625,0.161027 0.48617,0.01604 0.311693,-0.679121 -0.320379,-1.276495 -0.320022,-1.492288 0.0069,-4.160682 0.362261,-2.956901 0.01736,-4.258383 -1.924713,-7.263164 -0.788515,-1.21999 -1.373586,-2.278246 -1.300156,-2.351678 0.362229,-0.362229 2.738008,2.367052 3.409958,3.917344 1.031455,2.379712 1.23831,4.239392 0.739059,6.644271 -0.371225,1.788178 -0.336286,2.260004 0.311887,4.211696 0.452748,1.363263 0.786331,3.470605 0.878431,5.549309 0.08167,1.843264 0.381441,3.907014 0.666164,4.586111 0.325963,0.777459 0.609688,3.204005 0.766131,6.552272 0.254431,5.445464 -0.05768,8.281018 -1.428637,12.97921 -0.749988,2.570173 -0.673947,2.941411 0.645732,3.152464 2.340423,0.374294 2.550685,0.490823 2.865356,1.588022 0.352418,1.22881 -0.03108,1.130381 7.100617,1.822472 8.19726,0.795496 12.542,1.323026 12.76941,1.550437 0.67071,0.670704 -0.66876,0.827796 -3.22331,0.378019 -1.54061,-0.271251 -5.03311,-0.734946 -7.76111,-1.030425 -4.81645,-0.521692 -6.413,-0.752729 -7.694019,-1.113413 -0.399309,-0.11243 -0.617361,0.02148 -0.617361,0.379113 0,0.304119 0.155346,0.55294 0.345214,0.55294 0.210002,0 0.187823,0.34544 -0.05662,0.881945 -0.221015,0.485069 -0.542999,0.881944 -0.715525,0.881944 -0.18045,0 -0.177758,-0.242877 0.0063,-0.571835 0.342649,-0.612281 -0.666782,-3.812956 -1.219715,-3.867446 -0.16498,-0.01626 -0.746859,-0.214698 -1.293068,-0.440973 -1.134329,-0.469917 -2.010636,-0.53443 -1.994476,-0.146829 0.0061,0.14552 0.397274,1.053288 0.869344,2.017264 0.523585,1.069167 0.779522,2.066604 0.656279,2.557639 -0.121835,0.48544 -0.04242,0.804958 0.200064,0.804958 0.640489,0 0.788448,-0.82616 0.432043,-2.412401 -0.181941,-0.809759 -0.206787,-1.548937 -0.05521,-1.642618 0.342328,-0.211571 0.841078,3.555373 0.536077,4.048873 -0.122004,0.197408 -0.05371,0.358924 0.151772,0.358924 0.358416,0 0.43699,-0.175031 0.51471,-1.146528 0.0194,-0.242535 0.170731,-0.539845 0.336286,-0.660693 0.165551,-0.120844 0.11557,-0.566208 -0.111076,-0.989693 -0.226642,-0.423489 -0.344731,-0.959616 -0.262414,-1.191394 0.08232,-0.231779 0.357392,0.258367 0.61128,1.089215 0.351984,1.151869 0.363763,1.608476 0.0496,1.922639 -0.601225,0.601225 -0.503735,1.173861 0.205352,1.206165 1.642858,0.07484 10.228243,0.864633 10.847913,0.997927 0.38805,0.08347 2.1343,0.242845 3.88055,0.354168 4.10012,0.261373 5.46806,0.487433 5.46806,0.903622 0,0.412493 0.42153,0.433 -3.73022,-0.181461 -1.92595,-0.285041 -6.24785,-0.756674 -9.60422,-1.048068 -3.35636,-0.291394 -6.24258,-0.616394 -6.413808,-0.722221 -0.171231,-0.105826 -0.390694,-0.06399 -0.487698,0.09296 -0.097,0.156955 -1.2986,0.24915 -2.67021,0.204879 -2.232554,-0.07206 -2.493839,-0.01111 -2.493839,0.581509 0,0.364098 -0.159833,0.760779 -0.355184,0.881514 -0.333728,0.206255 -2.38644,-1.00741 -2.859469,-1.690659 -0.118822,-0.17163 -2.817573,-0.314488 -5.997222,-0.317469 -3.17965,-0.0028 -6.733682,-0.1339 -7.897848,-0.290936 -1.550783,-0.209186 -0.631225,-0.265694 3.439583,-0.211366 3.055938,0.04078 5.55625,-0.02833 5.55625,-0.153547 0,-0.125232 -1.865312,-0.331103 -4.145139,-0.457489 -2.279826,-0.126383 -4.985628,-0.332479 -6.012892,-0.457983 l -1.867757,-0.228195 0.414828,0.910442 c 0.928412,2.037648 -0.701386,2.608517 -3.734873,1.308213 -1.42851,-0.61233 -2.429845,-0.705555 -7.578447,-0.705555 h -5.932454 l -0.126259,1.5875 -0.126259,1.5875 9.351153,0.02808 c 8.60817,0.02586 19.859403,0.127483 44.010644,0.397541 5.44131,0.06084 9.21519,0.23761 9.15204,0.428675 -0.0624,0.188722 -2.83716,0.273025 -6.61366,0.200935 -3.57842,-0.0683 -17.777452,-0.135237 -31.553425,-0.148742 l -25.047224,-0.02455 -0.11273,0.79375 c -0.062,0.436562 -0.339814,0.79375 -0.617361,0.79375 -0.277547,7e-6 -0.504631,0.158757 -0.504631,0.352785 0,0.570646 -1.053265,0.403461 -1.11125,-0.176389 -0.0291,-0.291042 -0.06879,-0.727604 -0.08819,-0.970139 -0.0194,-0.242535 -0.181476,-0.546488 -0.360161,-0.67545 -0.184925,-0.133462 -0.07094,-0.622035 0.264583,-1.134113 0.324207,-0.494803 0.589467,-1.451483 0.589467,-2.125955 0,-0.674473 0.182912,-1.33936 0.406471,-1.477529 0.294799,-0.182196 0.343259,0.15131 0.176389,1.213905 -0.126546,0.805811 -0.315839,2.139802 -0.420653,2.96442 l -0.19057,1.499305 0.71945,-1.763889 c 0.395697,-0.970138 0.719579,-2.209821 0.719736,-2.754848 1.58e-4,-0.545028 0.132569,-0.909204 0.294247,-0.809283 0.161677,0.09992 0.246214,0.704606 0.187861,1.343738 -0.08079,0.884861 -0.01747,0.792963 0.265462,-0.385251 0.204358,-0.851024 0.274085,-2.066904 0.154948,-2.701957 -0.210952,-1.124476 -0.269354,-1.158029 -2.235116,-1.28421 -2.261562,-0.145165 -2.534501,0.05179 -2.542268,1.834536 -0.003,0.681969 -0.341173,1.872594 -0.751561,2.645833 l -0.746158,1.405887 0.917146,-0.85017 c 0.504431,-0.467593 1.014561,-1.369434 1.133624,-2.004092 0.149206,-0.795337 0.370136,-1.094951 0.710956,-0.96417 0.538914,0.206802 0.720022,3.461012 0.210155,3.776127 -0.335833,0.207557 -0.272561,5.72263 0.07834,6.828215 0.228141,0.718806 2.192156,2.209923 2.910787,2.209923 0.180655,0 0.52938,-0.555625 0.774945,-1.234722 0.245564,-0.679097 0.594955,-1.234722 0.776425,-1.234722 0.181469,0 0.329943,-1.143 0.329943,-2.54 0,-2.682364 0.47597,-2.9424 0.839435,-0.458611 0.146457,1.000837 -0.03093,2.077804 -0.610131,3.704166 -0.916179,2.572597 -1.627224,2.945998 -3.580694,1.880383 z m 1.209928,-8.692176 c 0.01364,-0.156972 -0.133955,-0.18729 -0.327983,-0.06737 -0.194028,0.119916 -0.34162,0.565848 -0.327983,0.990959 0.0239,0.745194 0.03567,0.747614 0.327983,0.06737 0.166753,-0.388056 0.314345,-0.833988 0.327983,-0.990959 z m -3.298871,-0.757791 c 0.361322,-1.439619 0.01782,-1.576077 -0.805232,-0.319881 -0.747362,1.140678 -0.751042,1.186688 -0.09492,1.186688 0.430707,0 0.762873,-0.319864 0.900147,-0.866807 z M 90.95903,77.97148 c -0.241543,-0.291041 -0.697544,-0.524118 -1.013333,-0.517948 -0.48236,0.0094 -0.464675,0.09404 0.110621,0.529167 0.891307,0.674151 1.465594,0.667014 0.902712,-0.01122 z M 72.253962,77.530508 c -0.0043,-0.145521 -0.282127,-0.602509 -0.617361,-1.015527 -0.468796,-0.577575 -1.165906,-0.804499 -3.019474,-0.982906 -2.847263,-0.274052 -2.877344,0.138737 -0.102084,1.400838 1.769689,0.804799 3.75447,1.122027 3.738919,0.597595 z M 85.924598,77.229176 C 85.80737,77.111951 85.5031,77.099421 85.24844,77.201346 c -0.281422,0.112613 -0.197831,0.196208 0.213138,0.213134 0.371884,0.01531 0.580245,-0.06806 0.46302,-0.185286 z m 8.200987,-0.995991 c 0.350308,-1.061448 0.288294,-1.427695 -0.507753,-2.998611 -0.971077,-1.916331 -1.4002,-2.093595 -3.029098,-1.251257 -1.340824,0.693367 -1.318677,0.945706 0.07085,0.807258 0.99895,-0.09953 1.197356,0.05005 1.956767,1.475215 0.518312,0.9727 0.767919,1.893499 0.645499,2.38125 -0.31954,1.27315 0.424649,0.916573 0.86373,-0.413855 z M 66.253501,76.749913 C 66.231631,76.37582 64.460942,75.272166 63.694917,75.15516 63.264972,75.08949 61.603509,74.931322 60.00278,74.80368 l -2.910417,-0.232078 v 1.070236 1.070236 l 3.615972,0.113559 c 4.895978,0.153758 5.558057,0.144717 5.545166,-0.07572 z m -10.004113,-1.97909 c -0.312496,-0.814349 -0.870837,-0.576083 -0.680133,0.290241 0.345171,1.56803 0.580517,1.900442 0.73113,1.032675 0.07822,-0.450673 0.05527,-1.045986 -0.051,-1.322916 z M 89.051025,70.82773 c 0.146935,-0.977473 0.04875,-3.145635 -0.235638,-5.203472 -0.268143,-1.940278 -0.534998,-5.115278 -0.593009,-7.055556 -0.172967,-5.78492 -0.328754,-7.750287 -0.715211,-9.022955 -0.974845,-3.21033 -1.489485,-6.158028 -1.514366,-8.673837 -0.01647,-1.666442 -0.273625,-3.46443 -0.64745,-4.527114 -0.568201,-1.615253 -0.735689,-1.784834 -2.001128,-2.02612 -0.759566,-0.144829 -1.89744,-0.364608 -2.528616,-0.488397 l -1.147586,-0.225071 0.857973,1.545636 c 0.471883,0.8501 1.269224,2.644372 1.771869,3.987271 0.502641,1.3429 1.095258,2.660166 1.316926,2.927258 0.82169,0.990079 0.358814,3.318817 -1.068567,5.375981 -0.746122,1.07532 -1.786612,2.907626 -2.312194,4.071793 -1.278555,2.831987 -3.075161,5.376834 -4.856539,6.879167 -0.805237,0.679097 -2.365171,2.067397 -3.466525,3.085115 -2.725667,2.518682 -4.694217,6.602123 -3.529712,7.321829 0.194028,0.119916 0.352778,0.515461 0.352778,0.878992 0,0.81783 0.447104,0.945818 4.344356,1.243601 1.710295,0.13068 3.53592,0.290844 4.056944,0.355918 0.521021,0.06507 2.85085,0.299861 5.177402,0.521755 2.326552,0.22189 4.297698,0.471039 4.380326,0.553667 0.08263,0.08263 0.590296,0.150234 1.128152,0.150234 0.896105,0 0.998996,-0.140194 1.229815,-1.675695 z m 1.740951,0.332715 c -0.108617,-0.108616 -0.393273,-2.25e-4 -0.632576,0.24087 -0.345814,0.348411 -0.305294,0.388931 0.197485,0.197485 0.347916,-0.132479 0.543708,-0.329738 0.435091,-0.438355 z M 67.788808,69.819904 c -0.166822,-0.434728 -0.513704,-0.51786 -1.488232,-0.356658 -0.698892,0.115605 -1.588213,0.236879 -1.976268,0.269497 -0.585929,0.04925 0.403186,0.231306 3.252124,0.598594 0.257263,0.03316 0.342547,-0.172209 0.212376,-0.511433 z m -4.699223,-0.09756 c 0,-0.418797 -1.436973,-0.773726 -1.913304,-0.472581 -0.208862,0.132048 0.0965,0.343732 0.678582,0.470411 0.582084,0.126679 1.098021,0.249107 1.146528,0.272066 0.04851,0.02297 0.08819,-0.0985 0.08819,-0.269896 z m -5.599594,-1.808833 c 0.127585,-0.677005 0.38787,-1.987941 0.57841,-2.913186 0.195755,-0.950567 0.212273,-1.765183 0.03798,-1.872904 -0.169653,-0.104853 -0.308459,0.294979 -0.308459,0.888513 0,0.593535 -0.17596,1.079154 -0.391022,1.079154 -0.229125,0 -0.308848,-0.32864 -0.192551,-0.79375 0.783132,-3.132007 0.94532,-5.794897 0.440154,-7.226691 -0.301866,-0.855578 -0.387083,-1.571107 -0.200823,-1.686222 0.522575,-0.322971 0.878115,1.57673 0.810731,4.33185 -0.03672,1.501507 0.07284,2.478938 0.264583,2.360433 0.179993,-0.111245 0.327261,-0.504843 0.327261,-0.874667 0,-0.369824 0.248236,-1.403568 0.551635,-2.297211 0.378368,-1.11446 0.439526,-1.759885 0.194705,-2.054878 -0.20387,-0.245646 -0.326965,-2.126075 -0.287052,-4.385052 0.0489,-2.767461 -0.05094,-3.954886 -0.332498,-3.954674 -0.460845,3.53e-4 -0.815405,-2.278518 -0.447199,-2.874289 0.279517,-0.452268 1.025965,0.72396 1.025965,1.616682 0,0.303798 0.15875,0.552358 0.352777,0.552358 0.194028,0 0.352778,0.377437 0.352778,0.83875 0,1.120451 0.83632,1.762905 1.935695,1.48698 0.504169,-0.126541 0.886527,-0.07035 0.886527,0.130274 0,0.561657 -1.627099,0.817026 -2.43859,0.382732 -0.71603,-0.383208 -0.737701,-0.329008 -0.658037,1.645698 0.04531,1.123075 -0.05038,2.478518 -0.212629,3.012094 -0.230583,0.758275 -0.179448,0.970139 0.234156,0.970139 0.291042,0 0.622303,-0.37108 0.736134,-0.824625 0.113835,-0.453542 0.567606,-1.280926 1.008384,-1.838625 0.440778,-0.557703 0.960166,-1.494448 1.154194,-2.081654 0.203122,-0.614733 0.778206,-1.271294 1.355626,-1.547689 0.911292,-0.436213 0.981389,-0.597623 0.767789,-1.768027 -0.22782,-1.248318 -2.850032,-7.687673 -3.374944,-8.287831 -0.1429,-0.163383 -0.455348,0.312867 -0.694334,1.058334 -0.465236,1.451215 -1.819982,3.454645 -2.984127,4.412994 -0.640564,0.527325 -0.717498,1.019877 -0.743874,4.7625 -0.01618,2.295888 -0.209581,5.52372 -0.42978,7.172956 -0.597868,4.477879 -1.129645,11.354093 -0.906055,11.715867 0.437902,0.70854 1.363798,0.04536 1.586493,-1.136333 z m 4.012094,-0.7343 c 0.582084,-1.085053 1.701942,-2.751928 2.488573,-3.704166 1.593984,-1.929561 4.036635,-5.572058 4.03999,-6.024464 0.0011,-0.161146 0.253605,-0.769243 0.560909,-1.351326 0.307305,-0.582083 0.876787,-1.900929 1.265513,-2.930768 0.487401,-1.291269 1.51776,-2.739627 3.319643,-4.666386 2.69416,-2.880872 2.986549,-3.471609 2.087591,-4.217677 -0.288904,-0.239773 -0.44902,-0.559344 -0.355809,-0.710164 0.267043,-0.432083 -1.279433,-1.276761 -2.771888,-1.513992 -0.973497,-0.154741 -1.878541,-0.706653 -3.185068,-1.94231 -2.141615,-2.025452 -3.817807,-2.532232 -5.499347,-1.662674 -0.587488,0.303802 -1.068162,0.634942 -1.068162,0.735866 0,0.100924 0.733157,1.690589 1.629237,3.532588 1.242177,2.553441 1.671962,3.881346 1.809073,5.589493 0.188888,2.353109 0.21083,2.283629 -1.957793,6.198524 -0.69801,1.260076 -1.193825,2.809547 -1.414322,4.419879 -0.245533,1.793176 -0.838817,3.506942 -2.143139,6.190692 -0.991987,2.041098 -1.803612,3.833008 -1.803612,3.982022 0,0.149017 0.436563,0.220705 0.970139,0.159311 0.77095,-0.08871 1.187436,-0.516686 2.028472,-2.084448 z m 5.820834,1.482916 c 0,-0.44491 -2.255072,-0.812063 -3.330265,-0.542206 -1.603569,0.40247 -0.960755,0.855723 1.213598,0.855723 1.164167,0 2.116667,-0.141083 2.116667,-0.313517 z m -4.705251,-1.538566 c -0.09786,-0.242535 -0.177938,-0.0441 -0.177938,0.440972 0,0.485069 0.08007,0.683507 0.177938,0.440972 0.09786,-0.242535 0.09786,-0.63941 0,-0.881944 z m 3.646918,0.02537 c 0,-0.200991 0.236107,-0.274838 0.524679,-0.164105 0.370364,0.142124 0.786448,-0.339612 1.41472,-1.637951 1.916409,-3.960294 3.466656,-5.949375 5.979478,-7.67213 2.488053,-1.705772 3.260971,-2.691161 5.109742,-6.51438 0.562952,-1.164167 1.67181,-3.036528 2.464132,-4.160806 1.597522,-2.26683 1.806042,-3.567864 0.781424,-4.875646 -0.36254,-0.46273 -1.085586,-2.025768 -1.606773,-3.473418 -1.441065,-4.002702 -2.278316,-5.329357 -3.214991,-5.094267 -0.425884,0.10689 -1.45639,0.01069 -2.290013,-0.213787 -1.540013,-0.414681 -1.715883,-0.379624 -4.165618,0.830351 -0.453228,0.22386 -1.244939,1.180997 -1.759356,2.126972 l -0.935306,1.719955 1.380907,1.1937 c 0.759498,0.656535 2.000528,1.360546 2.757843,1.56447 1.800441,0.484808 3.858147,2.365825 3.84333,3.513311 -0.02748,2.129239 -0.172053,2.812221 -0.595248,2.812221 -0.841668,0 -4.939566,5.374876 -5.648241,7.408333 -0.83464,2.394895 -4.06539,7.776891 -5.871848,9.781702 -1.478538,1.640886 -1.482165,1.649744 -1.023624,2.500517 0.353755,0.656365 2.854763,0.967338 2.854763,0.354958 z M 71.2058,56.011063 c 0.005,-0.564498 1.346694,-2.260417 2.714858,-3.431519 0.7882,-0.67467 1.722254,-1.904986 2.075674,-2.734035 0.612911,-1.437774 0.648464,-1.462776 0.770098,-0.541525 0.152503,1.15502 -0.200914,1.693962 -3.070379,4.682215 -2.189021,2.27964 -2.494675,2.528168 -2.490251,2.024864 z m 7.05323,-8.92846 c 0,-0.629603 0.14696,-0.988328 0.352778,-0.861124 0.194027,0.119916 0.352777,0.605536 0.352777,1.079154 0,0.473619 -0.15875,0.861124 -0.352777,0.861124 -0.194028,0 -0.352778,-0.48562 -0.352778,-1.079154 z m 2.111851,-2.360429 c -0.0028,-0.533577 -0.100542,-1.327327 -0.217537,-1.763889 -0.340462,-1.270431 0.477986,-0.922301 0.910139,0.38713 0.392962,1.190693 0.209327,2.346897 -0.372752,2.346897 -0.173267,0 -0.317201,-0.436562 -0.31985,-0.970138 z m -2.842944,-0.295357 c -0.378326,-0.455852 -0.369916,-0.608072 0.04822,-0.872656 0.771352,-0.48809 1.03565,-0.397891 1.03565,0.353442 0,0.9346 -0.528871,1.187951 -1.08387,0.519214 z M 60.769595,60.727544 c -0.107188,-1.257861 -0.08602,-1.310972 0.157434,-0.394953 l 0.281277,1.058334 0.243286,-1.411111 c 0.64388,-3.734605 0.987771,-4.804823 2.195277,-6.83187 0.716202,-1.202288 1.199663,-2.288498 1.07436,-2.413801 -0.299858,-0.299861 -1.253293,0.974598 -1.267647,1.694466 -0.0062,0.309478 -0.346142,0.865103 -0.755495,1.234722 -1.322772,1.194382 -2.813968,5.099244 -3.684395,9.647996 -0.730042,3.815119 -0.609102,4.035873 0.710432,1.296772 0.881722,-1.830285 1.138855,-2.784697 1.045471,-3.880555 z M 52.506251,41.620939 c 0,-0.703039 1.369436,-5.001829 1.977759,-6.208373 0.436903,-0.866552 0.411959,-0.94213 -0.359628,-1.089629 -0.456002,-0.08717 -1.363816,0.01434 -2.017363,0.225582 -1.132629,0.366089 -1.193336,0.472954 -1.296499,2.282299 -0.05953,1.044025 0.01077,2.155275 0.156227,2.469445 0.145452,0.314169 0.282932,0.729967 0.305511,0.923995 0.174021,1.495396 1.233993,2.695114 1.233993,1.396681 z m -1.058334,-3.005001 c 0,-0.205479 0.15875,-0.275485 0.352778,-0.155569 0.194028,0.119916 0.352778,0.288035 0.352778,0.373598 0,0.08556 -0.15875,0.155569 -0.352778,0.155569 -0.194028,0 -0.352778,-0.168119 -0.352778,-0.373598 z m 35.22492,-4.918069 c -0.202918,-0.582083 -0.582532,-1.058333 -0.843591,-1.058333 -0.261059,0 -0.706628,-0.331194 -0.990155,-0.735986 -0.428802,-0.612197 -0.639837,-0.669444 -1.254729,-0.340365 -1.110763,0.594463 -0.904395,1.042961 0.833667,1.811788 0.865089,0.382669 1.668209,0.849993 1.78471,1.038496 0.479168,0.775313 0.812793,0.267459 0.470098,-0.7156 z m -4.004085,-0.705556 c -0.119916,-0.194027 -0.8321,-0.352777 -1.582635,-0.352777 -1.144482,0 -1.538115,-0.210491 -2.440199,-1.304878 -0.872836,-1.058902 -1.300936,-1.29849 -2.271022,-1.270992 -0.657485,0.01864 -1.646973,0.270476 -2.198866,0.559642 l -1.003441,0.525755 1.220304,0.743918 c 0.767849,0.468093 1.874304,0.759882 2.984192,0.786975 0.970139,0.02368 2.240139,0.164242 2.822223,0.312357 1.578818,0.401741 2.717733,0.401741 2.469444,0 z M 51.447917,32.068729 c 0,-0.291041 -0.15875,-0.431054 -0.352778,-0.311138 -0.194027,0.119916 -0.352777,0.456154 -0.352777,0.747196 0,0.291041 0.15875,0.431053 0.352777,0.311138 0.194028,-0.119916 0.352778,-0.456154 0.352778,-0.747196 z m -0.103486,-2.251416 c 0.250945,0 0.456264,-0.15875 0.456264,-0.352777 0,-0.194028 -0.134146,-0.352778 -0.298102,-0.352778 -0.57941,0 -1.389957,1.250292 -1.600906,2.469444 -0.207087,1.196828 -0.195227,1.188708 0.386418,-0.264583 0.330035,-0.824618 0.805381,-1.499306 1.056326,-1.499306 z m 30.965151,1.774232 c 0.116399,-0.18834 -0.198646,-0.44541 -0.700102,-0.571267 -0.506363,-0.12709 -0.826579,-0.406176 -0.72021,-0.627704 0.10534,-0.219379 0.289522,-0.676684 0.40929,-1.016233 0.119768,-0.339548 0.43737,-0.617361 0.705781,-0.617361 0.607561,0 0.653553,0.70115 0.04705,0.717292 -0.242535,0.0065 -0.06725,0.323104 0.389523,0.703665 0.938551,0.781951 1.46256,0.636261 1.46256,-0.406635 0,-1.093828 0.625282,-2.013025 1.773136,-2.606604 1.033663,-0.534527 1.768821,-1.813859 2.227181,-3.875773 l 0.235264,-1.058334 -0.519638,0.928309 c -0.285803,0.51057 -0.762561,1.021525 -1.059459,1.135456 -0.687334,0.263755 -0.689652,-0.07875 -0.0056,-0.834566 0.429292,-0.474363 0.47202,-0.964638 0.217629,-2.497222 l -0.316541,-1.906977 -0.04124,1.950071 c -0.03136,1.483316 -0.211081,2.095493 -0.750828,2.557639 -1.062365,0.909627 -1.972324,0.73879 -2.87075,-0.53896 -1.193038,-1.696742 -1.584167,-2.028472 -2.391686,-2.028472 -0.401916,0 -0.730754,-0.15875 -0.730754,-0.352778 0,-0.194028 0.396875,-0.352778 0.881944,-0.352778 0.48507,0 0.881945,-0.14938 0.881945,-0.331957 0,-0.46214 -0.319701,-0.601883 -1.940278,-0.84811 -0.776111,-0.11792 -1.121551,-0.09288 -0.767644,0.05564 1.053673,0.442181 0.516216,0.91152 -0.996245,0.869981 l -1.411111,-0.03876 1.20668,0.234799 c 1.445779,0.281322 1.805506,1.003956 0.702828,1.411863 -0.523546,0.193672 -0.654222,0.381505 -0.382322,0.549548 0.227199,0.140418 0.413092,0.424124 0.413092,0.630459 0,0.236519 -0.195605,0.212815 -0.529322,-0.06415 -0.447555,-0.371438 -0.564035,-0.265717 -0.754063,0.684409 -0.15864,0.793204 -0.334983,1.013463 -0.599567,0.74888 -0.264583,-0.264584 -0.258424,-0.491228 0.02096,-0.770592 0.448233,-0.448234 0.193619,-1.468785 -0.29162,-1.168889 -0.52761,0.32608 -0.352777,2.214465 0.2355,2.543682 0.575794,0.32223 0.787443,0.996224 0.832806,2.652058 0.0566,2.065874 4.30251,5.488784 5.135877,4.140368 z m 0.738442,-3.381775 c -0.175243,-0.698216 -0.382479,-0.852445 -0.917336,-0.682688 -0.515242,0.163531 -0.795954,-0.01117 -1.103887,-0.687004 -0.574086,-1.259983 -0.163312,-1.484475 1.287064,-0.703396 1.02628,0.552687 1.236832,0.862615 1.236832,1.820577 0,1.384979 -0.193986,1.482425 -0.502673,0.252511 z M 52.506251,25.58398 c 0,-0.388055 -0.143888,-0.705555 -0.319751,-0.705555 -0.175863,0 -0.236723,0.3175 -0.135244,0.705555 0.101478,0.388056 0.245367,0.705556 0.31975,0.705556 0.07438,0 0.135245,-0.3175 0.135245,-0.705556 z M 83.59376,22.170856 c -0.307463,-0.528735 -0.376304,-0.543975 -0.385113,-0.08526 -0.01139,0.594106 0.359547,1.12903 0.609572,0.879006 0.08246,-0.08246 -0.01856,-0.439649 -0.224459,-0.79375 z m 0.511669,-2.713135 c -0.699541,-2.150478 -1.29256,-3.280762 -2.16492,-4.126284 -1.700142,-1.647845 -1.801343,-1.14329 -0.133064,0.663441 1.52575,1.652375 1.710962,2.176697 0.773113,2.188613 -0.543634,0.0069 -0.529527,0.08063 0.118145,0.617361 0.40453,0.335234 1.016656,1.373224 1.360279,2.306645 1.0409,2.82749 1.077701,1.520422 0.04645,-1.649776 z m 1.914712,2.263068 c 0,-2.050697 -0.744054,-4.516656 -1.607594,-5.327907 -0.867876,-0.815329 -1.195077,-1.63982 -0.473876,-1.194094 0.845429,0.522504 -0.414027,-1.226981 -1.376874,-1.91259 -0.686689,-0.488965 -1.146616,-0.603341 -1.500025,-0.373032 -0.412398,0.268749 -0.254191,0.570652 0.828809,1.581618 0.736173,0.687206 1.661756,1.915593 2.05685,2.729748 0.395097,0.814155 0.864337,1.75594 1.042758,2.092856 0.178417,0.336916 0.324397,1.249728 0.324397,2.028472 0,0.778744 0.15875,1.415898 0.352777,1.415898 0.194028,0 0.352778,-0.468436 0.352778,-1.040969 z m -3.831442,-7.437434 c -0.553565,-0.461164 -0.660619,-0.693819 -0.31926,-0.693819 0.282466,0 0.800904,0.3175 1.152091,0.705555 0.817414,0.903231 0.255961,0.895319 -0.832831,-0.01174 z m -3.576891,6.928646 c 0,-0.07625 -0.238125,-0.230023 -0.529167,-0.341706 -0.291042,-0.111683 -0.529167,-0.04929 -0.529167,0.138646 0,0.187938 0.238125,0.341706 0.529167,0.341706 0.291042,0 0.529167,-0.06239 0.529167,-0.138646 z m 4.07145,-0.543439 c -0.127896,-0.206937 -0.401355,-0.376249 -0.607688,-0.376249 -0.233927,0 -0.207161,0.202418 0.07109,0.537692 0.483849,0.583003 0.916281,0.452899 0.536596,-0.161443 z M 77.377085,19.23398 c 0.119916,-0.194028 0.04991,-0.352778 -0.155568,-0.352778 -0.205479,0 -0.373598,0.15875 -0.373598,0.352778 0,0.194028 0.07,0.352778 0.155568,0.352778 0.08556,0 0.253682,-0.15875 0.373598,-0.352778 z m 0.705556,-1.058333 c -0.119916,-0.194028 -0.367411,-0.352778 -0.549988,-0.352778 -0.182576,0 -0.331957,0.15875 -0.331957,0.352778 0,0.194028 0.247495,0.352778 0.549988,0.352778 0.302493,0 0.451873,-0.15875 0.331957,-0.352778 z m 2.116667,-1.411111 C 79.848121,16.37648 79.345924,16.05898 79.083309,16.05898 c -0.38917,0 -0.395986,0.130492 -0.03686,0.705556 0.242345,0.388055 0.744545,0.705555 1.115999,0.705555 0.653027,0 0.654248,-0.02334 0.03686,-0.705555 z m -1.186131,-1.411111 c 0.274983,0 0.863064,0.254317 1.306837,0.565149 0.443777,0.310832 0.884322,0.487691 0.978997,0.393019 0.199718,-0.199721 -2.074104,-1.663724 -2.584023,-1.663724 -0.188489,0 -0.529516,0.436563 -0.757844,0.970139 -0.361146,0.843966 -0.351981,0.889847 0.07046,0.352778 0.267077,-0.339549 0.710586,-0.617361 0.985573,-0.617361 z M 26.58005,81.32767 c -0.142445,-0.23048 -0.122011,-0.524287 0.04541,-0.6529 0.494769,-0.380089 20.589124,-0.08154 20.589124,0.305898 0,0.212266 -3.465948,0.342201 -9.128126,0.342201 -5.020469,0 -9.604966,0.09537 -10.187771,0.211928 -0.650763,0.130154 -1.159582,0.05023 -1.318637,-0.207127 z m 68.19339,-9.065231 c 0.25466,-0.101907 0.558931,-0.08938 0.676159,0.02783 0.117225,0.117224 -0.09114,0.200603 -0.463021,0.185286 -0.410968,-0.01693 -0.494559,-0.100521 -0.213138,-0.213134 z m -3.461632,-8.734027 c 0,-0.27959 0.15875,-0.60646 0.352778,-0.726376 0.194028,-0.119916 0.352778,0.108839 0.352778,0.508345 0,0.399507 -0.15875,0.726377 -0.352778,0.726377 -0.194028,0 -0.352778,-0.228755 -0.352778,-0.508346 z m 0.552669,-2.275847 c -0.281905,-0.456131 0.38626,-1.801918 0.894627,-1.801918 0.213497,0 0.264929,0.328372 0.124326,0.79375 -0.319987,1.059123 -0.734184,1.468935 -1.018953,1.008168 z m 0.700557,-5.749262 c 0.06117,-1.782981 -0.0502,-3.543409 -0.247495,-3.912058 -0.297491,-0.555865 -0.248349,-0.648624 0.287912,-0.543437 0.569571,0.111721 0.646635,0.504377 0.646635,3.294701 0,3.449377 -0.11442,4.402582 -0.528479,4.402582 -0.148389,0 -0.219745,-1.458803 -0.158573,-3.241788 z m -38.849075,1.716314 c -0.436287,-1.136947 0.462246,-7.385167 1.033783,-7.188719 0.435742,0.149772 0.431745,0.839322 -0.02741,4.728111 -0.31198,2.642316 -0.634265,3.430309 -1.006375,2.460608 z m -0.906862,-6.479399 c -0.02746,-0.156972 -0.08866,-1.436342 -0.136004,-2.843043 -0.08128,-2.415308 0.199626,-3.244572 0.677359,-1.999619 0.349622,0.911098 0.243369,4.673935 -0.138646,4.910035 -0.194028,0.119917 -0.375247,0.0896 -0.402709,-0.06737 z m 9.222155,-18.403242 c 0,-0.198746 0.163255,-0.462252 0.362786,-0.58557 0.199531,-0.123317 0.566029,-0.722306 0.814434,-1.331086 0.248408,-0.608779 0.554379,-0.940655 0.679936,-0.737502 0.282981,0.457875 -0.814754,2.68788 -1.416184,2.876913 -0.242534,0.07623 -0.440972,-0.02401 -0.440972,-0.222755 z M 89.37153,30.875647 c -0.119916,-0.194028 -0.117764,-0.352778 0.0048,-0.352778 0.122548,0 -0.106207,-0.418284 -0.508346,-0.92952 -1.013333,-1.288245 -1.005734,-2.25054 0.01051,-1.33085 0.675852,0.611649 1.727758,2.299317 1.727758,2.772018 0,0.338438 -1.007484,0.208806 -1.234722,-0.15887 z M 63.219933,28.237042 c -0.110158,-0.287066 0.14513,-1.23547 0.567302,-2.107564 0.578849,-1.195741 1.271059,-1.891469 2.815146,-2.829451 1.892466,-1.149612 3.555129,-1.610344 3.533832,-0.979241 -0.0049,0.145521 -1.112644,0.796783 -2.461634,1.44725 -2.537323,1.223466 -3.52666,2.391374 -3.52666,4.1632 0,0.918292 -0.615163,1.121011 -0.927986,0.305806 z m 6.660625,-1.365039 c -0.983333,-0.491817 -1.025148,-0.935245 -0.08819,-0.935245 0.388055,0 0.705555,0.165709 0.705555,0.368242 0,0.202534 0.227715,0.321596 0.506032,0.264584 0.27832,-0.05701 0.524831,0.05509 0.5478,0.249118 0.05878,0.496456 -0.734564,0.521759 -1.671193,0.0533 z M 56.42917,24.597911 c -0.46566,-2.3669 -0.161368,-3.675505 0.999084,-4.29656 0.428094,-0.229109 0.722442,-0.740917 0.722442,-1.256172 0,-0.927418 0.605668,-1.187542 0.911197,-0.391344 0.248395,0.647306 -1.238204,3.107157 -1.703867,2.819361 -0.251643,-0.155524 -0.311277,0.512605 -0.185551,2.078882 0.244786,3.049524 -0.220349,3.70397 -0.743305,1.045833 z m 6.497736,-0.866014 c 0.318907,-1.485387 0.79714,-2.38125 1.271167,-2.38125 0.221068,0 0.273283,0.25641 0.12572,0.617361 -0.138815,0.339549 -0.401387,1.133299 -0.583495,1.763889 -0.182104,0.63059 -0.495,1.146528 -0.695325,1.146528 -0.226229,0 -0.270961,-0.434391 -0.118067,-1.146528 z m -1.60121,-1.289586 c 0,-0.531964 1.081734,-1.471619 1.439553,-1.250476 0.46586,0.287917 0.422673,0.366012 -0.557608,1.008316 -0.485069,0.31783 -0.881945,0.426802 -0.881945,0.24216 z m 4.24118,-1.026662 c -0.01129,-0.668106 0.663324,-1.828891 1.062898,-1.828891 0.512308,0 0.400424,0.432332 -0.365188,1.411111 -0.379427,0.485069 -0.693396,0.67307 -0.69771,0.41778 z m -1.769982,-1.928157 c 0.0011,-0.236446 0.372453,-0.893188 0.825536,-1.459429 0.621742,-0.777027 0.98903,-0.963035 1.497552,-0.758416 0.642387,0.258485 0.638246,0.284834 -0.08896,0.565712 -0.419499,0.16203 -0.862105,0.607714 -0.98357,0.990409 -0.250207,0.788341 -1.253243,1.319086 -1.250562,0.661724 z m -3.514845,-0.04934 c -0.0081,-0.17875 0.248924,-0.616286 0.571116,-0.972302 0.726186,-0.802427 0.423097,-1.182922 -0.53418,-0.670604 -0.41311,0.221091 -0.797595,0.247636 -0.91174,0.06295 -0.108557,-0.175652 0.238996,-0.490054 0.772343,-0.698671 0.533344,-0.208617 1.326907,-0.640319 1.76347,-0.959338 0.750284,-0.548271 0.79375,-0.54226 0.79375,0.109774 0,0.675802 -2.425887,3.767202 -2.454759,3.128194 z m 7.260601,-1.545149 c -0.375077,-0.606889 2.297875,-2.4167 2.962561,-2.005901 0.61589,0.380643 0.367471,0.795464 -0.624653,1.043069 -0.533576,0.133165 -1.232193,0.478216 -1.552476,0.76678 -0.325251,0.293036 -0.672,0.379588 -0.785432,0.196052 z m 6.731269,-0.106686 c 0.279029,-0.279027 0.573877,-0.282067 1.040694,-0.01073 0.571017,0.331905 0.52299,0.37993 -0.389332,0.389334 -0.758942,0.0078 -0.935288,-0.09468 -0.651362,-0.378606 z M 63.442363,15.803188 c 0,-0.319212 2.26355,-1.155319 3.127735,-1.155319 0.801963,0 0.37362,0.623135 -0.570096,0.829355 -0.533576,0.116596 -1.327326,0.313705 -1.763889,0.43802 -0.436562,0.124314 -0.79375,0.07389 -0.79375,-0.112056 z"
       style="fill:#000000;stroke-width:0.35277778" />
  </g>
</svg>
