<?xml version="1.0" encoding="UTF-8" standalone="no"?>
<svg
   xmlns:dc="http://purl.org/dc/elements/1.1/"
   xmlns:cc="http://creativecommons.org/ns#"
   xmlns:rdf="http://www.w3.org/1999/02/22-rdf-syntax-ns#"
   xmlns:svg="http://www.w3.org/2000/svg"
   xmlns="http://www.w3.org/2000/svg"
   id="svg14442"
   version="1.1"
   viewBox="0 0 86.556038 91.931107"
   height="91.931107mm"
   width="86.556038mm">
  <defs
     id="defs14436" />
  <metadata
     id="metadata14439">
    <rdf:RDF>
      <cc:Work
         rdf:about="">
        <dc:format>image/svg+xml</dc:format>
        <dc:type
           rdf:resource="http://purl.org/dc/dcmitype/StillImage" />
        <dc:title></dc:title>
      </cc:Work>
    </rdf:RDF>
  </metadata>
  <g
     transform="translate(-60.576186,-77.016097)"
     id="layer1">
    <path
       id="path15117"
       d="m 102.11272,168.49203 c -0.99412,-0.5521 -1.66933,-1.51979 -1.99571,-2.86018 -0.138559,-0.56905 -0.638494,-1.49404 -1.110966,-2.05554 -0.999451,-1.18778 -1.126557,-2.90867 -0.28363,-3.84009 0.667294,-0.73735 0.96604,-5.61849 0.457073,-7.46794 -0.327423,-1.18977 -0.416743,-2.85059 -0.354534,-6.59208 0.02096,-1.26118 -0.0039,-3.0868 -0.05533,-4.05694 -0.08569,-1.61738 -0.03062,-1.75746 0.662961,-1.68647 0.620076,0.0635 0.782166,-0.14318 0.899296,-1.14653 0.16792,-1.43832 -0.574134,-1.71458 -0.918628,-0.342 -0.121748,0.48507 -0.387781,0.88194 -0.591185,0.88194 -0.219396,0 -0.272285,-0.32286 -0.130017,-0.79375 0.317483,-1.05083 0.494616,-1.1933 1.78154,-1.4329 l 1.09186,-0.20329 -0.33721,1.70545 c -0.24143,1.22106 -0.5723,1.83127 -1.1649,2.14842 -0.604834,0.3237 -0.747423,0.59533 -0.529572,1.00883 0.163971,0.31122 0.493302,1.51428 0.731842,2.67347 0.23855,1.15918 0.51974,2.33178 0.62488,2.60577 0.12212,0.31824 0.0116,0.43781 -0.30602,0.33105 -0.31626,-0.10629 -0.45405,-0.54104 -0.37865,-1.19466 0.0823,-0.71333 0.005,-0.91785 -0.252924,-0.6688 -0.523459,0.50556 -0.566106,3.86362 -0.07859,6.188 0.416114,1.98396 0.358694,8.24179 -0.07965,8.68014 -0.303046,0.30304 0.789684,1.53005 1.362614,1.53005 0.2373,0 0.67515,-0.35719 0.97299,-0.79375 l 0.54153,-0.79375 0.55983,1.31159 c 0.30791,0.72137 0.55984,1.5302 0.55984,1.7974 0,0.26721 0.33375,0.78787 0.74167,1.15703 2.17701,1.97017 1.97909,4.3876 -0.35733,4.36454 -0.69646,-0.007 -1.62485,-0.21163 -2.06308,-0.45501 z m 3.08984,-1.39454 c 0,-0.63402 -1.09733,-1.62862 -1.58877,-1.44004 -0.26806,0.10287 -0.57192,-0.16141 -0.71922,-0.62555 -0.14692,-0.46289 -0.10289,-0.85439 0.10385,-0.9233 0.23686,-0.079 0.22279,-0.41304 -0.0414,-0.98243 -0.33443,-0.72081 -0.5782,-0.82988 -1.48126,-0.66276 -0.74527,0.13793 -1.22429,0.0273 -1.542504,-0.35608 -0.990903,-1.19397 -1.000802,-0.4731 -0.01358,0.98967 0.573784,0.85019 1.170134,2.15988 1.325224,2.91042 0.26022,1.25934 0.38974,1.37928 1.67884,1.55464 1.59268,0.21666 2.27882,0.0768 2.27882,-0.46457 z m -3.33583,-9.11657 c 0.10157,-1.39309 0.26127,-2.65683 0.3549,-2.80831 0.0936,-0.15149 0.009,-0.37515 -0.18831,-0.49702 -0.49583,-0.30644 -0.44857,-1.09614 0.099,-1.65405 0.25163,-0.25639 0.6112,-1.00936 0.79903,-1.67325 0.50346,-1.77955 1.32948,-1.90421 1.013,-0.15288 -0.13516,0.74798 -0.38941,1.63817 -0.56498,1.9782 -0.17558,0.34004 -0.33904,1.97535 -0.36326,3.63402 -0.037,2.53267 -0.14736,3.07108 -0.68904,3.36098 -0.60415,0.32333 -0.63331,0.18475 -0.46033,-2.18769 z m -1.06287,-6.4109 c -0.15101,-0.34792 -0.17558,-0.73157 -0.0546,-0.85255 0.35824,-0.35824 0.64702,0.14497 0.48214,0.84015 -0.14618,0.61628 -0.16519,0.61683 -0.42755,0.0124 z m 2.89268,-2.9834 c 0.33775,-1.20776 0.30637,-3.90779 -0.0742,-6.3834 l -0.28985,-1.88549 -0.46132,1.09714 c -0.25373,0.60344 -0.71293,1.1937 -1.02045,1.31171 -0.97516,0.3742 -1.02031,-0.18277 -0.0902,-1.11286 0.78613,-0.78614 1.37215,-2.33943 1.52847,-4.05141 0.0979,-1.07185 1.87146,-4.30184 2.80879,-5.11527 0.22358,-0.19403 0.49236,-1.73264 0.59728,-3.41913 l 0.19077,-3.06635 -1.10621,-0.38523 c -0.60842,-0.21188 -1.69812,-0.77671 -2.42156,-1.25518 -1.56221,-1.03321 -2.93458,-1.12214 -3.416642,-0.2214 -0.376639,0.70376 -0.293828,6.68471 0.140462,10.14472 0.2285,1.82044 0.18198,2.18396 -0.303318,2.37018 -0.416507,0.15983 -0.586747,0.006 -0.622734,-0.56271 -0.106772,-1.68725 -0.275407,-6.27942 -0.383995,-10.45661 -0.110215,-4.23975 -0.145549,-4.41436 -1.08658,-5.36919 -0.534963,-0.54282 -1.642103,-1.16985 -2.460308,-1.39342 -3.962768,-1.08277 -7.974656,-2.71162 -10.072509,-4.0895 -1.274989,-0.83742 -2.591239,-1.52257 -2.925,-1.52257 -0.33376,0 -1.055579,-0.37318 -1.604042,-0.82929 -0.648369,-0.5392 -1.675943,-0.91072 -2.937484,-1.06208 -4.170871,-0.5004 -5.217778,-0.83464 -7.957816,-2.54069 l -2.797077,-1.74155 h -3.177416 -3.177415 l 0.132121,-4.23245 c 0.166908,-5.346834 0.953222,-8.773964 2.04887,-8.929944 1.007459,-0.14342 1.382054,0.62139 1.695147,3.461 0.432002,3.918054 1.709151,5.622494 4.396776,5.867814 1.847436,0.16863 6.965882,1.41442 9.184606,2.23547 1.064413,0.39389 2.651913,0.72121 3.527777,0.72738 0.875864,0.006 1.900635,0.2443 2.277268,0.52917 0.392827,0.29712 1.446673,0.51794 2.471774,0.51794 0.982842,0 2.341562,0.16607 3.019379,0.36903 0.677816,0.20297 2.502393,0.52057 4.054615,0.70579 1.552222,0.18522 3.228404,0.42873 3.724843,0.54114 0.688711,0.15594 1.175614,-0.0506 2.054536,-0.87168 1.040422,-0.97189 1.146482,-1.25633 1.095772,-2.93863 -0.0768,-2.54875 -0.0499,-2.74454 0.37717,-2.74454 0.23439,0 0.33971,0.88556 0.28321,2.38125 -0.12392,3.28097 1.00576,5.22589 2.78322,4.79171 0.55533,-0.13565 0.79375,-0.0357 0.79375,0.33289 0,0.39375 0.81554,0.6484 3.22947,1.00838 l 3.22946,0.48161 0.0615,2.11046 c 0.0615,2.11079 -0.63146,4.67855 -1.65836,6.14466 -0.40011,0.57123 -0.44846,1.20532 -0.21956,2.8791 0.3044,2.22581 -0.0207,3.50606 -0.89043,3.50606 -0.3121,0 -0.47904,0.64128 -0.52805,2.02847 -0.10679,3.02237 -0.39489,4.24534 -1.64131,6.96736 -1.38784,3.03085 -2.19115,6.94696 -1.65187,8.05286 0.65586,1.34499 0.71941,3.18698 0.16944,4.91172 -0.56039,1.75745 -1.37295,2.39389 -0.9008,0.70556 z m 1.18186,-12.17083 0.74852,-1.49931 -0.74773,0.72175 c -0.65559,0.63279 -1.3042,2.27686 -0.89826,2.27686 0.0819,0 0.48579,-0.67469 0.89747,-1.4993 z m 1.73528,-11.55348 c 0,-0.19402 -0.22679,-0.35277 -0.50397,-0.35277 -0.27719,0 -0.71375,-0.20732 -0.97014,-0.46071 -0.2564,-0.2534 -0.76644,-0.57453 -1.13343,-0.71364 -0.57852,-0.21928 -0.60519,-0.17812 -0.20054,0.30945 0.3607,0.43462 1.76293,1.22942 2.71988,1.54168 0.0485,0.0158 0.0882,-0.12998 0.0882,-0.32401 z m 1.76388,-0.35277 c 0,-0.19403 -0.07,-0.35278 -0.15556,-0.35278 -0.0856,0 -0.25369,0.15875 -0.3736,0.35278 -0.11992,0.19402 -0.0499,0.35277 0.15557,0.35277 0.20547,0 0.37359,-0.15875 0.37359,-0.35277 z m -0.35277,-0.84421 c 0,-0.0762 -0.23813,-0.23002 -0.52917,-0.3417 -0.29104,-0.11169 -0.52917,-0.0493 -0.52917,0.13864 0,0.18794 0.23813,0.34171 0.52917,0.34171 0.29104,0 0.52917,-0.0624 0.52917,-0.13865 z m -2.03936,-1.9763 c -0.59236,-0.63583 -0.73419,-0.66183 -1.11397,-0.20422 -0.23936,0.28841 -0.32231,0.70703 -0.18434,0.93027 0.18252,0.29531 0.33672,0.27549 0.566,-0.0727 0.25203,-0.3828 0.39685,-0.33918 0.72327,0.21786 0.24941,0.42563 0.46253,0.53334 0.54799,0.27696 0.0769,-0.23075 -0.16561,-0.7474 -0.53895,-1.14813 z m -4.48703,0.70384 c 0.11991,-0.19403 -0.0295,-0.35278 -0.33196,-0.35278 -0.30249,0 -0.54999,0.15875 -0.54999,0.35278 0,0.19403 0.14938,0.35278 0.33196,0.35278 0.18258,0 0.43007,-0.15875 0.54999,-0.35278 z m 1.94028,-0.0208 c 0,-0.20548 -0.1452,-0.28387 -0.32265,-0.1742 -0.17746,0.10968 -0.39385,-10e-6 -0.48087,-0.24376 -0.087,-0.24374 -0.29442,-0.31547 -0.46089,-0.1594 -0.16646,0.15607 -0.0691,0.43145 0.21629,0.61196 0.68718,0.43458 1.04812,0.42267 1.04812,-0.0346 z m 5.09057,-0.72471 c -0.33315,-0.53906 -0.70605,-0.34195 -0.70605,0.3732 0,0.51591 0.11151,0.59348 0.44969,0.31281 0.24732,-0.20526 0.36269,-0.51397 0.25636,-0.68601 z m -3.96384,-1.27904 c -0.25342,-0.0902 -0.7526,-0.47734 -1.10929,-0.86021 -0.38311,-0.41121 -0.73832,-0.55084 -0.86791,-0.34116 -0.12066,0.19523 -0.0183,0.48495 0.22735,0.64382 1.06854,0.69094 1.87056,1.0407 2.03423,0.88714 0.097,-0.091 -0.0309,-0.23935 -0.28438,-0.32959 z m -4.30173,-0.11293 c 0,-0.20548 -0.15988,-0.27479 -0.355273,-0.15402 -0.1954,0.12075 -0.450507,-0.0286 -0.56691,-0.33197 -0.116402,-0.30333 -0.358994,-0.55152 -0.539087,-0.55152 -0.184693,0 -0.162828,0.3076 0.05016,0.70555 0.395076,0.73821 1.41111,0.97723 1.41111,0.33196 z m 8.67505,-0.94672 c -0.24465,-0.24465 -0.91394,0.25243 -0.91394,0.67878 0,0.23393 0.20241,0.20716 0.53769,-0.0711 0.29573,-0.24544 0.46504,-0.5189 0.37625,-0.60769 z m -10.236399,-1.25644 c 0.04859,-0.33106 -0.143884,-0.59824 -0.430968,-0.59824 -0.285323,0 -0.420659,0.15875 -0.300743,0.35278 0.119916,0.19403 0.04054,0.35278 -0.176389,0.35278 -0.21693,0 -0.291126,0.16712 -0.164881,0.3714 0.322961,0.52255 0.968283,0.23464 1.072981,-0.47872 z m 6.337999,-0.20087 c -0.21728,-0.68459 -1.24888,-0.69939 -1.24888,-0.0179 0,0.16718 0.23813,0.21259 0.52917,0.1009 0.3478,-0.13346 0.52917,0.0114 0.52917,0.42265 0,0.34414 0.0939,0.53184 0.2086,0.41711 0.11472,-0.11474 0.1066,-0.52997 -0.0181,-0.92274 z m -3.01277,0.30819 c 0,-0.19403 -0.15875,-0.35278 -0.35277,-0.35278 -0.19403,0 -0.35278,0.15875 -0.35278,0.35278 0,0.19402 0.15875,0.35277 0.35278,0.35277 0.19402,0 0.35277,-0.15875 0.35277,-0.35277 z m -4.89793,-0.8326 c -0.225214,-0.27137 -0.777367,-0.40734 -1.270953,-0.31298 -0.839416,0.16046 -0.868091,0.10469 -0.750916,-1.46046 0.07809,-1.04302 -0.02077,-1.6273 -0.275316,-1.6273 -0.237035,0 -0.408513,0.70379 -0.425347,1.74573 -0.03061,1.89478 -0.220325,1.74523 2.636577,2.07837 0.369168,0.0431 0.389584,-0.0575 0.08595,-0.42336 z m 4.19238,-0.0781 c 0,-0.45155 -1.49647,-0.83876 -2.033147,-0.52608 -0.580493,0.33821 -0.580246,0.35753 0.0047,0.36769 0.339549,0.006 0.617361,0.15462 0.617361,0.33048 0,0.17587 0.317496,0.23673 0.705556,0.13525 0.38806,-0.10148 0.70556,-0.23979 0.70556,-0.30734 z m -7.71734,-1.47057 c 0.07876,-2.38027 -0.113033,-5.16333 -0.409573,-5.94329 -0.191778,-0.50441 -0.689438,-0.82777 -1.461789,-0.9498 -0.644062,-0.10176 -1.766334,-0.34182 -2.493938,-0.53347 -1.44457,-0.38049 -1.660962,-0.22798 -0.705555,0.49728 0.339548,0.25775 0.430263,0.47369 0.201587,0.47986 -0.228676,0.006 -0.625551,-0.18722 -0.881944,-0.42975 -0.256394,-0.24254 -0.942421,-0.49102 -1.524504,-0.55219 -0.582084,-0.0612 -1.441283,-0.35951 -1.909332,-0.663 -0.468049,-0.30349 -1.738049,-0.58517 -2.822222,-0.62597 -1.084173,-0.0408 -2.923724,-0.40467 -4.087891,-0.80861 -3.451639,-1.19764 -5.85697,-1.79495 -8.290278,-2.05871 -2.061263,-0.22343 -2.430927,-0.39014 -3.656981,-1.64916 -1.056282,-1.08468 -1.433029,-1.29151 -1.670292,-0.91697 -0.701488,1.10738 -0.12513,2.77669 0.958696,2.77669 0.46244,0 0.840799,0.15875 0.840799,0.35278 0,0.458 -0.920048,0.45161 -1.78708,-0.0124 -0.570736,-0.30545 -0.682364,-0.24774 -0.682364,0.35278 0,0.59062 0.227784,0.71796 1.284277,0.71796 1.381295,0 3.939826,1.09104 5.502597,2.34649 1.302951,1.04672 4.312199,1.87772 7.223979,1.99488 2.49866,0.10055 2.946828,0.24863 4.221905,1.39498 0.462816,0.4161 1.399668,0.73493 2.347168,0.79882 1.497179,0.10093 3.056185,0.66217 3.056185,1.10021 0,0.11122 -0.396875,0.10261 -0.881944,-0.0191 -1.796986,-0.45102 -0.801486,0.50987 1.852083,1.78769 2.295196,1.10524 3.668473,1.56845 5.468056,1.84438 0.145521,0.0223 0.28428,-0.55474 0.308355,-1.28234 z m -4.756621,-3.50753 c -0.134381,-0.13438 -0.95459,-0.22736 -1.822685,-0.20661 -0.868095,0.0207 -1.578355,-0.10744 -1.578355,-0.28484 0,-0.54059 4.027735,-0.37606 4.783268,0.1954 0.659334,0.49869 0.650913,0.51836 -0.226555,0.52916 -0.501238,0.006 -1.021291,-0.0987 -1.155673,-0.23311 z m -6.385667,-3.75876 c -0.828463,-0.60579 -0.213515,-1.04359 1.028125,-0.73196 1.019429,0.25586 1.163706,0.67711 0.340149,0.99314 -0.711232,0.27293 -0.611904,0.29189 -1.368274,-0.26118 z m -5.482747,-0.31844 c -4.23e-4,-0.25567 -0.544862,-0.47995 -1.295704,-0.53375 -0.712248,-0.051 -1.718806,-0.3042 -2.236797,-0.56261 -0.517991,-0.25841 -1.919299,-0.76264 -3.114019,-1.12051 -1.194719,-0.35788 -2.172217,-0.79637 -2.172217,-0.97444 0,-0.17807 0.277812,-0.21585 0.617361,-0.084 0.339549,0.13189 1.490486,0.39406 2.557639,0.58259 2.841319,0.50196 7.408333,2.25304 7.408333,2.84049 0,0.16124 -0.396875,0.29317 -0.881944,0.29317 -0.48507,0 -0.882263,-0.19844 -0.882652,-0.44098 z m 26.811815,8.42167 c 0,-0.26728 -0.25246,-0.69549 -0.56102,-0.95158 -0.5112,-0.42425 -0.50777,-0.50454 0.0386,-0.90404 0.75402,-0.55135 1.96475,0.086 1.66202,0.87484 -0.1443,0.37605 -0.0639,0.43935 0.2845,0.22402 1.49407,-0.92338 2.39567,-2.25517 1.22176,-1.80469 -0.29104,0.11168 -0.52916,0.06 -0.52916,-0.11488 0,-0.17486 0.34978,-0.42895 0.77729,-0.56463 0.42752,-0.13569 1.02283,-0.49469 1.32292,-0.79779 0.49324,-0.49817 0.47789,-0.52144 -0.15994,-0.2424 -0.38805,0.16977 -1.13411,0.30314 -1.65791,0.29637 -0.70421,-0.009 -0.97996,0.18109 -1.05833,0.72992 -0.0583,0.40822 -0.26473,0.66285 -0.45876,0.56583 -0.19402,-0.097 -0.32485,-0.25576 -0.29072,-0.35278 0.0341,-0.097 0.18017,-0.48024 0.32454,-0.85162 0.18367,-0.4725 0.13856,-0.59864 -0.15025,-0.42015 -0.23387,0.14454 -0.41759,0.055 -0.42395,-0.20671 -0.007,-0.28482 -0.20972,-0.19936 -0.52917,0.22299 -0.49674,0.65676 -0.51795,0.64592 -0.51795,-0.26458 0,-1.07047 -0.0919,-1.11827 -1.02713,-0.53421 -0.54463,0.34013 -0.59752,0.56279 -0.29262,1.23197 0.25038,0.54951 0.50221,0.70886 0.76959,0.48696 0.23877,-0.19816 0.60328,-0.20262 0.91306,-0.0112 0.43481,0.26873 0.40532,0.40201 -0.18822,0.85054 -0.38711,0.29253 -0.90228,0.53693 -1.14481,0.5431 -0.24254,0.006 -0.43855,0.20965 -0.43558,0.45219 0.007,0.54057 0.68294,1.63969 0.70549,1.14653 0.009,-0.19403 0.17793,-0.075 0.3757,0.26458 0.4291,0.73671 1.03008,0.81337 1.03008,0.13139 z m -1.76389,-4.45292 c 0,-0.19402 0.15875,-0.35277 0.35278,-0.35277 0.19403,0 0.35278,0.15875 0.35278,0.35277 0,0.19403 -0.15875,0.35278 -0.35278,0.35278 -0.19403,0 -0.35278,-0.15875 -0.35278,-0.35278 z m 4.58612,4.23334 c 0,-0.19403 -0.07,-0.35278 -0.15557,-0.35278 -0.0856,0 -0.25369,0.15875 -0.3736,0.35278 -0.11992,0.19402 -0.0499,0.35277 0.15557,0.35277 0.20548,0 0.3736,-0.15875 0.3736,-0.35277 z m 2.03146,-0.36354 c -0.33089,-0.53388 -0.34063,-0.78097 -0.0382,-0.97014 0.4034,-0.25238 0.59789,-0.91058 0.51802,-1.75313 -0.0691,-0.72912 -0.64968,-0.49706 -0.88258,0.35278 -0.18467,0.67387 -0.27584,0.71383 -0.60359,0.26458 -0.3201,-0.43874 -0.3492,-0.41603 -0.17031,0.13291 0.11866,0.36414 0.0348,0.88008 -0.18631,1.14653 -0.31081,0.3745 -0.28073,0.48445 0.13256,0.48445 0.29404,0 0.62599,0.23813 0.73768,0.52917 0.11168,0.29104 0.36814,0.52916 0.5699,0.52916 0.22861,0 0.19955,-0.26991 -0.0771,-0.71631 z m -11.405369,-0.6066 c -0.175603,-0.14552 -0.437755,-0.42334 -0.58256,-0.61736 -0.150252,-0.20133 -0.265606,-0.0877 -0.26869,0.26458 -0.0032,0.34318 0.255725,0.61736 0.582563,0.61736 0.323378,0 0.444289,-0.11906 0.268687,-0.26458 z m 3.875699,-1.93488 c 0.24222,-0.16394 0.182,-0.26116 -0.16388,-0.26458 -0.77082,-0.008 -1.375418,0.68949 -1.136951,1.31092 0.1663,0.43337 0.263791,0.41052 0.559641,-0.13118 0.19705,-0.36079 0.53058,-0.77261 0.74119,-0.91516 z m -2.968461,-0.2908 c 0,-0.18258 -0.15875,-0.33196 -0.352778,-0.33196 -0.194027,0 -0.352777,0.24749 -0.352777,0.54999 0,0.30249 0.15875,0.45187 0.352777,0.33195 0.194028,-0.11991 0.352778,-0.36741 0.352778,-0.54998 z m -3.175,-0.33196 c 0,-0.19403 -0.15875,-0.35278 -0.352778,-0.35278 -0.194027,0 -0.352777,0.15875 -0.352777,0.35278 0,0.19403 0.15875,0.35278 0.352777,0.35278 0.194028,0 0.352778,-0.15875 0.352778,-0.35278 z m 4.938889,0 c 0,-0.19403 -0.07,-0.35278 -0.155568,-0.35278 -0.08556,0 -0.253682,0.15875 -0.373599,0.35278 -0.119916,0.19403 -0.04991,0.35278 0.155568,0.35278 0.205479,0 0.373599,-0.15875 0.373599,-0.35278 z m -0.352778,-1.41111 c 0,-0.19403 -0.15875,-0.35278 -0.352778,-0.35278 -0.194027,0 -0.352777,0.15875 -0.352777,0.35278 0,0.19403 0.15875,0.35278 0.352777,0.35278 0.194028,0 0.352778,-0.15875 0.352778,-0.35278 z m 1.96548,-0.66134 c 0,-0.53729 -0.11388,-0.59021 -0.60714,-0.28217 -0.64569,0.40324 -0.54583,0.94351 0.17438,0.94351 0.23802,0 0.43276,-0.2976 0.43276,-0.66134 z m -4.177689,-0.96291 c -0.117228,-0.11723 -0.421499,-0.12976 -0.676159,-0.0279 -0.281421,0.11261 -0.197831,0.19621 0.213138,0.21313 0.371884,0.0153 0.580245,-0.0681 0.463021,-0.18528 z m -34.77933,-5.72858 c 0.124584,-1.00487 0.450253,-2.18251 0.72371,-2.61697 0.319511,-0.50763 0.411068,-1.16814 0.256195,-1.848264 -0.13255,-0.58208 -0.259782,-1.89177 -0.282738,-2.91042 -0.02296,-1.01864 -0.183121,-1.85208 -0.355921,-1.85208 -0.393495,0 -0.741668,1.91355 -0.930731,5.11528 -0.0802,1.358194 -0.283818,3.222394 -0.452482,4.142654 -0.168663,0.92026 -0.222857,1.757 -0.120431,1.85943 0.501863,0.50186 0.957791,-0.23931 1.162398,-1.88963 z m 40.471299,42.81778 c -0.28589,-0.28589 0.10921,-2.65662 0.44275,-2.65662 0.17464,0 0.24657,0.57217 0.15983,1.27148 -0.16306,1.31473 -0.31765,1.67007 -0.60258,1.38514 z m 0.75357,-14.49219 c 0,-0.75804 1.14274,-2.89137 1.29996,-2.42684 0.13626,0.40264 -0.83926,2.97352 -1.1283,2.97352 -0.0944,0 -0.17166,-0.24601 -0.17166,-0.54668 z m -3.39735,-1.65818 c 0.117,-0.43656 0.22853,-1.5875 0.24786,-2.55764 0.0315,-1.57939 0.0673,-1.65627 0.34279,-0.73501 0.3626,1.21261 0.0409,4.0864 -0.45739,4.0864 -0.19029,0 -0.25025,-0.35719 -0.13326,-0.79375 z m 0.22235,-4.85069 c 0,-0.19403 0.15875,-0.35278 0.35278,-0.35278 0.19403,0 0.35278,0.15875 0.35278,0.35278 0,0.19402 -0.15875,0.35277 -0.35278,0.35277 -0.19403,0 -0.35278,-0.15875 -0.35278,-0.35277 z m 10.23056,-15.37839 c 0,-0.11492 0.31972,-0.6154 0.71049,-1.11219 0.78321,-0.99569 0.67355,-1.50502 -0.1728,-0.80261 -0.30614,0.25407 -0.53769,0.29197 -0.53769,0.088 0,-0.43292 1.00423,-0.86157 1.41857,-0.60549 0.35854,0.22159 0.7346,-0.32776 1.27103,-1.85669 0.22125,-0.6306 0.26122,-1.14653 0.0888,-1.14653 -0.17238,0 0.16383,-0.65882 0.74713,-1.46404 0.5833,-0.80523 1.06054,-1.74035 1.06054,-2.07805 0,-0.3377 0.40193,-2.160924 0.89316,-4.051594 0.88209,-3.39498 0.90363,-4.222 0.0887,-3.40711 -0.51775,0.51776 -0.9819,0.53895 -0.9819,0.0448 0,-0.20494 0.75407,-0.69637 1.6757,-1.09206 3.61173,-1.55066 4.75398,-2.186259 6.09909,-3.393789 0.76859,-0.689977 1.39744,-1.459392 1.39744,-1.709813 0,-0.454191 2.19829,-1.070626 3.145,-0.881906 0.53547,0.106743 3.87402,-1.402234 3.89685,-1.761315 0.008,-0.118615 -0.38317,-0.139796 -0.86824,-0.04707 -0.48507,0.09273 -0.88195,0.01291 -0.88195,-0.177358 0,-0.190274 0.70168,-0.442129 1.5593,-0.559678 2.0751,-0.284425 6.19273,-2.317579 5.95394,-2.939866 -0.21152,-0.551217 1.02846,-0.643556 1.95845,-0.145841 0.38818,0.207745 1.34312,0.152866 2.65779,-0.152738 2.41127,-0.560518 2.89305,-0.877065 1.33488,-0.877065 -0.61443,0 -1.11714,-0.15875 -1.11714,-0.352778 0,-0.194028 0.0397,-0.355168 0.0882,-0.358089 0.0485,-0.0029 0.72319,-0.245569 1.4993,-0.539217 l 1.41112,-0.533905 -1.23473,0.133937 c -1.29945,0.140958 -3.25657,0.610888 -7.05555,1.694135 -1.26118,0.359614 -3.73475,0.947032 -5.49681,1.305372 -2.3166,0.471112 -3.65982,0.965303 -4.8507,1.78465 -0.90581,0.623218 -1.64694,0.987843 -1.64694,0.810277 0,-0.811758 3.0853,-2.261648 6.62392,-3.112813 2.08067,-0.500474 4.8149,-1.201444 6.07608,-1.557711 6.56442,-1.854362 9.23142,-2.121124 9.45824,-0.946042 0.0873,0.452056 -0.17665,0.680172 -0.97062,0.838965 -1.00195,0.200391 -1.0399,0.257377 -0.46751,0.702045 0.59199,0.459903 0.58851,0.510544 -0.07,1.019079 -0.38112,0.29432 -1.17487,0.518872 -1.76389,0.499003 -1.61866,-0.0546 -4.82327,0.386372 -5.96959,0.821451 -0.55995,0.212524 -2.29185,1.151959 -3.84867,2.087635 -1.55682,0.935675 -3.02393,1.701228 -3.26025,1.701228 -0.23631,0 -0.61296,0.220867 -0.837,0.490816 -0.22404,0.269948 -1.10362,0.595229 -1.95463,0.722845 -0.851,0.127617 -1.73845,0.462375 -1.9721,0.743907 -0.23365,0.281532 -0.61237,0.511877 -0.84159,0.511877 -0.22922,0 -0.9553,0.555625 -1.61351,1.234722 -0.6582,0.679097 -1.38231,1.23472 -1.60913,1.23472 -0.22681,0 -0.83492,0.33237 -1.35135,0.7386 -0.51643,0.40622 -1.37128,0.85498 -1.89966,0.99723 -0.61323,0.16509 -0.9665,0.50402 -0.97677,0.9371 -0.009,0.37315 -0.19979,1.31346 -0.42433,2.08957 -0.41858,1.4468 -0.49528,1.77544 -1.19395,5.115284 -0.22325,1.06715 -0.65441,2.22724 -0.95815,2.57797 -0.30373,0.35072 -0.60777,1.05234 -0.67564,1.55913 -0.23034,1.71997 -3.61102,6.56858 -3.61102,5.17896 z m -2.46945,-1.1525 c 0,-0.60166 0.41773,-1.46078 0.71028,-1.46078 0.35445,0 0.0185,1.35512 -0.40008,1.61382 -0.17061,0.10544 -0.3102,0.0366 -0.3102,-0.15304 z m 1.41112,-0.57884 c 0,-0.29104 0.15376,-0.52916 0.3417,-0.52916 0.18794,0 0.25033,0.23812 0.13865,0.52916 -0.11169,0.29105 -0.26545,0.52917 -0.34171,0.52917 -0.0762,0 -0.13864,-0.23812 -0.13864,-0.52917 z m -4.7265,-0.11813 c -0.29091,-0.47071 0.4817,-2.88048 0.92353,-2.88048 0.27742,0 0.0833,1.19666 -0.42473,2.61796 -0.16493,0.46142 -0.3241,0.54519 -0.4988,0.26252 z m -2.68184,-1.27216 c 0,-0.30249 0.15875,-0.54998 0.35278,-0.54998 0.19403,0 0.35278,0.14938 0.35278,0.33195 0,0.18258 -0.15875,0.43007 -0.35278,0.54999 -0.19403,0.11992 -0.35278,-0.0295 -0.35278,-0.33196 z m 6.35,-0.5708 c 0,-0.20548 0.15875,-0.27549 0.35278,-0.15557 0.19403,0.11991 0.35278,0.28803 0.35278,0.37359 0,0.0856 -0.15875,0.15557 -0.35278,0.15557 -0.19403,0 -0.35278,-0.16812 -0.35278,-0.37359 z m 0.61736,-0.713 c -0.60555,-0.3527 -0.87323,-1.39357 -0.35277,-1.37176 0.14552,0.006 0.5498,0.40297 0.89841,0.88194 0.66836,0.91831 0.48014,1.08728 -0.54564,0.48982 z m -5.46385,-1.97921 c 0.328,-0.328 0.69541,-0.49731 0.81648,-0.37625 0.34719,0.3472 -0.18581,0.97261 -0.8289,0.97261 -0.53851,0 -0.53754,-0.0464 0.0124,-0.59636 z m 8.72705,-0.28559 c 0.24154,-0.29104 0.59792,-0.52916 0.79195,-0.52916 0.19679,0 0.15859,0.23398 -0.0864,0.52916 -0.24155,0.29105 -0.59793,0.52917 -0.79195,0.52917 -0.19679,0 -0.15859,-0.23398 0.0864,-0.52917 z m -11.28889,-0.1972 c 0,-0.20548 0.15875,-0.27549 0.35278,-0.15557 0.19402,0.11991 0.35277,0.28803 0.35277,0.37359 0,0.0856 -0.15875,0.15557 -0.35277,0.15557 -0.19403,0 -0.35278,-0.16812 -0.35278,-0.37359 z m 9.17222,-1.03752 c 0,-0.19403 0.22876,-0.35278 0.50835,-0.35278 0.27959,0 0.60646,0.15875 0.72637,0.35278 0.11992,0.19403 -0.10884,0.35278 -0.50834,0.35278 -0.39951,0 -0.72638,-0.15875 -0.72638,-0.35278 z m 2.11667,-0.30262 c 0,-0.36257 1.06852,-0.86312 1.31543,-0.61621 0.0859,0.0859 -0.17499,0.33331 -0.57966,0.54988 -0.40493,0.21672 -0.73577,0.24654 -0.73577,0.0663 z m -11.0537,-0.28534 c -0.12936,-0.12935 -0.23519,-0.39923 -0.23519,-0.59972 0,-0.22105 0.16431,-0.20023 0.41745,0.0529 0.2296,0.2296 0.33544,0.49948 0.23519,0.59973 -0.10025,0.10024 -0.28811,0.0764 -0.41745,-0.0529 z m -1.620179,-0.96806 c -0.227175,-0.27373 -0.511189,-1.102504 -0.631147,-1.841714 -0.119959,-0.73921 -0.362349,-1.50744 -0.53865,-1.70717 -0.1763,-0.19974 -0.665783,-0.97176 -1.087741,-1.71561 -0.65261,-1.15047 -1.110989,-1.46662 -3.069059,-2.11681 -1.266024,-0.4204 -2.75587,-1.12148 -3.310769,-1.55796 -0.554899,-0.43648 -1.503436,-0.80057 -2.10786,-0.80909 -1.523392,-0.0215 -3.383619,-0.737088 -5.568742,-2.142274 -1.152524,-0.741153 -2.729953,-1.364186 -4.161234,-1.643551 -4.063761,-0.793186 -4.259255,-0.85714 -4.607155,-1.507197 -0.188221,-0.351693 -0.698133,-0.690217 -1.133139,-0.752274 -0.829301,-0.118308 -1.270807,-1.192374 -0.717557,-1.745625 0.17772,-0.177719 1.408876,-0.394727 2.735904,-0.482238 1.907681,-0.125804 2.67779,-0.0191 3.678707,0.509728 1.149438,0.607293 7.137527,1.93466 7.973947,1.767567 0.881873,-0.176172 1.619595,0.08158 2.532727,0.884921 0.607112,0.534112 0.795955,0.875107 0.488423,0.881945 -0.275764,0.0061 -0.757206,-0.220364 -1.069872,-0.503322 -0.333297,-0.30162 -1.658307,-0.601102 -3.202777,-0.72389 -2.75441,-0.21898 -6.54652,-1.034918 -7.194778,-1.548081 -0.208124,-0.164751 -1.172157,-0.386637 -2.142295,-0.493079 -1.735902,-0.190461 -1.742899,-0.187381 -0.440973,0.194106 1.320701,0.386988 1.839953,1.43086 0.881945,1.773006 -0.907984,0.32428 0.124929,0.698214 1.822993,0.659957 0.967808,-0.02181 1.866369,0.133028 1.996802,0.344072 0.162162,0.262384 0.330109,0.233303 0.53114,-0.09197 0.234137,-0.378841 0.383168,-0.386509 0.732014,-0.03766 0.348846,0.348846 0.335518,0.438024 -0.06546,0.438024 -1.293907,0 3.369373,2.469341 5.394925,2.856768 2.394107,0.45792 3.713864,1.023433 5.426792,2.325357 0.739226,0.56186 1.771675,0.90914 3.086807,1.03826 1.888825,0.18546 1.976818,0.15756 1.993014,-0.63193 0.01577,-0.76932 0.05811,-0.75138 0.617361,0.26159 0.330228,0.59814 0.898395,1.70939 1.262596,2.46944 0.36419,0.76005 0.88013,1.80328 1.14652,2.31828 0.2664,0.51501 0.48436,1.12166 0.48436,1.34812 0,0.49362 -1.21686,-0.65481 -1.27405,-1.2024 -0.1037,-0.99297 -0.927106,-2.55263 -1.554476,-2.94443 -0.89076,-0.55629 -0.882593,-0.2066 0.03013,1.29055 0.399722,0.65565 0.786046,1.66051 0.858503,2.23301 0.07245,0.5725 0.379813,1.41954 0.683023,1.882304 0.30322,0.46276 0.5513,0.92633 0.5513,1.03018 0,0.36852 -0.62531,0.1814 -1.032213,-0.3089 z m 3.501659,0.14491 c 0,-0.19403 0.24749,-0.35278 0.54998,-0.35278 0.3025,0 0.45188,0.15875 0.33196,0.35278 -0.11992,0.19403 -0.36741,0.35278 -0.54999,0.35278 -0.18257,0 -0.33195,-0.15875 -0.33195,-0.35278 z m 7.58472,-0.35278 c -0.11992,-0.19402 0.0201,-0.35277 0.31114,-0.35277 0.29104,0 0.62727,0.15875 0.74719,0.35277 0.11992,0.19403 -0.0201,0.35278 -0.31114,0.35278 -0.29104,0 -0.62728,-0.15875 -0.74719,-0.35278 z m 1.5875,-0.28563 c 0,-0.18944 0.25139,-0.4409 0.55865,-0.55881 0.34357,-0.131844 0.50485,-0.053 0.41892,0.20479 -0.17578,0.52735 -0.97757,0.81771 -0.97757,0.35402 z m -9.6132,-0.31032 c -1.1372,-0.297184 -0.63283,-0.815164 0.79375,-0.815164 1.42565,0 1.88038,0.45 0.85309,0.844204 -0.59064,0.22666 -0.67399,0.22519 -1.64684,-0.029 z m 3.33375,-0.885714 c -0.51005,-0.51006 -0.55018,-0.98778 -0.083,-0.98778 0.18721,0 0.51029,0.3175 0.71797,0.70555 0.41585,0.77704 0.0309,0.948134 -0.635,0.28223 z m 2.07598,0.15875 c 0.0483,-0.42809 2.79271,-2.67488 3.00634,-2.46125 0.10736,0.10736 -0.41281,0.7603 -1.15592,1.45097 -1.31608,1.2232 -1.91112,1.548084 -1.85042,1.01028 z m 3.14513,-0.64793 c 0,-0.61983 0.98542,-1.74745 1.27448,-1.45839 0.15061,0.15061 -0.0745,0.6222 -0.50033,1.04798 -0.42578,0.42579 -0.77415,0.61047 -0.77415,0.41041 z m -6.44612,-1.22746 c 0.12434,-0.47547 0.31068,-0.6088 0.53596,-0.38352 0.36516,0.36516 0.0779,1.11239 -0.42763,1.11239 -0.16441,0 -0.21316,-0.32799 -0.10833,-0.72887 z m -0.0793,-1.73742 c -0.28894,-0.91037 0.14276,-1.68027 0.56686,-1.01096 0.40533,0.63969 0.39598,1.71336 -0.0149,1.71336 -0.18095,0 -0.42932,-0.31608 -0.55193,-0.7024 z m 8.49943,-0.91169 c 0.25307,-1.02595 1.88167,-3.46724 2.14041,-3.2085 0.21636,0.21636 -0.28036,1.29481 -0.59638,1.29481 -0.15785,0 -0.38919,0.46528 -0.5141,1.03396 -0.1249,0.56868 -0.465,1.2314 -0.75577,1.47272 -0.45635,0.37873 -0.49385,0.29761 -0.27416,-0.59299 z m -10.2155,-3.14841 c -0.25762,-0.67135 0.15162,-0.67581 1.03028,-0.0112 0.67087,0.50742 0.66942,0.51818 -0.0712,0.52917 -0.4158,0.006 -0.84738,-0.22691 -0.95907,-0.51795 z m -9.098054,-0.31322 c -1.676919,-0.451687 -3.670508,-1.548518 -3.366725,-1.852301 0.09288,-0.09288 0.726645,0.06419 1.408374,0.349032 0.681729,0.284845 2.127638,0.702275 3.213131,0.927622 1.085494,0.225347 1.973623,0.557217 1.973623,0.737487 0,0.43838 -1.228754,0.37678 -3.228403,-0.16184 z m 3.08013,-0.635635 c -0.297579,-0.424856 -0.475894,-0.837628 -0.39625,-0.91727 0.235408,-0.235407 0.866203,0.266906 1.260594,1.003828 0.512414,0.957457 -0.181782,0.887937 -0.864344,-0.08656 z m 9.320494,0.410955 c 0,-0.46128 1.70953,-1.120851 2.44166,-0.942041 0.44586,0.108895 0.41622,0.187238 -0.1486,0.392764 -0.38806,0.141205 -0.98122,0.403897 -1.31813,0.583767 -0.78419,0.41864 -0.97493,0.41189 -0.97493,-0.0345 z m 7.76112,0.0793 c 0,-0.366546 0.76436,-1.12889 1.13188,-1.12889 0.15685,0 0.0869,0.3175 -0.15543,0.705555 -0.44512,0.712765 -0.97646,0.943115 -0.97645,0.423335 z m -11.99445,-0.731529 c 0,-0.879667 -1.06498,-1.260235 -3.263192,-1.16609 -0.922404,0.0395 -1.675694,-0.08573 -1.675694,-0.278592 0,-0.599098 1.764453,-0.828089 3.159696,-0.410065 1.7895,0.536149 1.9783,0.506082 1.37089,-0.218319 -0.28471,-0.339548 -0.82087,-1.331736 -1.19146,-2.204861 -0.3706,-0.873125 -0.75842,-1.666875 -0.861826,-1.763889 -0.103406,-0.09701 -0.393491,-0.765112 -0.644637,-1.484664 -0.649235,-1.860091 -0.07808,-3.745242 1.447343,-4.777142 1.24776,-0.844067 1.8406,-1.020412 1.48249,-0.440972 -0.11991,0.194028 -0.0405,0.352778 0.17639,0.352778 0.21693,0 0.29631,0.15875 0.17639,0.352778 -0.28689,0.464199 0.0482,0.446213 0.98026,-0.05262 l 0.75749,-0.405393 -0.86888,-0.337205 c -0.7789,-0.302288 -0.8016,-0.362418 -0.21923,-0.580684 1.44495,-0.541551 2.48418,-0.231178 3.30512,0.987099 0.44426,0.659284 0.80774,1.642103 0.80774,2.184042 0,0.541939 0.15908,1.083656 0.3535,1.203816 0.43705,0.270117 0.1641,2.76684 -0.32014,2.928251 -0.31171,0.103905 0.0503,1.260976 1.01517,3.244916 0.3904,0.802716 1.82885,0.821367 4.48618,0.05817 1.36315,-0.391505 2.95045,-0.615893 3.66853,-0.5186 0.98751,0.133799 1.65381,-0.06729 3.03115,-0.914767 0.97097,-0.597446 2.42545,-1.319143 3.23218,-1.603772 1.25738,-0.443632 1.46677,-0.446143 1.46677,-0.01759 0,0.28535 -0.61023,0.664237 -1.42175,0.882756 -0.78196,0.21056 -2.32539,0.851679 -3.42985,1.424709 -1.49074,0.773441 -2.49377,1.041871 -3.89312,1.041871 -1.99006,0 -2.92271,0.335207 -4.21987,1.51669 -0.6896,0.628106 -0.79375,0.645465 -0.79375,0.132304 0,-0.324863 -0.27781,-0.608972 -0.61736,-0.631353 -0.33955,-0.02238 -0.84243,-0.06207 -1.11752,-0.08819 -0.27508,-0.02613 -0.85221,-0.745776 -1.2825,-1.599222 -0.64553,-1.280332 -0.82189,-1.434579 -1.00841,-0.881944 -0.34731,1.029064 -1.86955,2.610054 -2.51308,2.610054 -0.84018,0 -0.51064,-0.549061 0.89443,-1.490233 0.74284,-0.497586 1.2804,-1.173581 1.3494,-1.69689 0.0631,-0.478402 0.34089,-1.550057 0.61736,-2.381456 0.62496,-1.87936 0.6239,-1.961759 -0.0221,-1.713872 -0.571,0.219114 -2.29746,-1.180751 -2.29746,-1.862851 0,-0.231736 0.15694,-0.32435 0.34874,-0.205807 0.19998,0.123591 0.25912,-0.01801 0.13865,-0.331958 -0.11556,-0.301119 -0.0344,-0.547489 0.18042,-0.547489 0.21479,0 0.39053,-0.15875 0.39053,-0.352778 0,-0.52476 -0.74451,-0.426878 -1.42292,0.187073 -0.92303,0.835332 -2.81042,1.292883 -2.81042,0.681317 0,-0.884434 -0.88002,-0.181586 -1.23824,0.988942 -0.427242,1.396109 -0.264498,2.838912 0.29617,2.625717 0.2271,-0.08635 0.77009,-0.02423 1.20666,0.138049 0.57948,0.215406 0.7827,0.560009 0.75282,1.276562 -0.0233,0.558386 -0.10885,0.723796 -0.19849,0.383699 -0.19334,-0.733543 -1.1717,-0.439622 -1.1717,0.352006 0,0.30836 0.43304,1.185527 0.96231,1.949259 0.9685,1.397552 1.39812,3.57231 0.78103,3.953689 -0.18272,0.11293 -0.33222,-0.110844 -0.33222,-0.497275 z m 1.95235,0.327717 c -0.13378,-0.216467 0.0827,-0.37231 0.5171,-0.37231 0.41095,0 0.66035,-0.140515 0.55421,-0.312255 -0.25707,-0.415935 0.48663,-2.509968 0.89141,-2.509968 0.41192,0 0.40805,0.472036 -0.007,0.899584 -0.1791,0.184326 -0.37754,0.810031 -0.44097,1.390455 -0.11674,1.068121 -1.0637,1.633716 -1.51438,0.904494 z m 12.71372,-0.335416 c -0.63079,-0.247111 -0.63506,-0.283445 -0.0593,-0.504372 0.34124,-0.130943 0.94314,-0.238078 1.33758,-0.238078 0.39444,0 1.47903,-0.414662 2.4102,-0.921472 0.93118,-0.506809 1.8793,-0.85939 2.10693,-0.783514 0.348,0.116001 -4.54573,2.811732 -4.97142,2.738525 -0.0793,-0.01364 -0.45007,-0.144628 -0.82395,-0.291089 z M 94.266454,88.684342 c -0.873125,-0.275117 -2.024063,-0.502622 -2.557639,-0.505567 -0.533577,-0.0029 -0.970139,-0.164106 -0.970139,-0.358134 0,-0.194027 0.334473,-0.352777 0.743274,-0.352777 1.217573,0 5.606726,1.149888 5.606726,1.468873 0,0.416513 -0.976493,0.329183 -2.822222,-0.252395 z m -5.51941,-0.402284 c -0.707341,-0.13836 -2.296071,-1.51975 -1.747856,-1.51975 0.395256,0 3.38671,1.410014 3.38671,1.596317 0,0.17958 -0.432684,0.159366 -1.638854,-0.07657 z m 13.633296,-1.129229 c 0,-0.339313 0.85796,-0.750325 1.52816,-0.732079 0.22666,0.0062 0.10396,0.244295 -0.27267,0.529166 -0.77738,0.587979 -1.25549,0.665252 -1.25549,0.202913 z M 82.977565,86.40953 c 0,-0.194028 0.228756,-0.352778 0.508346,-0.352778 0.279591,0 0.60646,0.15875 0.726376,0.352778 0.119916,0.194028 -0.108841,0.352778 -0.508347,0.352778 -0.399506,0 -0.726375,-0.15875 -0.726375,-0.352778 z m -4.7625,-0.705555 c -0.119916,-0.194028 0.03883,-0.352778 0.352777,-0.352778 0.313944,0 0.472694,0.15875 0.352778,0.352778 -0.119916,0.194027 -0.278666,0.352777 -0.352778,0.352777 -0.07411,0 -0.232862,-0.15875 -0.352777,-0.352777 z m 24.673675,-0.14759 c 0.7842,-0.638966 1.25549,-0.71599 1.25549,-0.205188 0,0.194028 -0.14577,0.352778 -0.32392,0.352778 -0.17816,0 -0.61473,0.09233 -0.97014,0.205188 -0.59134,0.187762 -0.58806,0.157802 0.0386,-0.352778 z m 23.12772,-0.376572 c 0,-0.298083 2.82837,-2.056725 3.01217,-1.872925 0.0966,0.09658 -0.43111,0.596065 -1.17266,1.109958 -1.29975,0.900727 -1.83951,1.124602 -1.83951,0.762967 z m -23.20439,-2.007445 c -0.52425,-0.524248 0.0778,-1.348949 0.98484,-1.348949 0.7707,0 1.13718,0.832914 0.60198,1.368123 -0.50934,0.509334 -1.06503,0.502619 -1.58682,-0.01917 z"
       style="fill:#000000;stroke-width:0.35277778" />
  </g>
</svg>
